[0.000000] (-) TimerEvent: {}
[0.001049] (-) JobUnselected: {'identifier': 'custom_topic'}
[0.001128] (AMR_project) JobQueued: {'identifier': 'AMR_project', 'dependencies': OrderedDict([('custom_topic', '/home/josef/AMR_ws/install/custom_topic')])}
[0.001154] (AMR_project) JobStarted: {'identifier': 'AMR_project'}
[0.018949] (AMR_project) JobProgress: {'identifier': 'AMR_project', 'progress': 'cmake'}
[0.020645] (AMR_project) JobProgress: {'identifier': 'AMR_project', 'progress': 'build'}
[0.020743] (AMR_project) Command: {'cmd': ['/usr/bin/cmake', '--build', '/home/josef/AMR_ws/build/AMR_project', '--', '-j6', '-l6'], 'cwd': '/home/josef/AMR_ws/build/AMR_project', 'env': OrderedDict([('GJS_DEBUG_TOPICS', 'JS ERROR;JS LOG'), ('LESSOPEN', '| /usr/bin/lesspipe %s'), ('USER', 'josef'), ('LC_TIME', 'de_AT.UTF-8'), ('SSH_AGENT_PID', '1383'), ('XDG_SESSION_TYPE', 'x11'), ('SHLVL', '1'), ('LD_LIBRARY_PATH', '/home/josef/AMR_ws/install/custom_topic/lib:/opt/ros/foxy/opt/yaml_cpp_vendor/lib:/opt/ros/foxy/opt/rviz_ogre_vendor/lib:/opt/ros/foxy/lib/x86_64-linux-gnu:/opt/ros/foxy/lib'), ('HOME', '/home/josef'), ('DESKTOP_SESSION', 'ubuntu'), ('ROS_PYTHON_VERSION', '3'), ('GNOME_SHELL_SESSION_MODE', 'ubuntu'), ('GTK_MODULES', 'gail:atk-bridge'), ('LC_MONETARY', 'de_AT.UTF-8'), ('MANAGERPID', '1231'), ('DBUS_SESSION_BUS_ADDRESS', 'unix:path=/run/user/1000/bus'), ('COLORTERM', 'truecolor'), ('IM_CONFIG_PHASE', '1'), ('COLCON_PREFIX_PATH', '/home/josef/AMR_ws/install'), ('ROS_DISTRO', 'foxy'), ('LOGNAME', 'josef'), ('JOURNAL_STREAM', '8:31910'), ('_', '/usr/bin/colcon'), ('ROS_VERSION', '2'), ('XDG_SESSION_CLASS', 'user'), ('USERNAME', 'josef'), ('TERM', 'xterm-256color'), ('GNOME_DESKTOP_SESSION_ID', 'this-is-deprecated'), ('ROS_LOCALHOST_ONLY', '0'), ('WINDOWPATH', '2'), ('PATH', '/opt/ros/foxy/bin:/home/josef/.local/bin:/usr/local/sbin:/usr/local/bin:/usr/sbin:/usr/bin:/sbin:/bin:/usr/games:/usr/local/games:/snap/bin'), ('SESSION_MANAGER', 'local/josef-VirtualBox:@/tmp/.ICE-unix/1445,unix/josef-VirtualBox:/tmp/.ICE-unix/1445'), ('INVOCATION_ID', 'f688c027e82648dd8408602b1bb78ff6'), ('XDG_MENU_PREFIX', 'gnome-'), ('LC_ADDRESS', 'de_AT.UTF-8'), ('GNOME_TERMINAL_SCREEN', '/org/gnome/Terminal/screen/cfca3d40_c3a3_447c_a70d_38cd786ca027'), ('XDG_RUNTIME_DIR', '/run/user/1000'), ('DISPLAY', ':0'), ('LANG', 'en_US.UTF-8'), ('XDG_CURRENT_DESKTOP', 'ubuntu:GNOME'), ('LC_TELEPHONE', 'de_AT.UTF-8'), ('XMODIFIERS', '@im=ibus'), ('XDG_SESSION_DESKTOP', 'ubuntu'), ('XAUTHORITY', '/run/user/1000/gdm/Xauthority'), ('LS_COLORS', 'rs=0:di=01;34:ln=01;36:mh=00:pi=40;33:so=01;35:do=01;35:bd=40;33;01:cd=40;33;01:or=40;31;01:mi=00:su=37;41:sg=30;43:ca=30;41:tw=30;42:ow=34;42:st=37;44:ex=01;32:*.tar=01;31:*.tgz=01;31:*.arc=01;31:*.arj=01;31:*.taz=01;31:*.lha=01;31:*.lz4=01;31:*.lzh=01;31:*.lzma=01;31:*.tlz=01;31:*.txz=01;31:*.tzo=01;31:*.t7z=01;31:*.zip=01;31:*.z=01;31:*.dz=01;31:*.gz=01;31:*.lrz=01;31:*.lz=01;31:*.lzo=01;31:*.xz=01;31:*.zst=01;31:*.tzst=01;31:*.bz2=01;31:*.bz=01;31:*.tbz=01;31:*.tbz2=01;31:*.tz=01;31:*.deb=01;31:*.rpm=01;31:*.jar=01;31:*.war=01;31:*.ear=01;31:*.sar=01;31:*.rar=01;31:*.alz=01;31:*.ace=01;31:*.zoo=01;31:*.cpio=01;31:*.7z=01;31:*.rz=01;31:*.cab=01;31:*.wim=01;31:*.swm=01;31:*.dwm=01;31:*.esd=01;31:*.jpg=01;35:*.jpeg=01;35:*.mjpg=01;35:*.mjpeg=01;35:*.gif=01;35:*.bmp=01;35:*.pbm=01;35:*.pgm=01;35:*.ppm=01;35:*.tga=01;35:*.xbm=01;35:*.xpm=01;35:*.tif=01;35:*.tiff=01;35:*.png=01;35:*.svg=01;35:*.svgz=01;35:*.mng=01;35:*.pcx=01;35:*.mov=01;35:*.mpg=01;35:*.mpeg=01;35:*.m2v=01;35:*.mkv=01;35:*.webm=01;35:*.ogm=01;35:*.mp4=01;35:*.m4v=01;35:*.mp4v=01;35:*.vob=01;35:*.qt=01;35:*.nuv=01;35:*.wmv=01;35:*.asf=01;35:*.rm=01;35:*.rmvb=01;35:*.flc=01;35:*.avi=01;35:*.fli=01;35:*.flv=01;35:*.gl=01;35:*.dl=01;35:*.xcf=01;35:*.xwd=01;35:*.yuv=01;35:*.cgm=01;35:*.emf=01;35:*.ogv=01;35:*.ogx=01;35:*.aac=00;36:*.au=00;36:*.flac=00;36:*.m4a=00;36:*.mid=00;36:*.midi=00;36:*.mka=00;36:*.mp3=00;36:*.mpc=00;36:*.ogg=00;36:*.ra=00;36:*.wav=00;36:*.oga=00;36:*.opus=00;36:*.spx=00;36:*.xspf=00;36:'), ('GNOME_TERMINAL_SERVICE', ':1.2037'), ('SSH_AUTH_SOCK', '/run/user/1000/keyring/ssh'), ('AMENT_PREFIX_PATH', '/home/josef/AMR_ws/install/AMR_project:/home/josef/AMR_ws/install/custom_topic:/home/josef/AMR_ws/install/cpp_pubsub:/opt/ros/foxy'), ('SHELL', '/bin/bash'), ('LC_NAME', 'de_AT.UTF-8'), ('QT_ACCESSIBILITY', '1'), ('GDMSESSION', 'ubuntu'), ('LESSCLOSE', '/usr/bin/lesspipe %s %s'), ('LC_MEASUREMENT', 'de_AT.UTF-8'), ('GPG_AGENT_INFO', '/run/user/1000/gnupg/S.gpg-agent:0:1'), ('GJS_DEBUG_OUTPUT', 'stderr'), ('LC_IDENTIFICATION', 'de_AT.UTF-8'), ('QT_IM_MODULE', 'ibus'), ('PWD', '/home/josef/AMR_ws/build/AMR_project'), ('LC_ALL', 'en_US.UTF-8'), ('XDG_CONFIG_DIRS', '/etc/xdg/xdg-ubuntu:/etc/xdg'), ('XDG_DATA_DIRS', '/usr/share/ubuntu:/usr/local/share/:/usr/share/:/var/lib/snapd/desktop'), ('PYTHONPATH', '/home/josef/AMR_ws/install/custom_topic/lib/python3.8/site-packages:/opt/ros/foxy/lib/python3.8/site-packages'), ('LC_NUMERIC', 'de_AT.UTF-8'), ('LC_PAPER', 'de_AT.UTF-8'), ('COLCON', '1'), ('VTE_VERSION', '6003'), ('CMAKE_PREFIX_PATH', '/home/josef/AMR_ws/install/custom_topic:/home/josef/AMR_ws/install/AMR_project:/home/josef/AMR_ws/install/cpp_pubsub:/opt/ros/foxy')]), 'shell': False}
[0.068271] (AMR_project) StdoutLine: {'line': b'\x1b[35m\x1b[1mScanning dependencies of target order_optimizer\x1b[0m\n'}
[0.087945] (AMR_project) StdoutLine: {'line': b'[ 33%] Built target talker\n'}
[0.088351] (AMR_project) StdoutLine: {'line': b'[ 66%] Built target listener\n'}
[0.099393] (AMR_project) StdoutLine: {'line': b'[ 83%] \x1b[32mBuilding CXX object CMakeFiles/order_optimizer.dir/src/OrderOptimizer_function.cpp.o\x1b[0m\n'}
[0.100652] (-) TimerEvent: {}
[0.202872] (-) TimerEvent: {}
[0.304297] (-) TimerEvent: {}
[0.405380] (-) TimerEvent: {}
[0.506200] (-) TimerEvent: {}
[0.608396] (-) TimerEvent: {}
[0.709069] (-) TimerEvent: {}
[0.810683] (-) TimerEvent: {}
[0.911272] (-) TimerEvent: {}
[1.011984] (-) TimerEvent: {}
[1.113496] (-) TimerEvent: {}
[1.215834] (-) TimerEvent: {}
[1.317466] (-) TimerEvent: {}
[1.418457] (-) TimerEvent: {}
[1.537918] (-) TimerEvent: {}
[1.611773] (AMR_project) StderrLine: {'line': b'\x1b[01m\x1b[K/home/josef/AMR_ws/src/AMR_project/src/OrderOptimizer_function.cpp:\x1b[m\x1b[K In function \xe2\x80\x98\x1b[01m\x1b[Kint parsing_order(int, double&, double&, std::vector<std::__cxx11::basic_string<char> >&, std::string, std::string)\x1b[m\x1b[K\xe2\x80\x99:\n'}
[1.612001] (AMR_project) StderrLine: {'line': b'\x1b[01m\x1b[K/home/josef/AMR_ws/src/AMR_project/src/OrderOptimizer_function.cpp:51:33:\x1b[m\x1b[K \x1b[01;35m\x1b[Kwarning: \x1b[m\x1b[Kcomparison of integer expressions of different signedness: \xe2\x80\x98\x1b[01m\x1b[Kstd::__cxx11::basic_string<char>::size_type\x1b[m\x1b[K\xe2\x80\x99 {aka \xe2\x80\x98\x1b[01m\x1b[Klong unsigned int\x1b[m\x1b[K\xe2\x80\x99} and \xe2\x80\x98\x1b[01m\x1b[Kint\x1b[m\x1b[K\xe2\x80\x99 [\x1b[01;35m\x1b[K-Wsign-compare\x1b[m\x1b[K]\n'}
[1.612102] (AMR_project) StderrLine: {'line': b'   51 |         if (\x1b[01;35m\x1b[Kline.find("order:") != -1\x1b[m\x1b[K && std::stoi(line.substr(8)) == order_id) {\n'}
[1.612182] (AMR_project) StderrLine: {'line': b'      |             \x1b[01;35m\x1b[K~~~~~~~~~~~~~~~~~~~~^~~~~\x1b[m\x1b[K\n'}
[1.612912] (AMR_project) StderrLine: {'line': b'\x1b[01m\x1b[K/home/josef/AMR_ws/src/AMR_project/src/OrderOptimizer_function.cpp:65:44:\x1b[m\x1b[K \x1b[01;35m\x1b[Kwarning: \x1b[m\x1b[Kcomparison of integer expressions of different signedness: \xe2\x80\x98\x1b[01m\x1b[Kstd::__cxx11::basic_string<char>::size_type\x1b[m\x1b[K\xe2\x80\x99 {aka \xe2\x80\x98\x1b[01m\x1b[Klong unsigned int\x1b[m\x1b[K\xe2\x80\x99} and \xe2\x80\x98\x1b[01m\x1b[Kint\x1b[m\x1b[K\xe2\x80\x99 [\x1b[01;35m\x1b[K-Wsign-compare\x1b[m\x1b[K]\n'}
[1.613007] (AMR_project) StderrLine: {'line': b'   65 |                     if (\x1b[01;35m\x1b[Kline.find("order") != -1\x1b[m\x1b[K)\n'}
[1.613062] (AMR_project) StderrLine: {'line': b'      |                         \x1b[01;35m\x1b[K~~~~~~~~~~~~~~~~~~~^~~~~\x1b[m\x1b[K\n'}
[1.619836] (AMR_project) StderrLine: {'line': b'\x1b[01m\x1b[K/home/josef/AMR_ws/src/AMR_project/src/OrderOptimizer_function.cpp:\x1b[m\x1b[K In function \xe2\x80\x98\x1b[01m\x1b[Kint parsing_product(std::vector<std::__cxx11::basic_string<char> >&, std::vector<part>&, std::string)\x1b[m\x1b[K\xe2\x80\x99:\n'}
[1.619989] (AMR_project) StderrLine: {'line': b'\x1b[01m\x1b[K/home/josef/AMR_ws/src/AMR_project/src/OrderOptimizer_function.cpp:114:23:\x1b[m\x1b[K \x1b[01;35m\x1b[Kwarning: \x1b[m\x1b[Kcomparison of integer expressions of different signedness: \xe2\x80\x98\x1b[01m\x1b[Kint\x1b[m\x1b[K\xe2\x80\x99 and \xe2\x80\x98\x1b[01m\x1b[Kstd::vector<std::__cxx11::basic_string<char> >::size_type\x1b[m\x1b[K\xe2\x80\x99 {aka \xe2\x80\x98\x1b[01m\x1b[Klong unsigned int\x1b[m\x1b[K\xe2\x80\x99} [\x1b[01;35m\x1b[K-Wsign-compare\x1b[m\x1b[K]\n'}
[1.620066] (AMR_project) StderrLine: {'line': b'  114 |     for (int i = 0; \x1b[01;35m\x1b[Ki < products.size()\x1b[m\x1b[K; i++) {\n'}
[1.620128] (AMR_project) StderrLine: {'line': b'      |                     \x1b[01;35m\x1b[K~~^~~~~~~~~~~~~~~~~\x1b[m\x1b[K\n'}
[1.620917] (AMR_project) StderrLine: {'line': b'\x1b[01m\x1b[K/home/josef/AMR_ws/src/AMR_project/src/OrderOptimizer_function.cpp:130:42:\x1b[m\x1b[K \x1b[01;35m\x1b[Kwarning: \x1b[m\x1b[Kcomparison of integer expressions of different signedness: \xe2\x80\x98\x1b[01m\x1b[Kstd::__cxx11::basic_string<char>::size_type\x1b[m\x1b[K\xe2\x80\x99 {aka \xe2\x80\x98\x1b[01m\x1b[Klong unsigned int\x1b[m\x1b[K\xe2\x80\x99} and \xe2\x80\x98\x1b[01m\x1b[Kint\x1b[m\x1b[K\xe2\x80\x99 [\x1b[01;35m\x1b[K-Wsign-compare\x1b[m\x1b[K]\n'}
[1.621002] (AMR_project) StderrLine: {'line': b'  130 |                 if (\x1b[01;35m\x1b[Kline.find("Product") != -1\x1b[m\x1b[K)\n'}
[1.621057] (AMR_project) StderrLine: {'line': b'      |                     \x1b[01;35m\x1b[K~~~~~~~~~~~~~~~~~~~~~^~~~~\x1b[m\x1b[K\n'}
[1.621817] (AMR_project) StderrLine: {'line': b'\x1b[01m\x1b[K/home/josef/AMR_ws/src/AMR_project/src/OrderOptimizer_function.cpp:144:41:\x1b[m\x1b[K \x1b[01;35m\x1b[Kwarning: \x1b[m\x1b[Kcomparison of integer expressions of different signedness: \xe2\x80\x98\x1b[01m\x1b[Kstd::__cxx11::basic_string<char>::size_type\x1b[m\x1b[K\xe2\x80\x99 {aka \xe2\x80\x98\x1b[01m\x1b[Klong unsigned int\x1b[m\x1b[K\xe2\x80\x99} and \xe2\x80\x98\x1b[01m\x1b[Kint\x1b[m\x1b[K\xe2\x80\x99 [\x1b[01;35m\x1b[K-Wsign-compare\x1b[m\x1b[K]\n'}
[1.621910] (AMR_project) StderrLine: {'line': b'  144 |                     if (\x1b[01;35m\x1b[Kline.find("id") != -1\x1b[m\x1b[K)\n'}
[1.621962] (AMR_project) StderrLine: {'line': b'      |                         \x1b[01;35m\x1b[K~~~~~~~~~~~~~~~~^~~~~\x1b[m\x1b[K\n'}
[1.628104] (AMR_project) StderrLine: {'line': b'\x1b[01m\x1b[K/home/josef/AMR_ws/src/AMR_project/src/OrderOptimizer_function.cpp:\x1b[m\x1b[K In function \xe2\x80\x98\x1b[01m\x1b[Kint calc_path(int, double&, double&, double&, double&, std::vector<std::__cxx11::basic_string<char> >&, std::vector<part>&, std::vector<part>&, std::string, std::string)\x1b[m\x1b[K\xe2\x80\x99:\n'}
[1.628219] (AMR_project) StderrLine: {'line': b'\x1b[01m\x1b[K/home/josef/AMR_ws/src/AMR_project/src/OrderOptimizer_function.cpp:206:26:\x1b[m\x1b[K \x1b[01;35m\x1b[Kwarning: \x1b[m\x1b[Kcomparison of integer expressions of different signedness: \xe2\x80\x98\x1b[01m\x1b[Kint\x1b[m\x1b[K\xe2\x80\x99 and \xe2\x80\x98\x1b[01m\x1b[Kstd::vector<part>::size_type\x1b[m\x1b[K\xe2\x80\x99 {aka \xe2\x80\x98\x1b[01m\x1b[Klong unsigned int\x1b[m\x1b[K\xe2\x80\x99} [\x1b[01;35m\x1b[K-Wsign-compare\x1b[m\x1b[K]\n'}
[1.628348] (AMR_project) StderrLine: {'line': b'  206 |        for (int i = 0; \x1b[01;35m\x1b[Ki < parts.size()\x1b[m\x1b[K; i++)\n'}
[1.628420] (AMR_project) StderrLine: {'line': b'      |                        \x1b[01;35m\x1b[K~~^~~~~~~~~~~~~~\x1b[m\x1b[K\n'}
[1.628480] (AMR_project) StderrLine: {'line': b'\x1b[01m\x1b[K/home/josef/AMR_ws/src/AMR_project/src/OrderOptimizer_function.cpp:213:26:\x1b[m\x1b[K \x1b[01;35m\x1b[Kwarning: \x1b[m\x1b[Kcomparison of integer expressions of different signedness: \xe2\x80\x98\x1b[01m\x1b[Kint\x1b[m\x1b[K\xe2\x80\x99 and \xe2\x80\x98\x1b[01m\x1b[Kstd::vector<int>::size_type\x1b[m\x1b[K\xe2\x80\x99 {aka \xe2\x80\x98\x1b[01m\x1b[Klong unsigned int\x1b[m\x1b[K\xe2\x80\x99} [\x1b[01;35m\x1b[K-Wsign-compare\x1b[m\x1b[K]\n'}
[1.628551] (AMR_project) StderrLine: {'line': b'  213 |        for (int i = 1; \x1b[01;35m\x1b[Ki < distance.size()\x1b[m\x1b[K; i++) {\n'}
[1.628609] (AMR_project) StderrLine: {'line': b'      |                        \x1b[01;35m\x1b[K~~^~~~~~~~~~~~~~~~~\x1b[m\x1b[K\n'}
[1.640446] (-) TimerEvent: {}
[1.695824] (AMR_project) StderrLine: {'line': b'\x1b[01m\x1b[K/home/josef/AMR_ws/src/AMR_project/src/OrderOptimizer_function.cpp:\x1b[m\x1b[K In member function \xe2\x80\x98\x1b[01m\x1b[Kvoid Order_Opt::timer_marker_callback()\x1b[m\x1b[K\xe2\x80\x99:\n'}
[1.696028] (AMR_project) StderrLine: {'line': b'\x1b[01m\x1b[K/home/josef/AMR_ws/src/AMR_project/src/OrderOptimizer_function.cpp:389:23:\x1b[m\x1b[K \x1b[01;35m\x1b[Kwarning: \x1b[m\x1b[Kcomparison of integer expressions of different signedness: \xe2\x80\x98\x1b[01m\x1b[Kint\x1b[m\x1b[K\xe2\x80\x99 and \xe2\x80\x98\x1b[01m\x1b[Kstd::vector<part>::size_type\x1b[m\x1b[K\xe2\x80\x99 {aka \xe2\x80\x98\x1b[01m\x1b[Klong unsigned int\x1b[m\x1b[K\xe2\x80\x99} [\x1b[01;35m\x1b[K-Wsign-compare\x1b[m\x1b[K]\n'}
[1.696110] (AMR_project) StderrLine: {'line': b'  389 |     for (int i = 0; \x1b[01;35m\x1b[Ki < parts_marker.size()\x1b[m\x1b[K; i++){\n'}
[1.696176] (AMR_project) StderrLine: {'line': b'      |                     \x1b[01;35m\x1b[K~~^~~~~~~~~~~~~~~~~~~~~\x1b[m\x1b[K\n'}
[1.741435] (-) TimerEvent: {}
[1.842464] (-) TimerEvent: {}
[1.943229] (-) TimerEvent: {}
[2.047550] (-) TimerEvent: {}
[2.153838] (-) TimerEvent: {}
[2.257491] (-) TimerEvent: {}
[2.359894] (-) TimerEvent: {}
[2.462572] (-) TimerEvent: {}
[2.566599] (-) TimerEvent: {}
[2.667708] (-) TimerEvent: {}
[2.769747] (-) TimerEvent: {}
[2.870858] (-) TimerEvent: {}
[2.972417] (-) TimerEvent: {}
[3.072805] (-) TimerEvent: {}
[3.173842] (-) TimerEvent: {}
[3.275929] (-) TimerEvent: {}
[3.413537] (-) TimerEvent: {}
[3.540228] (-) TimerEvent: {}
[3.642669] (-) TimerEvent: {}
[3.788743] (-) TimerEvent: {}
[3.904276] (-) TimerEvent: {}
[4.038626] (-) TimerEvent: {}
[4.141645] (-) TimerEvent: {}
[4.247689] (-) TimerEvent: {}
[4.353417] (-) TimerEvent: {}
[4.454237] (-) TimerEvent: {}
[4.555781] (-) TimerEvent: {}
[4.656200] (-) TimerEvent: {}
[4.766771] (-) TimerEvent: {}
[4.873792] (-) TimerEvent: {}
[4.975390] (-) TimerEvent: {}
[5.077405] (-) TimerEvent: {}
[5.179438] (-) TimerEvent: {}
[5.280061] (-) TimerEvent: {}
[5.380515] (-) TimerEvent: {}
[5.495008] (-) TimerEvent: {}
[5.596539] (-) TimerEvent: {}
[5.696921] (-) TimerEvent: {}
[5.797764] (-) TimerEvent: {}
[5.925896] (-) TimerEvent: {}
[6.030111] (-) TimerEvent: {}
[6.131775] (-) TimerEvent: {}
[6.232394] (-) TimerEvent: {}
[6.334852] (-) TimerEvent: {}
[6.435476] (-) TimerEvent: {}
[6.538044] (-) TimerEvent: {}
[6.641417] (-) TimerEvent: {}
[6.742179] (-) TimerEvent: {}
[6.843639] (-) TimerEvent: {}
[6.944825] (-) TimerEvent: {}
[6.978654] (AMR_project) StdoutLine: {'line': b'[100%] \x1b[32m\x1b[1mLinking CXX executable order_optimizer\x1b[0m\n'}
[7.045907] (-) TimerEvent: {}
[7.149423] (-) TimerEvent: {}
[7.250629] (-) TimerEvent: {}
[7.257758] (AMR_project) StdoutLine: {'line': b'[100%] Built target order_optimizer\n'}
[7.276624] (AMR_project) CommandEnded: {'returncode': 0}
[7.318025] (AMR_project) JobProgress: {'identifier': 'AMR_project', 'progress': 'install'}
[7.332749] (AMR_project) Command: {'cmd': ['/usr/bin/cmake', '--install', '/home/josef/AMR_ws/build/AMR_project'], 'cwd': '/home/josef/AMR_ws/build/AMR_project', 'env': OrderedDict([('GJS_DEBUG_TOPICS', 'JS ERROR;JS LOG'), ('LESSOPEN', '| /usr/bin/lesspipe %s'), ('USER', 'josef'), ('LC_TIME', 'de_AT.UTF-8'), ('SSH_AGENT_PID', '1383'), ('XDG_SESSION_TYPE', 'x11'), ('SHLVL', '1'), ('LD_LIBRARY_PATH', '/home/josef/AMR_ws/install/custom_topic/lib:/opt/ros/foxy/opt/yaml_cpp_vendor/lib:/opt/ros/foxy/opt/rviz_ogre_vendor/lib:/opt/ros/foxy/lib/x86_64-linux-gnu:/opt/ros/foxy/lib'), ('HOME', '/home/josef'), ('DESKTOP_SESSION', 'ubuntu'), ('ROS_PYTHON_VERSION', '3'), ('GNOME_SHELL_SESSION_MODE', 'ubuntu'), ('GTK_MODULES', 'gail:atk-bridge'), ('LC_MONETARY', 'de_AT.UTF-8'), ('MANAGERPID', '1231'), ('DBUS_SESSION_BUS_ADDRESS', 'unix:path=/run/user/1000/bus'), ('COLORTERM', 'truecolor'), ('IM_CONFIG_PHASE', '1'), ('COLCON_PREFIX_PATH', '/home/josef/AMR_ws/install'), ('ROS_DISTRO', 'foxy'), ('LOGNAME', 'josef'), ('JOURNAL_STREAM', '8:31910'), ('_', '/usr/bin/colcon'), ('ROS_VERSION', '2'), ('XDG_SESSION_CLASS', 'user'), ('USERNAME', 'josef'), ('TERM', 'xterm-256color'), ('GNOME_DESKTOP_SESSION_ID', 'this-is-deprecated'), ('ROS_LOCALHOST_ONLY', '0'), ('WINDOWPATH', '2'), ('PATH', '/opt/ros/foxy/bin:/home/josef/.local/bin:/usr/local/sbin:/usr/local/bin:/usr/sbin:/usr/bin:/sbin:/bin:/usr/games:/usr/local/games:/snap/bin'), ('SESSION_MANAGER', 'local/josef-VirtualBox:@/tmp/.ICE-unix/1445,unix/josef-VirtualBox:/tmp/.ICE-unix/1445'), ('INVOCATION_ID', 'f688c027e82648dd8408602b1bb78ff6'), ('XDG_MENU_PREFIX', 'gnome-'), ('LC_ADDRESS', 'de_AT.UTF-8'), ('GNOME_TERMINAL_SCREEN', '/org/gnome/Terminal/screen/cfca3d40_c3a3_447c_a70d_38cd786ca027'), ('XDG_RUNTIME_DIR', '/run/user/1000'), ('DISPLAY', ':0'), ('LANG', 'en_US.UTF-8'), ('XDG_CURRENT_DESKTOP', 'ubuntu:GNOME'), ('LC_TELEPHONE', 'de_AT.UTF-8'), ('XMODIFIERS', '@im=ibus'), ('XDG_SESSION_DESKTOP', 'ubuntu'), ('XAUTHORITY', '/run/user/1000/gdm/Xauthority'), ('LS_COLORS', 'rs=0:di=01;34:ln=01;36:mh=00:pi=40;33:so=01;35:do=01;35:bd=40;33;01:cd=40;33;01:or=40;31;01:mi=00:su=37;41:sg=30;43:ca=30;41:tw=30;42:ow=34;42:st=37;44:ex=01;32:*.tar=01;31:*.tgz=01;31:*.arc=01;31:*.arj=01;31:*.taz=01;31:*.lha=01;31:*.lz4=01;31:*.lzh=01;31:*.lzma=01;31:*.tlz=01;31:*.txz=01;31:*.tzo=01;31:*.t7z=01;31:*.zip=01;31:*.z=01;31:*.dz=01;31:*.gz=01;31:*.lrz=01;31:*.lz=01;31:*.lzo=01;31:*.xz=01;31:*.zst=01;31:*.tzst=01;31:*.bz2=01;31:*.bz=01;31:*.tbz=01;31:*.tbz2=01;31:*.tz=01;31:*.deb=01;31:*.rpm=01;31:*.jar=01;31:*.war=01;31:*.ear=01;31:*.sar=01;31:*.rar=01;31:*.alz=01;31:*.ace=01;31:*.zoo=01;31:*.cpio=01;31:*.7z=01;31:*.rz=01;31:*.cab=01;31:*.wim=01;31:*.swm=01;31:*.dwm=01;31:*.esd=01;31:*.jpg=01;35:*.jpeg=01;35:*.mjpg=01;35:*.mjpeg=01;35:*.gif=01;35:*.bmp=01;35:*.pbm=01;35:*.pgm=01;35:*.ppm=01;35:*.tga=01;35:*.xbm=01;35:*.xpm=01;35:*.tif=01;35:*.tiff=01;35:*.png=01;35:*.svg=01;35:*.svgz=01;35:*.mng=01;35:*.pcx=01;35:*.mov=01;35:*.mpg=01;35:*.mpeg=01;35:*.m2v=01;35:*.mkv=01;35:*.webm=01;35:*.ogm=01;35:*.mp4=01;35:*.m4v=01;35:*.mp4v=01;35:*.vob=01;35:*.qt=01;35:*.nuv=01;35:*.wmv=01;35:*.asf=01;35:*.rm=01;35:*.rmvb=01;35:*.flc=01;35:*.avi=01;35:*.fli=01;35:*.flv=01;35:*.gl=01;35:*.dl=01;35:*.xcf=01;35:*.xwd=01;35:*.yuv=01;35:*.cgm=01;35:*.emf=01;35:*.ogv=01;35:*.ogx=01;35:*.aac=00;36:*.au=00;36:*.flac=00;36:*.m4a=00;36:*.mid=00;36:*.midi=00;36:*.mka=00;36:*.mp3=00;36:*.mpc=00;36:*.ogg=00;36:*.ra=00;36:*.wav=00;36:*.oga=00;36:*.opus=00;36:*.spx=00;36:*.xspf=00;36:'), ('GNOME_TERMINAL_SERVICE', ':1.2037'), ('SSH_AUTH_SOCK', '/run/user/1000/keyring/ssh'), ('AMENT_PREFIX_PATH', '/home/josef/AMR_ws/install/AMR_project:/home/josef/AMR_ws/install/custom_topic:/home/josef/AMR_ws/install/cpp_pubsub:/opt/ros/foxy'), ('SHELL', '/bin/bash'), ('LC_NAME', 'de_AT.UTF-8'), ('QT_ACCESSIBILITY', '1'), ('GDMSESSION', 'ubuntu'), ('LESSCLOSE', '/usr/bin/lesspipe %s %s'), ('LC_MEASUREMENT', 'de_AT.UTF-8'), ('GPG_AGENT_INFO', '/run/user/1000/gnupg/S.gpg-agent:0:1'), ('GJS_DEBUG_OUTPUT', 'stderr'), ('LC_IDENTIFICATION', 'de_AT.UTF-8'), ('QT_IM_MODULE', 'ibus'), ('PWD', '/home/josef/AMR_ws/build/AMR_project'), ('LC_ALL', 'en_US.UTF-8'), ('XDG_CONFIG_DIRS', '/etc/xdg/xdg-ubuntu:/etc/xdg'), ('XDG_DATA_DIRS', '/usr/share/ubuntu:/usr/local/share/:/usr/share/:/var/lib/snapd/desktop'), ('PYTHONPATH', '/home/josef/AMR_ws/install/custom_topic/lib/python3.8/site-packages:/opt/ros/foxy/lib/python3.8/site-packages'), ('LC_NUMERIC', 'de_AT.UTF-8'), ('LC_PAPER', 'de_AT.UTF-8'), ('COLCON', '1'), ('VTE_VERSION', '6003'), ('CMAKE_PREFIX_PATH', '/home/josef/AMR_ws/install/custom_topic:/home/josef/AMR_ws/install/AMR_project:/home/josef/AMR_ws/install/cpp_pubsub:/opt/ros/foxy')]), 'shell': False}
[7.344251] (AMR_project) StdoutLine: {'line': b'-- Install configuration: ""\n'}
[7.347090] (AMR_project) StdoutLine: {'line': b'-- Installing: /home/josef/AMR_ws/install/AMR_project/lib/AMR_project/order_optimizer\n'}
[7.350360] (AMR_project) StdoutLine: {'line': b'-- Set runtime path of "/home/josef/AMR_ws/install/AMR_project/lib/AMR_project/order_optimizer" to ""\n'}
[7.350620] (-) TimerEvent: {}
[7.351014] (AMR_project) StdoutLine: {'line': b'-- Up-to-date: /home/josef/AMR_ws/install/AMR_project/lib/AMR_project/talker\n'}
[7.351196] (AMR_project) StdoutLine: {'line': b'-- Up-to-date: /home/josef/AMR_ws/install/AMR_project/lib/AMR_project/listener\n'}
[7.351533] (AMR_project) StdoutLine: {'line': b'-- Up-to-date: /home/josef/AMR_ws/install/AMR_project/share/ament_index/resource_index/package_run_dependencies/AMR_project\n'}
[7.351679] (AMR_project) StdoutLine: {'line': b'-- Up-to-date: /home/josef/AMR_ws/install/AMR_project/share/ament_index/resource_index/parent_prefix_path/AMR_project\n'}
[7.351942] (AMR_project) StdoutLine: {'line': b'-- Up-to-date: /home/josef/AMR_ws/install/AMR_project/share/AMR_project/environment/ament_prefix_path.sh\n'}
[7.352020] (AMR_project) StdoutLine: {'line': b'-- Up-to-date: /home/josef/AMR_ws/install/AMR_project/share/AMR_project/environment/ament_prefix_path.dsv\n'}
[7.352073] (AMR_project) StdoutLine: {'line': b'-- Up-to-date: /home/josef/AMR_ws/install/AMR_project/share/AMR_project/environment/path.sh\n'}
[7.352122] (AMR_project) StdoutLine: {'line': b'-- Up-to-date: /home/josef/AMR_ws/install/AMR_project/share/AMR_project/environment/path.dsv\n'}
[7.352169] (AMR_project) StdoutLine: {'line': b'-- Up-to-date: /home/josef/AMR_ws/install/AMR_project/share/AMR_project/local_setup.bash\n'}
[7.352215] (AMR_project) StdoutLine: {'line': b'-- Up-to-date: /home/josef/AMR_ws/install/AMR_project/share/AMR_project/local_setup.sh\n'}
[7.352260] (AMR_project) StdoutLine: {'line': b'-- Up-to-date: /home/josef/AMR_ws/install/AMR_project/share/AMR_project/local_setup.zsh\n'}
[7.352305] (AMR_project) StdoutLine: {'line': b'-- Up-to-date: /home/josef/AMR_ws/install/AMR_project/share/AMR_project/local_setup.dsv\n'}
[7.352349] (AMR_project) StdoutLine: {'line': b'-- Installing: /home/josef/AMR_ws/install/AMR_project/share/AMR_project/package.dsv\n'}
[7.352392] (AMR_project) StdoutLine: {'line': b'-- Up-to-date: /home/josef/AMR_ws/install/AMR_project/share/ament_index/resource_index/packages/AMR_project\n'}
[7.352437] (AMR_project) StdoutLine: {'line': b'-- Up-to-date: /home/josef/AMR_ws/install/AMR_project/share/AMR_project/cmake/AMR_projectConfig.cmake\n'}
[7.352482] (AMR_project) StdoutLine: {'line': b'-- Up-to-date: /home/josef/AMR_ws/install/AMR_project/share/AMR_project/cmake/AMR_projectConfig-version.cmake\n'}
[7.352534] (AMR_project) StdoutLine: {'line': b'-- Up-to-date: /home/josef/AMR_ws/install/AMR_project/share/AMR_project/package.xml\n'}
[7.356363] (AMR_project) CommandEnded: {'returncode': 0}
[7.435721] (AMR_project) JobEnded: {'identifier': 'AMR_project', 'rc': 0}
[7.440849] (-) EventReactorShutdown: {}
