[0.024s] Invoking command in '/home/josef/AMR_ws/build/AMR_project': CMAKE_PREFIX_PATH=/home/josef/AMR_ws/install/custom_topic:/home/josef/AMR_ws/install/AMR_project:/home/josef/AMR_ws/install/cpp_pubsub:/opt/ros/foxy /usr/bin/cmake --build /home/josef/AMR_ws/build/AMR_project -- -j6 -l6
[0.068s] [35m[1mScanning dependencies of target order_optimizer[0m
[0.085s] [ 33%] Built target listener
[0.085s] [ 66%] Built target talker
[0.100s] [ 83%] [32mBuilding CXX object CMakeFiles/order_optimizer.dir/src/OrderOptimizer_function.cpp.o[0m
[1.556s] [01m[K/home/josef/AMR_ws/src/AMR_project/src/OrderOptimizer_function.cpp:[m[K In function ‘[01m[Kint parsing_order(int, double&, double&, std::vector<std::__cxx11::basic_string<char> >&, std::string, std::string)[m[K’:
[1.556s] [01m[K/home/josef/AMR_ws/src/AMR_project/src/OrderOptimizer_function.cpp:50:33:[m[K [01;35m[Kwarning: [m[Kcomparison of integer expressions of different signedness: ‘[01m[Kstd::__cxx11::basic_string<char>::size_type[m[K’ {aka ‘[01m[Klong unsigned int[m[K’} and ‘[01m[Kint[m[K’ [[01;35m[K-Wsign-compare[m[K]
[1.556s]    50 |         if ([01;35m[Kline.find("order:") != -1[m[K && std::stoi(line.substr(8)) == order_id) {
[1.556s]       |             [01;35m[K~~~~~~~~~~~~~~~~~~~~^~~~~[m[K
[1.557s] [01m[K/home/josef/AMR_ws/src/AMR_project/src/OrderOptimizer_function.cpp:64:44:[m[K [01;35m[Kwarning: [m[Kcomparison of integer expressions of different signedness: ‘[01m[Kstd::__cxx11::basic_string<char>::size_type[m[K’ {aka ‘[01m[Klong unsigned int[m[K’} and ‘[01m[Kint[m[K’ [[01;35m[K-Wsign-compare[m[K]
[1.557s]    64 |                     if ([01;35m[Kline.find("order") != -1[m[K)
[1.557s]       |                         [01;35m[K~~~~~~~~~~~~~~~~~~~^~~~~[m[K
[1.564s] [01m[K/home/josef/AMR_ws/src/AMR_project/src/OrderOptimizer_function.cpp:[m[K In function ‘[01m[Kint parsing_product(std::vector<std::__cxx11::basic_string<char> >&, std::vector<part>&, std::string)[m[K’:
[1.564s] [01m[K/home/josef/AMR_ws/src/AMR_project/src/OrderOptimizer_function.cpp:113:23:[m[K [01;35m[Kwarning: [m[Kcomparison of integer expressions of different signedness: ‘[01m[Kint[m[K’ and ‘[01m[Kstd::vector<std::__cxx11::basic_string<char> >::size_type[m[K’ {aka ‘[01m[Klong unsigned int[m[K’} [[01;35m[K-Wsign-compare[m[K]
[1.565s]   113 |     for (int i = 0; [01;35m[Ki < products.size()[m[K; i++) {
[1.565s]       |                     [01;35m[K~~^~~~~~~~~~~~~~~~~[m[K
[1.565s] [01m[K/home/josef/AMR_ws/src/AMR_project/src/OrderOptimizer_function.cpp:129:42:[m[K [01;35m[Kwarning: [m[Kcomparison of integer expressions of different signedness: ‘[01m[Kstd::__cxx11::basic_string<char>::size_type[m[K’ {aka ‘[01m[Klong unsigned int[m[K’} and ‘[01m[Kint[m[K’ [[01;35m[K-Wsign-compare[m[K]
[1.566s]   129 |                 if ([01;35m[Kline.find("Product") != -1[m[K)
[1.566s]       |                     [01;35m[K~~~~~~~~~~~~~~~~~~~~~^~~~~[m[K
[1.567s] [01m[K/home/josef/AMR_ws/src/AMR_project/src/OrderOptimizer_function.cpp:143:41:[m[K [01;35m[Kwarning: [m[Kcomparison of integer expressions of different signedness: ‘[01m[Kstd::__cxx11::basic_string<char>::size_type[m[K’ {aka ‘[01m[Klong unsigned int[m[K’} and ‘[01m[Kint[m[K’ [[01;35m[K-Wsign-compare[m[K]
[1.567s]   143 |                     if ([01;35m[Kline.find("id") != -1[m[K)
[1.567s]       |                         [01;35m[K~~~~~~~~~~~~~~~~^~~~~[m[K
[1.573s] [01m[K/home/josef/AMR_ws/src/AMR_project/src/OrderOptimizer_function.cpp:[m[K In function ‘[01m[Kint calc_path(int, double&, double&, double&, double&, std::vector<std::__cxx11::basic_string<char> >&, std::vector<part>&, std::string, std::string)[m[K’:
[1.573s] [01m[K/home/josef/AMR_ws/src/AMR_project/src/OrderOptimizer_function.cpp:203:26:[m[K [01;35m[Kwarning: [m[Kcomparison of integer expressions of different signedness: ‘[01m[Kint[m[K’ and ‘[01m[Kstd::vector<part>::size_type[m[K’ {aka ‘[01m[Klong unsigned int[m[K’} [[01;35m[K-Wsign-compare[m[K]
[1.573s]   203 |        for (int i = 0; [01;35m[Ki < parts.size()[m[K; i++)
[1.573s]       |                        [01;35m[K~~^~~~~~~~~~~~~~[m[K
[1.574s] [01m[K/home/josef/AMR_ws/src/AMR_project/src/OrderOptimizer_function.cpp:210:26:[m[K [01;35m[Kwarning: [m[Kcomparison of integer expressions of different signedness: ‘[01m[Kint[m[K’ and ‘[01m[Kstd::vector<int>::size_type[m[K’ {aka ‘[01m[Klong unsigned int[m[K’} [[01;35m[K-Wsign-compare[m[K]
[1.574s]   210 |        for (int i = 1; [01;35m[Ki < distance.size()[m[K; i++) {
[1.574s]       |                        [01;35m[K~~^~~~~~~~~~~~~~~~~[m[K
[1.639s] [01m[K/home/josef/AMR_ws/src/AMR_project/src/OrderOptimizer_function.cpp:[m[K In lambda function:
[1.639s] [01m[K/home/josef/AMR_ws/src/AMR_project/src/OrderOptimizer_function.cpp:274:29:[m[K [01;31m[Kerror: [m[Kcannot convert ‘[01m[Kconst SharedPtr[m[K’ {aka ‘[01m[Kconst std::shared_ptr<geometry_msgs::msg::PoseStamped_<std::allocator<void> > >[m[K’} to ‘[01m[Kgeometry_msgs::msg::PoseStamped[m[K’ {aka ‘[01m[Kgeometry_msgs::msg::PoseStamped_<std::allocator<void> >[m[K’}
[1.640s]   274 |     geometric_path_callback([01;31m[Kmsg1[m[K, msg2);
[1.640s]       |                             [01;31m[K^~~~[m[K
[1.640s]       |                             [01;31m[K|[m[K
[1.640s]       |                             [01;31m[Kconst SharedPtr {aka const std::shared_ptr<geometry_msgs::msg::PoseStamped_<std::allocator<void> > >}[m[K
[1.640s] [01m[K/home/josef/AMR_ws/src/AMR_project/src/OrderOptimizer_function.cpp:314:64:[m[K [01;36m[Knote: [m[K  initializing argument 1 of ‘[01m[Kvoid Order_Opt::geometric_path_callback(geometry_msgs::msg::PoseStamped, custom_topic::msg::NextOrder)[m[K’
[1.640s]   314 |   void geometric_path_callback([01;36m[Kgeometry_msgs::msg::PoseStamped msg1[m[K, custom_topic::msg::NextOrder msg2){
[1.640s]       |                                [01;36m[K~~~~~~~~~~~~~~~~~~~~~~~~~~~~~~~~^~~~[m[K
[1.652s] [01m[K/home/josef/AMR_ws/src/AMR_project/src/OrderOptimizer_function.cpp:[m[K In member function ‘[01m[Kvoid Order_Opt::geometric_path_callback(geometry_msgs::msg::PoseStamped, custom_topic::msg::NextOrder)[m[K’:
[1.652s] [01m[K/home/josef/AMR_ws/src/AMR_project/src/OrderOptimizer_function.cpp:314:64:[m[K [01;35m[Kwarning: [m[Kunused parameter ‘[01m[Kmsg1[m[K’ [[01;35m[K-Wunused-parameter[m[K]
[1.652s] [01m[K/home/josef/AMR_ws/src/AMR_project/src/OrderOptimizer_function.cpp:314:99:[m[K [01;35m[Kwarning: [m[Kunused parameter ‘[01m[Kmsg2[m[K’ [[01;35m[K-Wunused-parameter[m[K]
[1.652s]   314 |   void geometric_path_callback(geometry_msgs::msg::PoseStamped msg1, [01;35m[Kcustom_topic::msg::NextOrder msg2[m[K){
[1.652s]       |                                                                      [01;35m[K~~~~~~~~~~~~~~~~~~~~~~~~~~~~~^~~~[m[K
[2.174s] In file included from [01m[K/opt/ros/foxy/include/message_filters/synchronizer.h:47[m[K,
[2.175s]                  from [01m[K/opt/ros/foxy/include/message_filters/time_synchronizer.h:41[m[K,
[2.175s]                  from [01m[K/home/josef/AMR_ws/src/AMR_project/src/OrderOptimizer_function.cpp:16[m[K:
[2.176s] /opt/ros/foxy/include/message_filters/signal9.h: In instantiation of ‘[01m[Kmessage_filters::Connection message_filters::Signal9<M0, M1, M2, M3, M4, M5, M6, M7, M8>::addCallback(C&) [with C = const Order_Opt::Order_Opt()::<lambda(geometry_msgs::msg::PoseStamped_<std::allocator<void> >::SharedPtr, custom_topic::msg::NextOrder_<std::allocator<void> >::SharedPtr)>; M0 = geometry_msgs::msg::PoseStamped_<std::allocator<void> >; M1 = custom_topic::msg::NextOrder_<std::allocator<void> >; M2 = message_filters::NullType; M3 = message_filters::NullType; M4 = message_filters::NullType; M5 = message_filters::NullType; M6 = message_filters::NullType; M7 = message_filters::NullType; M8 = message_filters::NullType][m[K’:
[2.176s] [01m[K/opt/ros/foxy/include/message_filters/synchronizer.h:298:40:[m[K   required from ‘[01m[Kmessage_filters::Connection message_filters::Synchronizer<Policy>::registerCallback(const C&) [with C = Order_Opt::Order_Opt()::<lambda(geometry_msgs::msg::PoseStamped_<std::allocator<void> >::SharedPtr, custom_topic::msg::NextOrder_<std::allocator<void> >::SharedPtr)>; Policy = message_filters::sync_policies::ExactTime<geometry_msgs::msg::PoseStamped_<std::allocator<void> >, custom_topic::msg::NextOrder_<std::allocator<void> >, message_filters::NullType, message_filters::NullType, message_filters::NullType, message_filters::NullType, message_filters::NullType, message_filters::NullType, message_filters::NullType>][m[K’
[2.176s] [01m[K/home/josef/AMR_ws/src/AMR_project/src/OrderOptimizer_function.cpp:275:2:[m[K   required from here
[2.176s] [01m[K/opt/ros/foxy/include/message_filters/signal9.h:280:267:[m[K [01;31m[Kerror: [m[Kno matching function for call to ‘[01m[Kmessage_filters::Signal9<geometry_msgs::msg::PoseStamped_<std::allocator<void> >, custom_topic::msg::NextOrder_<std::allocator<void> >, message_filters::NullType, message_filters::NullType, message_filters::NullType, message_filters::NullType, message_filters::NullType, message_filters::NullType, message_filters::NullType>::addCallback<const M0ConstPtr&, const M1ConstPtr&, const M2ConstPtr&, const M3ConstPtr&, const M4ConstPtr&, const M5ConstPtr&, const M6ConstPtr&, const M7ConstPtr&, const M8ConstPtr&>(std::_Bind_helper<false, const Order_Opt::Order_Opt()::<lambda(geometry_msgs::msg::PoseStamped_<std::allocator<void> >::SharedPtr, custom_topic::msg::NextOrder_<std::allocator<void> >::SharedPtr)>&, const std::_Placeholder<1>&, const std::_Placeholder<2>&, const std::_Placeholder<3>&, const std::_Placeholder<4>&, const std::_Placeholder<5>&, const std::_Placeholder<6>&, const std::_Placeholder<7>&, const std::_Placeholder<8>&, const std::_Placeholder<9>&>::type)[m[K’
[2.176s]   280 |                      const M8ConstPtr&>(std::bind(callback, std::placeholders::_1, std::placeholders::_2, std::placeholders::_3, std::placeholders::_4, std::placeholders::_5, std::placeholders::_6, std::placeholders::_7, std::placeholders::_8, std::placeholders::_9)[01;31m[K)[m[K;
[2.176s]       |                                                                                                                                                                                                                                                                           [01;31m[K^[m[K
[2.177s] In file included from [01m[K/opt/ros/foxy/include/message_filters/synchronizer.h:47[m[K,
[2.177s]                  from [01m[K/opt/ros/foxy/include/message_filters/time_synchronizer.h:41[m[K,
[2.177s]                  from [01m[K/home/josef/AMR_ws/src/AMR_project/src/OrderOptimizer_function.cpp:16[m[K:
[2.177s] [01m[K/opt/ros/foxy/include/message_filters/signal9.h:170:14:[m[K [01;36m[Knote: [m[Kcandidate: ‘[01m[Kmessage_filters::Connection message_filters::Signal9<M0, M1, M2, M3, M4, M5, M6, M7, M8>::addCallback(const std::function<void(P0, P1, P2, P3, P4, P5, P6, P7, P8)>&) [with P0 = const std::shared_ptr<const geometry_msgs::msg::PoseStamped_<std::allocator<void> > >&; P1 = const std::shared_ptr<const custom_topic::msg::NextOrder_<std::allocator<void> > >&; P2 = const std::shared_ptr<const message_filters::NullType>&; P3 = const std::shared_ptr<const message_filters::NullType>&; P4 = const std::shared_ptr<const message_filters::NullType>&; P5 = const std::shared_ptr<const message_filters::NullType>&; P6 = const std::shared_ptr<const message_filters::NullType>&; P7 = const std::shared_ptr<const message_filters::NullType>&; P8 = const std::shared_ptr<const message_filters::NullType>&; M0 = geometry_msgs::msg::PoseStamped_<std::allocator<void> >; M1 = custom_topic::msg::NextOrder_<std::allocator<void> >; M2 = message_filters::NullType; M3 = message_filters::NullType; M4 = message_filters::NullType; M5 = message_filters::NullType; M6 = message_filters::NullType; M7 = message_filters::NullType; M8 = message_filters::NullType][m[K’
[2.177s]   170 |   Connection [01;36m[KaddCallback[m[K(const std::function<void(P0, P1, P2, P3, P4, P5, P6, P7, P8)>& callback)
[2.177s]       |              [01;36m[K^~~~~~~~~~~[m[K
[2.177s] [01m[K/opt/ros/foxy/include/message_filters/signal9.h:170:89:[m[K [01;36m[Knote: [m[K  no known conversion for argument 1 from ‘[01m[Kstd::_Bind_helper<false, const Order_Opt::Order_Opt()::<lambda(geometry_msgs::msg::PoseStamped_<std::allocator<void> >::SharedPtr, custom_topic::msg::NextOrder_<std::allocator<void> >::SharedPtr)>&, const std::_Placeholder<1>&, const std::_Placeholder<2>&, const std::_Placeholder<3>&, const std::_Placeholder<4>&, const std::_Placeholder<5>&, const std::_Placeholder<6>&, const std::_Placeholder<7>&, const std::_Placeholder<8>&, const std::_Placeholder<9>&>::type[m[K’ {aka ‘[01m[Kstd::_Bind<Order_Opt::Order_Opt()::<lambda(geometry_msgs::msg::PoseStamped_<std::allocator<void> >::SharedPtr, custom_topic::msg::NextOrder_<std::allocator<void> >::SharedPtr)>(std::_Placeholder<1>, std::_Placeholder<2>, std::_Placeholder<3>, std::_Placeholder<4>, std::_Placeholder<5>, std::_Placeholder<6>, std::_Placeholder<7>, std::_Placeholder<8>, std::_Placeholder<9>)>[m[K’} to ‘[01m[Kconst std::function<void(const std::shared_ptr<const geometry_msgs::msg::PoseStamped_<std::allocator<void> > >&, const std::shared_ptr<const custom_topic::msg::NextOrder_<std::allocator<void> > >&, const std::shared_ptr<const message_filters::NullType>&, const std::shared_ptr<const message_filters::NullType>&, const std::shared_ptr<const message_filters::NullType>&, const std::shared_ptr<const message_filters::NullType>&, const std::shared_ptr<const message_filters::NullType>&, const std::shared_ptr<const message_filters::NullType>&, const std::shared_ptr<const message_filters::NullType>&)>&[m[K’
[2.177s]   170 |   Connection addCallback([01;36m[Kconst std::function<void(P0, P1, P2, P3, P4, P5, P6, P7, P8)>& callback[m[K)
[2.177s]       |                          [01;36m[K~~~~~~~~~~~~~~~~~~~~~~~~~~~~~~~~~~~~~~~~~~~~~~~~~~~~~~~~~~~~~~~^~~~~~~~[m[K
[2.177s] [01m[K/opt/ros/foxy/include/message_filters/signal9.h:180:14:[m[K [01;36m[Knote: [m[Kcandidate: ‘[01m[Ktemplate<class P0, class P1> message_filters::Connection message_filters::Signal9<M0, M1, M2, M3, M4, M5, M6, M7, M8>::addCallback(void (*)(P0, P1)) [with P0 = P0; P1 = P1; M0 = geometry_msgs::msg::PoseStamped_<std::allocator<void> >; M1 = custom_topic::msg::NextOrder_<std::allocator<void> >; M2 = message_filters::NullType; M3 = message_filters::NullType; M4 = message_filters::NullType; M5 = message_filters::NullType; M6 = message_filters::NullType; M7 = message_filters::NullType; M8 = message_filters::NullType][m[K’
[2.177s]   180 |   Connection [01;36m[KaddCallback[m[K(void(*callback)(P0, P1))
[2.177s]       |              [01;36m[K^~~~~~~~~~~[m[K
[2.177s] [01m[K/opt/ros/foxy/include/message_filters/signal9.h:180:14:[m[K [01;36m[Knote: [m[K  template argument deduction/substitution failed:
[2.177s] In file included from [01m[K/opt/ros/foxy/include/message_filters/synchronizer.h:47[m[K,
[2.178s]                  from [01m[K/opt/ros/foxy/include/message_filters/time_synchronizer.h:41[m[K,
[2.178s]                  from [01m[K/home/josef/AMR_ws/src/AMR_project/src/OrderOptimizer_function.cpp:16[m[K:
[2.178s] [01m[K/opt/ros/foxy/include/message_filters/signal9.h:280:267:[m[K [01;31m[Kerror: [m[Kwrong number of template arguments (9, should be 2)
[2.178s]   280 |                      const M8ConstPtr&>(std::bind(callback, std::placeholders::_1, std::placeholders::_2, std::placeholders::_3, std::placeholders::_4, std::placeholders::_5, std::placeholders::_6, std::placeholders::_7, std::placeholders::_8, std::placeholders::_9)[01;31m[K)[m[K;
[2.178s]       |                                                                                                                                                                                                                                                                           [01;31m[K^[m[K
[2.178s] In file included from [01m[K/opt/ros/foxy/include/message_filters/synchronizer.h:47[m[K,
[2.178s]                  from [01m[K/opt/ros/foxy/include/message_filters/time_synchronizer.h:41[m[K,
[2.178s]                  from [01m[K/home/josef/AMR_ws/src/AMR_project/src/OrderOptimizer_function.cpp:16[m[K:
[2.178s] [01m[K/opt/ros/foxy/include/message_filters/signal9.h:186:14:[m[K [01;36m[Knote: [m[Kcandidate: ‘[01m[Ktemplate<class P0, class P1, class P2> message_filters::Connection message_filters::Signal9<M0, M1, M2, M3, M4, M5, M6, M7, M8>::addCallback(void (*)(P0, P1, P2)) [with P0 = P0; P1 = P1; P2 = P2; M0 = geometry_msgs::msg::PoseStamped_<std::allocator<void> >; M1 = custom_topic::msg::NextOrder_<std::allocator<void> >; M2 = message_filters::NullType; M3 = message_filters::NullType; M4 = message_filters::NullType; M5 = message_filters::NullType; M6 = message_filters::NullType; M7 = message_filters::NullType; M8 = message_filters::NullType][m[K’
[2.178s]   186 |   Connection [01;36m[KaddCallback[m[K(void(*callback)(P0, P1, P2))
[2.178s]       |              [01;36m[K^~~~~~~~~~~[m[K
[2.178s] [01m[K/opt/ros/foxy/include/message_filters/signal9.h:186:14:[m[K [01;36m[Knote: [m[K  template argument deduction/substitution failed:
[2.178s] In file included from [01m[K/opt/ros/foxy/include/message_filters/synchronizer.h:47[m[K,
[2.178s]                  from [01m[K/opt/ros/foxy/include/message_filters/time_synchronizer.h:41[m[K,
[2.178s]                  from [01m[K/home/josef/AMR_ws/src/AMR_project/src/OrderOptimizer_function.cpp:16[m[K:
[2.178s] [01m[K/opt/ros/foxy/include/message_filters/signal9.h:280:267:[m[K [01;31m[Kerror: [m[Kwrong number of template arguments (9, should be 3)
[2.178s]   280 |                      const M8ConstPtr&>(std::bind(callback, std::placeholders::_1, std::placeholders::_2, std::placeholders::_3, std::placeholders::_4, std::placeholders::_5, std::placeholders::_6, std::placeholders::_7, std::placeholders::_8, std::placeholders::_9)[01;31m[K)[m[K;
[2.178s]       |                                                                                                                                                                                                                                                                           [01;31m[K^[m[K
[2.178s] In file included from [01m[K/opt/ros/foxy/include/message_filters/synchronizer.h:47[m[K,
[2.178s]                  from [01m[K/opt/ros/foxy/include/message_filters/time_synchronizer.h:41[m[K,
[2.178s]                  from [01m[K/home/josef/AMR_ws/src/AMR_project/src/OrderOptimizer_function.cpp:16[m[K:
[2.178s] [01m[K/opt/ros/foxy/include/message_filters/signal9.h:192:14:[m[K [01;36m[Knote: [m[Kcandidate: ‘[01m[Ktemplate<class P0, class P1, class P2, class P3> message_filters::Connection message_filters::Signal9<M0, M1, M2, M3, M4, M5, M6, M7, M8>::addCallback(void (*)(P0, P1, P2, P3)) [with P0 = P0; P1 = P1; P2 = P2; P3 = P3; M0 = geometry_msgs::msg::PoseStamped_<std::allocator<void> >; M1 = custom_topic::msg::NextOrder_<std::allocator<void> >; M2 = message_filters::NullType; M3 = message_filters::NullType; M4 = message_filters::NullType; M5 = message_filters::NullType; M6 = message_filters::NullType; M7 = message_filters::NullType; M8 = message_filters::NullType][m[K’
[2.178s]   192 |   Connection [01;36m[KaddCallback[m[K(void(*callback)(P0, P1, P2, P3))
[2.179s]       |              [01;36m[K^~~~~~~~~~~[m[K
[2.179s] [01m[K/opt/ros/foxy/include/message_filters/signal9.h:192:14:[m[K [01;36m[Knote: [m[K  template argument deduction/substitution failed:
[2.179s] In file included from [01m[K/opt/ros/foxy/include/message_filters/synchronizer.h:47[m[K,
[2.179s]                  from [01m[K/opt/ros/foxy/include/message_filters/time_synchronizer.h:41[m[K,
[2.179s]                  from [01m[K/home/josef/AMR_ws/src/AMR_project/src/OrderOptimizer_function.cpp:16[m[K:
[2.179s] [01m[K/opt/ros/foxy/include/message_filters/signal9.h:280:267:[m[K [01;31m[Kerror: [m[Kwrong number of template arguments (9, should be 4)
[2.179s]   280 |                      const M8ConstPtr&>(std::bind(callback, std::placeholders::_1, std::placeholders::_2, std::placeholders::_3, std::placeholders::_4, std::placeholders::_5, std::placeholders::_6, std::placeholders::_7, std::placeholders::_8, std::placeholders::_9)[01;31m[K)[m[K;
[2.179s]       |                                                                                                                                                                                                                                                                           [01;31m[K^[m[K
[2.179s] In file included from [01m[K/opt/ros/foxy/include/message_filters/synchronizer.h:47[m[K,
[2.179s]                  from [01m[K/opt/ros/foxy/include/message_filters/time_synchronizer.h:41[m[K,
[2.179s]                  from [01m[K/home/josef/AMR_ws/src/AMR_project/src/OrderOptimizer_function.cpp:16[m[K:
[2.179s] [01m[K/opt/ros/foxy/include/message_filters/signal9.h:198:14:[m[K [01;36m[Knote: [m[Kcandidate: ‘[01m[Ktemplate<class P0, class P1, class P2, class P3, class P4> message_filters::Connection message_filters::Signal9<M0, M1, M2, M3, M4, M5, M6, M7, M8>::addCallback(void (*)(P0, P1, P2, P3, P4)) [with P0 = P0; P1 = P1; P2 = P2; P3 = P3; P4 = P4; M0 = geometry_msgs::msg::PoseStamped_<std::allocator<void> >; M1 = custom_topic::msg::NextOrder_<std::allocator<void> >; M2 = message_filters::NullType; M3 = message_filters::NullType; M4 = message_filters::NullType; M5 = message_filters::NullType; M6 = message_filters::NullType; M7 = message_filters::NullType; M8 = message_filters::NullType][m[K’
[2.179s]   198 |   Connection [01;36m[KaddCallback[m[K(void(*callback)(P0, P1, P2, P3, P4))
[2.179s]       |              [01;36m[K^~~~~~~~~~~[m[K
[2.179s] [01m[K/opt/ros/foxy/include/message_filters/signal9.h:198:14:[m[K [01;36m[Knote: [m[K  template argument deduction/substitution failed:
[2.179s] In file included from [01m[K/opt/ros/foxy/include/message_filters/synchronizer.h:47[m[K,
[2.179s]                  from [01m[K/opt/ros/foxy/include/message_filters/time_synchronizer.h:41[m[K,
[2.179s]                  from [01m[K/home/josef/AMR_ws/src/AMR_project/src/OrderOptimizer_function.cpp:16[m[K:
[2.179s] [01m[K/opt/ros/foxy/include/message_filters/signal9.h:280:267:[m[K [01;31m[Kerror: [m[Kwrong number of template arguments (9, should be 5)
[2.179s]   280 |                      const M8ConstPtr&>(std::bind(callback, std::placeholders::_1, std::placeholders::_2, std::placeholders::_3, std::placeholders::_4, std::placeholders::_5, std::placeholders::_6, std::placeholders::_7, std::placeholders::_8, std::placeholders::_9)[01;31m[K)[m[K;
[2.179s]       |                                                                                                                                                                                                                                                                           [01;31m[K^[m[K
[2.179s] In file included from [01m[K/opt/ros/foxy/include/message_filters/synchronizer.h:47[m[K,
[2.179s]                  from [01m[K/opt/ros/foxy/include/message_filters/time_synchronizer.h:41[m[K,
[2.180s]                  from [01m[K/home/josef/AMR_ws/src/AMR_project/src/OrderOptimizer_function.cpp:16[m[K:
[2.180s] [01m[K/opt/ros/foxy/include/message_filters/signal9.h:204:14:[m[K [01;36m[Knote: [m[Kcandidate: ‘[01m[Ktemplate<class P0, class P1, class P2, class P3, class P4, class P5> message_filters::Connection message_filters::Signal9<M0, M1, M2, M3, M4, M5, M6, M7, M8>::addCallback(void (*)(P0, P1, P2, P3, P4, P5)) [with P0 = P0; P1 = P1; P2 = P2; P3 = P3; P4 = P4; P5 = P5; M0 = geometry_msgs::msg::PoseStamped_<std::allocator<void> >; M1 = custom_topic::msg::NextOrder_<std::allocator<void> >; M2 = message_filters::NullType; M3 = message_filters::NullType; M4 = message_filters::NullType; M5 = message_filters::NullType; M6 = message_filters::NullType; M7 = message_filters::NullType; M8 = message_filters::NullType][m[K’
[2.180s]   204 |   Connection [01;36m[KaddCallback[m[K(void(*callback)(P0, P1, P2, P3, P4, P5))
[2.180s]       |              [01;36m[K^~~~~~~~~~~[m[K
[2.180s] [01m[K/opt/ros/foxy/include/message_filters/signal9.h:204:14:[m[K [01;36m[Knote: [m[K  template argument deduction/substitution failed:
[2.180s] In file included from [01m[K/opt/ros/foxy/include/message_filters/synchronizer.h:47[m[K,
[2.180s]                  from [01m[K/opt/ros/foxy/include/message_filters/time_synchronizer.h:41[m[K,
[2.180s]                  from [01m[K/home/josef/AMR_ws/src/AMR_project/src/OrderOptimizer_function.cpp:16[m[K:
[2.180s] [01m[K/opt/ros/foxy/include/message_filters/signal9.h:280:267:[m[K [01;31m[Kerror: [m[Kwrong number of template arguments (9, should be 6)
[2.180s]   280 |                      const M8ConstPtr&>(std::bind(callback, std::placeholders::_1, std::placeholders::_2, std::placeholders::_3, std::placeholders::_4, std::placeholders::_5, std::placeholders::_6, std::placeholders::_7, std::placeholders::_8, std::placeholders::_9)[01;31m[K)[m[K;
[2.180s]       |                                                                                                                                                                                                                                                                           [01;31m[K^[m[K
[2.180s] In file included from [01m[K/opt/ros/foxy/include/message_filters/synchronizer.h:47[m[K,
[2.180s]                  from [01m[K/opt/ros/foxy/include/message_filters/time_synchronizer.h:41[m[K,
[2.180s]                  from [01m[K/home/josef/AMR_ws/src/AMR_project/src/OrderOptimizer_function.cpp:16[m[K:
[2.180s] [01m[K/opt/ros/foxy/include/message_filters/signal9.h:210:14:[m[K [01;36m[Knote: [m[Kcandidate: ‘[01m[Ktemplate<class P0, class P1, class P2, class P3, class P4, class P5, class P6> message_filters::Connection message_filters::Signal9<M0, M1, M2, M3, M4, M5, M6, M7, M8>::addCallback(void (*)(P0, P1, P2, P3, P4, P5, P6)) [with P0 = P0; P1 = P1; P2 = P2; P3 = P3; P4 = P4; P5 = P5; P6 = P6; M0 = geometry_msgs::msg::PoseStamped_<std::allocator<void> >; M1 = custom_topic::msg::NextOrder_<std::allocator<void> >; M2 = message_filters::NullType; M3 = message_filters::NullType; M4 = message_filters::NullType; M5 = message_filters::NullType; M6 = message_filters::NullType; M7 = message_filters::NullType; M8 = message_filters::NullType][m[K’
[2.180s]   210 |   Connection [01;36m[KaddCallback[m[K(void(*callback)(P0, P1, P2, P3, P4, P5, P6))
[2.180s]       |              [01;36m[K^~~~~~~~~~~[m[K
[2.180s] [01m[K/opt/ros/foxy/include/message_filters/signal9.h:210:14:[m[K [01;36m[Knote: [m[K  template argument deduction/substitution failed:
[2.180s] In file included from [01m[K/opt/ros/foxy/include/message_filters/synchronizer.h:47[m[K,
[2.180s]                  from [01m[K/opt/ros/foxy/include/message_filters/time_synchronizer.h:41[m[K,
[2.180s]                  from [01m[K/home/josef/AMR_ws/src/AMR_project/src/OrderOptimizer_function.cpp:16[m[K:
[2.180s] [01m[K/opt/ros/foxy/include/message_filters/signal9.h:280:267:[m[K [01;31m[Kerror: [m[Kwrong number of template arguments (9, should be 7)
[2.180s]   280 |                      const M8ConstPtr&>(std::bind(callback, std::placeholders::_1, std::placeholders::_2, std::placeholders::_3, std::placeholders::_4, std::placeholders::_5, std::placeholders::_6, std::placeholders::_7, std::placeholders::_8, std::placeholders::_9)[01;31m[K)[m[K;
[2.181s]       |                                                                                                                                                                                                                                                                           [01;31m[K^[m[K
[2.181s] [01m[K/opt/ros/foxy/include/message_filters/signal9.h:216:14:[m[K [01;36m[Knote: [m[Kcandidate: ‘[01m[Ktemplate<class P0, class P1, class P2, class P3, class P4, class P5, class P6, class P7> message_filters::Connection message_filters::Signal9<M0, M1, M2, M3, M4, M5, M6, M7, M8>::addCallback(void (*)(P0, P1, P2, P3, P4, P5, P6, P7)) [with P0 = P0; P1 = P1; P2 = P2; P3 = P3; P4 = P4; P5 = P5; P6 = P6; P7 = P7; M0 = geometry_msgs::msg::PoseStamped_<std::allocator<void> >; M1 = custom_topic::msg::NextOrder_<std::allocator<void> >; M2 = message_filters::NullType; M3 = message_filters::NullType; M4 = message_filters::NullType; M5 = message_filters::NullType; M6 = message_filters::NullType; M7 = message_filters::NullType; M8 = message_filters::NullType][m[K’
[2.181s]   216 |   Connection [01;36m[KaddCallback[m[K(void(*callback)(P0, P1, P2, P3, P4, P5, P6, P7))
[2.181s]       |              [01;36m[K^~~~~~~~~~~[m[K
[2.181s] [01m[K/opt/ros/foxy/include/message_filters/signal9.h:216:14:[m[K [01;36m[Knote: [m[K  template argument deduction/substitution failed:
[2.181s] [01m[K/opt/ros/foxy/include/message_filters/signal9.h:280:267:[m[K [01;31m[Kerror: [m[Kwrong number of template arguments (9, should be 8)
[2.181s]   280 |                      const M8ConstPtr&>(std::bind(callback, std::placeholders::_1, std::placeholders::_2, std::placeholders::_3, std::placeholders::_4, std::placeholders::_5, std::placeholders::_6, std::placeholders::_7, std::placeholders::_8, std::placeholders::_9)[01;31m[K)[m[K;
[2.181s]       |                                                                                                                                                                                                                                                                           [01;31m[K^[m[K
[2.181s] [01m[K/opt/ros/foxy/include/message_filters/signal9.h:222:14:[m[K [01;36m[Knote: [m[Kcandidate: ‘[01m[Kmessage_filters::Connection message_filters::Signal9<M0, M1, M2, M3, M4, M5, M6, M7, M8>::addCallback(void (*)(P0, P1, P2, P3, P4, P5, P6, P7, P8)) [with P0 = const std::shared_ptr<const geometry_msgs::msg::PoseStamped_<std::allocator<void> > >&; P1 = const std::shared_ptr<const custom_topic::msg::NextOrder_<std::allocator<void> > >&; P2 = const std::shared_ptr<const message_filters::NullType>&; P3 = const std::shared_ptr<const message_filters::NullType>&; P4 = const std::shared_ptr<const message_filters::NullType>&; P5 = const std::shared_ptr<const message_filters::NullType>&; P6 = const std::shared_ptr<const message_filters::NullType>&; P7 = const std::shared_ptr<const message_filters::NullType>&; P8 = const std::shared_ptr<const message_filters::NullType>&; M0 = geometry_msgs::msg::PoseStamped_<std::allocator<void> >; M1 = custom_topic::msg::NextOrder_<std::allocator<void> >; M2 = message_filters::NullType; M3 = message_filters::NullType; M4 = message_filters::NullType; M5 = message_filters::NullType; M6 = message_filters::NullType; M7 = message_filters::NullType; M8 = message_filters::NullType][m[K’
[2.181s]   222 |   Connection [01;36m[KaddCallback[m[K(void(*callback)(P0, P1, P2, P3, P4, P5, P6, P7, P8))
[2.181s]       |              [01;36m[K^~~~~~~~~~~[m[K
[2.181s] [01m[K/opt/ros/foxy/include/message_filters/signal9.h:222:32:[m[K [01;36m[Knote: [m[K  no known conversion for argument 1 from ‘[01m[Kstd::_Bind_helper<false, const Order_Opt::Order_Opt()::<lambda(geometry_msgs::msg::PoseStamped_<std::allocator<void> >::SharedPtr, custom_topic::msg::NextOrder_<std::allocator<void> >::SharedPtr)>&, const std::_Placeholder<1>&, const std::_Placeholder<2>&, const std::_Placeholder<3>&, const std::_Placeholder<4>&, const std::_Placeholder<5>&, const std::_Placeholder<6>&, const std::_Placeholder<7>&, const std::_Placeholder<8>&, const std::_Placeholder<9>&>::type[m[K’ {aka ‘[01m[Kstd::_Bind<Order_Opt::Order_Opt()::<lambda(geometry_msgs::msg::PoseStamped_<std::allocator<void> >::SharedPtr, custom_topic::msg::NextOrder_<std::allocator<void> >::SharedPtr)>(std::_Placeholder<1>, std::_Placeholder<2>, std::_Placeholder<3>, std::_Placeholder<4>, std::_Placeholder<5>, std::_Placeholder<6>, std::_Placeholder<7>, std::_Placeholder<8>, std::_Placeholder<9>)>[m[K’} to ‘[01m[Kvoid (*)(const std::shared_ptr<const geometry_msgs::msg::PoseStamped_<std::allocator<void> > >&, const std::shared_ptr<const custom_topic::msg::NextOrder_<std::allocator<void> > >&, const std::shared_ptr<const message_filters::NullType>&, const std::shared_ptr<const message_filters::NullType>&, const std::shared_ptr<const message_filters::NullType>&, const std::shared_ptr<const message_filters::NullType>&, const std::shared_ptr<const message_filters::NullType>&, const std::shared_ptr<const message_filters::NullType>&, const std::shared_ptr<const message_filters::NullType>&)[m[K’
[2.181s]   222 |   Connection addCallback([01;36m[Kvoid(*callback)(P0, P1, P2, P3, P4, P5, P6, P7, P8)[m[K)
[2.181s]       |                          [01;36m[K~~~~~~^~~~~~~~~~~~~~~~~~~~~~~~~~~~~~~~~~~~~~~~~~~~~[m[K
[2.181s] [01m[K/opt/ros/foxy/include/message_filters/signal9.h:228:14:[m[K [01;36m[Knote: [m[Kcandidate: ‘[01m[Ktemplate<class T, class P0, class P1> message_filters::Connection message_filters::Signal9<M0, M1, M2, M3, M4, M5, M6, M7, M8>::addCallback(void (T::*)(P0, P1), T*) [with T = T; P0 = P0; P1 = P1; M0 = geometry_msgs::msg::PoseStamped_<std::allocator<void> >; M1 = custom_topic::msg::NextOrder_<std::allocator<void> >; M2 = message_filters::NullType; M3 = message_filters::NullType; M4 = message_filters::NullType; M5 = message_filters::NullType; M6 = message_filters::NullType; M7 = message_filters::NullType; M8 = message_filters::NullType][m[K’
[2.181s]   228 |   Connection [01;36m[KaddCallback[m[K(void(T::*callback)(P0, P1), T* t)
[2.181s]       |              [01;36m[K^~~~~~~~~~~[m[K
[2.181s] [01m[K/opt/ros/foxy/include/message_filters/signal9.h:228:14:[m[K [01;36m[Knote: [m[K  template argument deduction/substitution failed:
[2.181s] [01m[K/opt/ros/foxy/include/message_filters/signal9.h:280:267:[m[K [01;31m[Kerror: [m[Kwrong number of template arguments (9, should be 3)
[2.181s]   280 |                      const M8ConstPtr&>(std::bind(callback, std::placeholders::_1, std::placeholders::_2, std::placeholders::_3, std::placeholders::_4, std::placeholders::_5, std::placeholders::_6, std::placeholders::_7, std::placeholders::_8, std::placeholders::_9)[01;31m[K)[m[K;
[2.181s]       |                                                                                                                                                                                                                                                                           [01;31m[K^[m[K
[2.182s] [01m[K/opt/ros/foxy/include/message_filters/signal9.h:234:14:[m[K [01;36m[Knote: [m[Kcandidate: ‘[01m[Ktemplate<class T, class P0, class P1, class P2> message_filters::Connection message_filters::Signal9<M0, M1, M2, M3, M4, M5, M6, M7, M8>::addCallback(void (T::*)(P0, P1, P2), T*) [with T = T; P0 = P0; P1 = P1; P2 = P2; M0 = geometry_msgs::msg::PoseStamped_<std::allocator<void> >; M1 = custom_topic::msg::NextOrder_<std::allocator<void> >; M2 = message_filters::NullType; M3 = message_filters::NullType; M4 = message_filters::NullType; M5 = message_filters::NullType; M6 = message_filters::NullType; M7 = message_filters::NullType; M8 = message_filters::NullType][m[K’
[2.182s]   234 |   Connection [01;36m[KaddCallback[m[K(void(T::*callback)(P0, P1, P2), T* t)
[2.182s]       |              [01;36m[K^~~~~~~~~~~[m[K
[2.182s] [01m[K/opt/ros/foxy/include/message_filters/signal9.h:234:14:[m[K [01;36m[Knote: [m[K  template argument deduction/substitution failed:
[2.182s] [01m[K/opt/ros/foxy/include/message_filters/signal9.h:280:267:[m[K [01;31m[Kerror: [m[Kwrong number of template arguments (9, should be 4)
[2.182s]   280 |                      const M8ConstPtr&>(std::bind(callback, std::placeholders::_1, std::placeholders::_2, std::placeholders::_3, std::placeholders::_4, std::placeholders::_5, std::placeholders::_6, std::placeholders::_7, std::placeholders::_8, std::placeholders::_9)[01;31m[K)[m[K;
[2.182s]       |                                                                                                                                                                                                                                                                           [01;31m[K^[m[K
[2.182s] [01m[K/opt/ros/foxy/include/message_filters/signal9.h:240:14:[m[K [01;36m[Knote: [m[Kcandidate: ‘[01m[Ktemplate<class T, class P0, class P1, class P2, class P3> message_filters::Connection message_filters::Signal9<M0, M1, M2, M3, M4, M5, M6, M7, M8>::addCallback(void (T::*)(P0, P1, P2, P3), T*) [with T = T; P0 = P0; P1 = P1; P2 = P2; P3 = P3; M0 = geometry_msgs::msg::PoseStamped_<std::allocator<void> >; M1 = custom_topic::msg::NextOrder_<std::allocator<void> >; M2 = message_filters::NullType; M3 = message_filters::NullType; M4 = message_filters::NullType; M5 = message_filters::NullType; M6 = message_filters::NullType; M7 = message_filters::NullType; M8 = message_filters::NullType][m[K’
[2.182s]   240 |   Connection [01;36m[KaddCallback[m[K(void(T::*callback)(P0, P1, P2, P3), T* t)
[2.182s]       |              [01;36m[K^~~~~~~~~~~[m[K
[2.182s] [01m[K/opt/ros/foxy/include/message_filters/signal9.h:240:14:[m[K [01;36m[Knote: [m[K  template argument deduction/substitution failed:
[2.182s] [01m[K/opt/ros/foxy/include/message_filters/signal9.h:280:267:[m[K [01;31m[Kerror: [m[Kwrong number of template arguments (9, should be 5)
[2.182s]   280 |                      const M8ConstPtr&>(std::bind(callback, std::placeholders::_1, std::placeholders::_2, std::placeholders::_3, std::placeholders::_4, std::placeholders::_5, std::placeholders::_6, std::placeholders::_7, std::placeholders::_8, std::placeholders::_9)[01;31m[K)[m[K;
[2.182s]       |                                                                                                                                                                                                                                                                           [01;31m[K^[m[K
[2.182s] [01m[K/opt/ros/foxy/include/message_filters/signal9.h:246:14:[m[K [01;36m[Knote: [m[Kcandidate: ‘[01m[Ktemplate<class T, class P0, class P1, class P2, class P3, class P4> message_filters::Connection message_filters::Signal9<M0, M1, M2, M3, M4, M5, M6, M7, M8>::addCallback(void (T::*)(P0, P1, P2, P3, P4), T*) [with T = T; P0 = P0; P1 = P1; P2 = P2; P3 = P3; P4 = P4; M0 = geometry_msgs::msg::PoseStamped_<std::allocator<void> >; M1 = custom_topic::msg::NextOrder_<std::allocator<void> >; M2 = message_filters::NullType; M3 = message_filters::NullType; M4 = message_filters::NullType; M5 = message_filters::NullType; M6 = message_filters::NullType; M7 = message_filters::NullType; M8 = message_filters::NullType][m[K’
[2.182s]   246 |   Connection [01;36m[KaddCallback[m[K(void(T::*callback)(P0, P1, P2, P3, P4), T* t)
[2.182s]       |              [01;36m[K^~~~~~~~~~~[m[K
[2.182s] [01m[K/opt/ros/foxy/include/message_filters/signal9.h:246:14:[m[K [01;36m[Knote: [m[K  template argument deduction/substitution failed:
[2.182s] [01m[K/opt/ros/foxy/include/message_filters/signal9.h:280:267:[m[K [01;31m[Kerror: [m[Kwrong number of template arguments (9, should be 6)
[2.182s]   280 |                      const M8ConstPtr&>(std::bind(callback, std::placeholders::_1, std::placeholders::_2, std::placeholders::_3, std::placeholders::_4, std::placeholders::_5, std::placeholders::_6, std::placeholders::_7, std::placeholders::_8, std::placeholders::_9)[01;31m[K)[m[K;
[2.182s]       |                                                                                                                                                                                                                                                                           [01;31m[K^[m[K
[2.182s] [01m[K/opt/ros/foxy/include/message_filters/signal9.h:252:14:[m[K [01;36m[Knote: [m[Kcandidate: ‘[01m[Ktemplate<class T, class P0, class P1, class P2, class P3, class P4, class P5> message_filters::Connection message_filters::Signal9<M0, M1, M2, M3, M4, M5, M6, M7, M8>::addCallback(void (T::*)(P0, P1, P2, P3, P4, P5), T*) [with T = T; P0 = P0; P1 = P1; P2 = P2; P3 = P3; P4 = P4; P5 = P5; M0 = geometry_msgs::msg::PoseStamped_<std::allocator<void> >; M1 = custom_topic::msg::NextOrder_<std::allocator<void> >; M2 = message_filters::NullType; M3 = message_filters::NullType; M4 = message_filters::NullType; M5 = message_filters::NullType; M6 = message_filters::NullType; M7 = message_filters::NullType; M8 = message_filters::NullType][m[K’
[2.182s]   252 |   Connection [01;36m[KaddCallback[m[K(void(T::*callback)(P0, P1, P2, P3, P4, P5), T* t)
[2.183s]       |              [01;36m[K^~~~~~~~~~~[m[K
[2.183s] [01m[K/opt/ros/foxy/include/message_filters/signal9.h:252:14:[m[K [01;36m[Knote: [m[K  template argument deduction/substitution failed:
[2.183s] [01m[K/opt/ros/foxy/include/message_filters/signal9.h:280:267:[m[K [01;31m[Kerror: [m[Kwrong number of template arguments (9, should be 7)
[2.183s]   280 |                      const M8ConstPtr&>(std::bind(callback, std::placeholders::_1, std::placeholders::_2, std::placeholders::_3, std::placeholders::_4, std::placeholders::_5, std::placeholders::_6, std::placeholders::_7, std::placeholders::_8, std::placeholders::_9)[01;31m[K)[m[K;
[2.183s]       |                                                                                                                                                                                                                                                                           [01;31m[K^[m[K
[2.183s] [01m[K/opt/ros/foxy/include/message_filters/signal9.h:258:14:[m[K [01;36m[Knote: [m[Kcandidate: ‘[01m[Ktemplate<class T, class P0, class P1, class P2, class P3, class P4, class P5, class P6> message_filters::Connection message_filters::Signal9<M0, M1, M2, M3, M4, M5, M6, M7, M8>::addCallback(void (T::*)(P0, P1, P2, P3, P4, P5, P6), T*) [with T = T; P0 = P0; P1 = P1; P2 = P2; P3 = P3; P4 = P4; P5 = P5; P6 = P6; M0 = geometry_msgs::msg::PoseStamped_<std::allocator<void> >; M1 = custom_topic::msg::NextOrder_<std::allocator<void> >; M2 = message_filters::NullType; M3 = message_filters::NullType; M4 = message_filters::NullType; M5 = message_filters::NullType; M6 = message_filters::NullType; M7 = message_filters::NullType; M8 = message_filters::NullType][m[K’
[2.183s]   258 |   Connection [01;36m[KaddCallback[m[K(void(T::*callback)(P0, P1, P2, P3, P4, P5, P6), T* t)
[2.183s]       |              [01;36m[K^~~~~~~~~~~[m[K
[2.183s] [01m[K/opt/ros/foxy/include/message_filters/signal9.h:258:14:[m[K [01;36m[Knote: [m[K  template argument deduction/substitution failed:
[2.183s] [01m[K/opt/ros/foxy/include/message_filters/signal9.h:280:267:[m[K [01;31m[Kerror: [m[Kwrong number of template arguments (9, should be 8)
[2.183s]   280 |                      const M8ConstPtr&>(std::bind(callback, std::placeholders::_1, std::placeholders::_2, std::placeholders::_3, std::placeholders::_4, std::placeholders::_5, std::placeholders::_6, std::placeholders::_7, std::placeholders::_8, std::placeholders::_9)[01;31m[K)[m[K;
[2.185s]       |                                                                                                                                                                                                                                                                           [01;31m[K^[m[K
[2.185s] [01m[K/opt/ros/foxy/include/message_filters/signal9.h:264:14:[m[K [01;36m[Knote: [m[Kcandidate: ‘[01m[Ktemplate<class T, class P0, class P1, class P2, class P3, class P4, class P5, class P6, class P7> message_filters::Connection message_filters::Signal9<M0, M1, M2, M3, M4, M5, M6, M7, M8>::addCallback(void (T::*)(P0, P1, P2, P3, P4, P5, P6, P7), T*) [with T = T; P0 = P0; P1 = P1; P2 = P2; P3 = P3; P4 = P4; P5 = P5; P6 = P6; P7 = P7; M0 = geometry_msgs::msg::PoseStamped_<std::allocator<void> >; M1 = custom_topic::msg::NextOrder_<std::allocator<void> >; M2 = message_filters::NullType; M3 = message_filters::NullType; M4 = message_filters::NullType; M5 = message_filters::NullType; M6 = message_filters::NullType; M7 = message_filters::NullType; M8 = message_filters::NullType][m[K’
[2.185s]   264 |   Connection [01;36m[KaddCallback[m[K(void(T::*callback)(P0, P1, P2, P3, P4, P5, P6, P7), T* t)
[2.185s]       |              [01;36m[K^~~~~~~~~~~[m[K
[2.185s] [01m[K/opt/ros/foxy/include/message_filters/signal9.h:264:14:[m[K [01;36m[Knote: [m[K  template argument deduction/substitution failed:
[2.185s] /opt/ros/foxy/include/message_filters/signal9.h: In substitution of ‘[01m[Ktemplate<class T, class P0, class P1, class P2, class P3, class P4, class P5, class P6, class P7> message_filters::Connection message_filters::Signal9<geometry_msgs::msg::PoseStamped_<std::allocator<void> >, custom_topic::msg::NextOrder_<std::allocator<void> >, message_filters::NullType, message_filters::NullType, message_filters::NullType, message_filters::NullType, message_filters::NullType, message_filters::NullType, message_filters::NullType>::addCallback<T, P0, P1, P2, P3, P4, P5, P6, P7>(void (T::*)(P0, P1, P2, P3, P4, P5, P6, P7), T*) [with T = const std::shared_ptr<const geometry_msgs::msg::PoseStamped_<std::allocator<void> > >&; P0 = const std::shared_ptr<const custom_topic::msg::NextOrder_<std::allocator<void> > >&; P1 = const std::shared_ptr<const message_filters::NullType>&; P2 = const std::shared_ptr<const message_filters::NullType>&; P3 = const std::shared_ptr<const message_filters::NullType>&; P4 = const std::shared_ptr<const message_filters::NullType>&; P5 = const std::shared_ptr<const message_filters::NullType>&; P6 = const std::shared_ptr<const message_filters::NullType>&; P7 = const std::shared_ptr<const message_filters::NullType>&][m[K’:
[2.185s] [01m[K/opt/ros/foxy/include/message_filters/signal9.h:280:267:[m[K   required from ‘[01m[Kmessage_filters::Connection message_filters::Signal9<M0, M1, M2, M3, M4, M5, M6, M7, M8>::addCallback(C&) [with C = const Order_Opt::Order_Opt()::<lambda(geometry_msgs::msg::PoseStamped_<std::allocator<void> >::SharedPtr, custom_topic::msg::NextOrder_<std::allocator<void> >::SharedPtr)>; M0 = geometry_msgs::msg::PoseStamped_<std::allocator<void> >; M1 = custom_topic::msg::NextOrder_<std::allocator<void> >; M2 = message_filters::NullType; M3 = message_filters::NullType; M4 = message_filters::NullType; M5 = message_filters::NullType; M6 = message_filters::NullType; M7 = message_filters::NullType; M8 = message_filters::NullType][m[K’
[2.185s] [01m[K/opt/ros/foxy/include/message_filters/synchronizer.h:298:40:[m[K   required from ‘[01m[Kmessage_filters::Connection message_filters::Synchronizer<Policy>::registerCallback(const C&) [with C = Order_Opt::Order_Opt()::<lambda(geometry_msgs::msg::PoseStamped_<std::allocator<void> >::SharedPtr, custom_topic::msg::NextOrder_<std::allocator<void> >::SharedPtr)>; Policy = message_filters::sync_policies::ExactTime<geometry_msgs::msg::PoseStamped_<std::allocator<void> >, custom_topic::msg::NextOrder_<std::allocator<void> >, message_filters::NullType, message_filters::NullType, message_filters::NullType, message_filters::NullType, message_filters::NullType, message_filters::NullType, message_filters::NullType>][m[K’
[2.185s] [01m[K/home/josef/AMR_ws/src/AMR_project/src/OrderOptimizer_function.cpp:275:2:[m[K   required from here
[2.185s] [01m[K/opt/ros/foxy/include/message_filters/signal9.h:264:14:[m[K [01;31m[Kerror: [m[Kforming pointer to reference type ‘[01m[Kconst std::shared_ptr<const geometry_msgs::msg::PoseStamped_<std::allocator<void> > >&[m[K’
[2.185s] /opt/ros/foxy/include/message_filters/signal9.h: In instantiation of ‘[01m[Kmessage_filters::Connection message_filters::Signal9<M0, M1, M2, M3, M4, M5, M6, M7, M8>::addCallback(C&) [with C = const Order_Opt::Order_Opt()::<lambda(geometry_msgs::msg::PoseStamped_<std::allocator<void> >::SharedPtr, custom_topic::msg::NextOrder_<std::allocator<void> >::SharedPtr)>; M0 = geometry_msgs::msg::PoseStamped_<std::allocator<void> >; M1 = custom_topic::msg::NextOrder_<std::allocator<void> >; M2 = message_filters::NullType; M3 = message_filters::NullType; M4 = message_filters::NullType; M5 = message_filters::NullType; M6 = message_filters::NullType; M7 = message_filters::NullType; M8 = message_filters::NullType][m[K’:
[2.185s] [01m[K/opt/ros/foxy/include/message_filters/synchronizer.h:298:40:[m[K   required from ‘[01m[Kmessage_filters::Connection message_filters::Synchronizer<Policy>::registerCallback(const C&) [with C = Order_Opt::Order_Opt()::<lambda(geometry_msgs::msg::PoseStamped_<std::allocator<void> >::SharedPtr, custom_topic::msg::NextOrder_<std::allocator<void> >::SharedPtr)>; Policy = message_filters::sync_policies::ExactTime<geometry_msgs::msg::PoseStamped_<std::allocator<void> >, custom_topic::msg::NextOrder_<std::allocator<void> >, message_filters::NullType, message_filters::NullType, message_filters::NullType, message_filters::NullType, message_filters::NullType, message_filters::NullType, message_filters::NullType>][m[K’
[2.185s] [01m[K/home/josef/AMR_ws/src/AMR_project/src/OrderOptimizer_function.cpp:275:2:[m[K   required from here
[2.186s] [01m[K/opt/ros/foxy/include/message_filters/signal9.h:270:14:[m[K [01;36m[Knote: [m[Kcandidate: ‘[01m[Ktemplate<class C> message_filters::Connection message_filters::Signal9<M0, M1, M2, M3, M4, M5, M6, M7, M8>::addCallback(C&) [with C = C; M0 = geometry_msgs::msg::PoseStamped_<std::allocator<void> >; M1 = custom_topic::msg::NextOrder_<std::allocator<void> >; M2 = message_filters::NullType; M3 = message_filters::NullType; M4 = message_filters::NullType; M5 = message_filters::NullType; M6 = message_filters::NullType; M7 = message_filters::NullType; M8 = message_filters::NullType][m[K’
[2.186s]   270 |   Connection [01;36m[KaddCallback[m[K( C& callback)
[2.186s]       |              [01;36m[K^~~~~~~~~~~[m[K
[2.187s] [01m[K/opt/ros/foxy/include/message_filters/signal9.h:270:14:[m[K [01;36m[Knote: [m[K  template argument deduction/substitution failed:
[2.187s] [01m[K/opt/ros/foxy/include/message_filters/signal9.h:280:267:[m[K [01;31m[Kerror: [m[Kwrong number of template arguments (9, should be 1)
[2.187s]   280 |                      const M8ConstPtr&>(std::bind(callback, std::placeholders::_1, std::placeholders::_2, std::placeholders::_3, std::placeholders::_4, std::placeholders::_5, std::placeholders::_6, std::placeholders::_7, std::placeholders::_8, std::placeholders::_9)[01;31m[K)[m[K;
[2.187s]       |                                                                                                                                                                                                                                                                           [01;31m[K^[m[K
[2.684s] In file included from [01m[K/opt/ros/foxy/include/message_filters/time_synchronizer.h:41[m[K,
[2.684s]                  from [01m[K/home/josef/AMR_ws/src/AMR_project/src/OrderOptimizer_function.cpp:16[m[K:
[2.684s] /opt/ros/foxy/include/message_filters/synchronizer.h: In instantiation of ‘[01m[Kvoid message_filters::Synchronizer<Policy>::connectInput(F0&, F1&, F2&, F3&, F4&, F5&, F6&, F7&, F8&) [with F0 = std::shared_ptr<rclcpp::Subscription<geometry_msgs::msg::PoseStamped_<std::allocator<void> > > >; F1 = std::shared_ptr<rclcpp::Subscription<custom_topic::msg::NextOrder_<std::allocator<void> > > >; F2 = message_filters::NullFilter<message_filters::NullType>; F3 = message_filters::NullFilter<message_filters::NullType>; F4 = message_filters::NullFilter<message_filters::NullType>; F5 = message_filters::NullFilter<message_filters::NullType>; F6 = message_filters::NullFilter<message_filters::NullType>; F7 = message_filters::NullFilter<message_filters::NullType>; F8 = message_filters::NullFilter<message_filters::NullType>; Policy = message_filters::sync_policies::ExactTime<geometry_msgs::msg::PoseStamped_<std::allocator<void> >, custom_topic::msg::NextOrder_<std::allocator<void> >, message_filters::NullType, message_filters::NullType, message_filters::NullType, message_filters::NullType, message_filters::NullType, message_filters::NullType, message_filters::NullType>][m[K’:
[2.684s] [01m[K/opt/ros/foxy/include/message_filters/synchronizer.h:270:5:[m[K   required from ‘[01m[Kvoid message_filters::Synchronizer<Policy>::connectInput(F0&, F1&, F2&, F3&, F4&, F5&, F6&, F7&) [with F0 = std::shared_ptr<rclcpp::Subscription<geometry_msgs::msg::PoseStamped_<std::allocator<void> > > >; F1 = std::shared_ptr<rclcpp::Subscription<custom_topic::msg::NextOrder_<std::allocator<void> > > >; F2 = message_filters::NullFilter<message_filters::NullType>; F3 = message_filters::NullFilter<message_filters::NullType>; F4 = message_filters::NullFilter<message_filters::NullType>; F5 = message_filters::NullFilter<message_filters::NullType>; F6 = message_filters::NullFilter<message_filters::NullType>; F7 = message_filters::NullFilter<message_filters::NullType>; Policy = message_filters::sync_policies::ExactTime<geometry_msgs::msg::PoseStamped_<std::allocator<void> >, custom_topic::msg::NextOrder_<std::allocator<void> >, message_filters::NullType, message_filters::NullType, message_filters::NullType, message_filters::NullType, message_filters::NullType, message_filters::NullType, message_filters::NullType>][m[K’
[2.684s] [01m[K/opt/ros/foxy/include/message_filters/synchronizer.h:263:5:[m[K   required from ‘[01m[Kvoid message_filters::Synchronizer<Policy>::connectInput(F0&, F1&, F2&, F3&, F4&, F5&, F6&) [with F0 = std::shared_ptr<rclcpp::Subscription<geometry_msgs::msg::PoseStamped_<std::allocator<void> > > >; F1 = std::shared_ptr<rclcpp::Subscription<custom_topic::msg::NextOrder_<std::allocator<void> > > >; F2 = message_filters::NullFilter<message_filters::NullType>; F3 = message_filters::NullFilter<message_filters::NullType>; F4 = message_filters::NullFilter<message_filters::NullType>; F5 = message_filters::NullFilter<message_filters::NullType>; F6 = message_filters::NullFilter<message_filters::NullType>; Policy = message_filters::sync_policies::ExactTime<geometry_msgs::msg::PoseStamped_<std::allocator<void> >, custom_topic::msg::NextOrder_<std::allocator<void> >, message_filters::NullType, message_filters::NullType, message_filters::NullType, message_filters::NullType, message_filters::NullType, message_filters::NullType, message_filters::NullType>][m[K’
[2.684s] [01m[K/opt/ros/foxy/include/message_filters/synchronizer.h:256:5:[m[K   required from ‘[01m[Kvoid message_filters::Synchronizer<Policy>::connectInput(F0&, F1&, F2&, F3&, F4&, F5&) [with F0 = std::shared_ptr<rclcpp::Subscription<geometry_msgs::msg::PoseStamped_<std::allocator<void> > > >; F1 = std::shared_ptr<rclcpp::Subscription<custom_topic::msg::NextOrder_<std::allocator<void> > > >; F2 = message_filters::NullFilter<message_filters::NullType>; F3 = message_filters::NullFilter<message_filters::NullType>; F4 = message_filters::NullFilter<message_filters::NullType>; F5 = message_filters::NullFilter<message_filters::NullType>; Policy = message_filters::sync_policies::ExactTime<geometry_msgs::msg::PoseStamped_<std::allocator<void> >, custom_topic::msg::NextOrder_<std::allocator<void> >, message_filters::NullType, message_filters::NullType, message_filters::NullType, message_filters::NullType, message_filters::NullType, message_filters::NullType, message_filters::NullType>][m[K’
[2.684s] [01m[K/opt/ros/foxy/include/message_filters/synchronizer.h:249:5:[m[K   required from ‘[01m[Kvoid message_filters::Synchronizer<Policy>::connectInput(F0&, F1&, F2&, F3&, F4&) [with F0 = std::shared_ptr<rclcpp::Subscription<geometry_msgs::msg::PoseStamped_<std::allocator<void> > > >; F1 = std::shared_ptr<rclcpp::Subscription<custom_topic::msg::NextOrder_<std::allocator<void> > > >; F2 = message_filters::NullFilter<message_filters::NullType>; F3 = message_filters::NullFilter<message_filters::NullType>; F4 = message_filters::NullFilter<message_filters::NullType>; Policy = message_filters::sync_policies::ExactTime<geometry_msgs::msg::PoseStamped_<std::allocator<void> >, custom_topic::msg::NextOrder_<std::allocator<void> >, message_filters::NullType, message_filters::NullType, message_filters::NullType, message_filters::NullType, message_filters::NullType, message_filters::NullType, message_filters::NullType>][m[K’
[2.685s] [01m[K/opt/ros/foxy/include/message_filters/synchronizer.h:242:5:[m[K   required from ‘[01m[Kvoid message_filters::Synchronizer<Policy>::connectInput(F0&, F1&, F2&, F3&) [with F0 = std::shared_ptr<rclcpp::Subscription<geometry_msgs::msg::PoseStamped_<std::allocator<void> > > >; F1 = std::shared_ptr<rclcpp::Subscription<custom_topic::msg::NextOrder_<std::allocator<void> > > >; F2 = message_filters::NullFilter<message_filters::NullType>; F3 = message_filters::NullFilter<message_filters::NullType>; Policy = message_filters::sync_policies::ExactTime<geometry_msgs::msg::PoseStamped_<std::allocator<void> >, custom_topic::msg::NextOrder_<std::allocator<void> >, message_filters::NullType, message_filters::NullType, message_filters::NullType, message_filters::NullType, message_filters::NullType, message_filters::NullType, message_filters::NullType>][m[K’
[2.685s] [01m[K/opt/ros/foxy/include/message_filters/synchronizer.h:235:5:[m[K   required from ‘[01m[Kvoid message_filters::Synchronizer<Policy>::connectInput(F0&, F1&, F2&) [with F0 = std::shared_ptr<rclcpp::Subscription<geometry_msgs::msg::PoseStamped_<std::allocator<void> > > >; F1 = std::shared_ptr<rclcpp::Subscription<custom_topic::msg::NextOrder_<std::allocator<void> > > >; F2 = message_filters::NullFilter<message_filters::NullType>; Policy = message_filters::sync_policies::ExactTime<geometry_msgs::msg::PoseStamped_<std::allocator<void> >, custom_topic::msg::NextOrder_<std::allocator<void> >, message_filters::NullType, message_filters::NullType, message_filters::NullType, message_filters::NullType, message_filters::NullType, message_filters::NullType, message_filters::NullType>][m[K’
[2.685s] [01m[K/opt/ros/foxy/include/message_filters/synchronizer.h:228:5:[m[K   required from ‘[01m[Kvoid message_filters::Synchronizer<Policy>::connectInput(F0&, F1&) [with F0 = std::shared_ptr<rclcpp::Subscription<geometry_msgs::msg::PoseStamped_<std::allocator<void> > > >; F1 = std::shared_ptr<rclcpp::Subscription<custom_topic::msg::NextOrder_<std::allocator<void> > > >; Policy = message_filters::sync_policies::ExactTime<geometry_msgs::msg::PoseStamped_<std::allocator<void> >, custom_topic::msg::NextOrder_<std::allocator<void> >, message_filters::NullType, message_filters::NullType, message_filters::NullType, message_filters::NullType, message_filters::NullType, message_filters::NullType, message_filters::NullType>][m[K’
[2.685s] [01m[K/opt/ros/foxy/include/message_filters/time_synchronizer.h:118:17:[m[K   required from ‘[01m[Kmessage_filters::TimeSynchronizer<M0, M1, M2, M3, M4, M5, M6, M7, M8>::TimeSynchronizer(F0&, F1&, uint32_t) [with F0 = std::shared_ptr<rclcpp::Subscription<geometry_msgs::msg::PoseStamped_<std::allocator<void> > > >; F1 = std::shared_ptr<rclcpp::Subscription<custom_topic::msg::NextOrder_<std::allocator<void> > > >; M0 = geometry_msgs::msg::PoseStamped_<std::allocator<void> >; M1 = custom_topic::msg::NextOrder_<std::allocator<void> >; M2 = message_filters::NullType; M3 = message_filters::NullType; M4 = message_filters::NullType; M5 = message_filters::NullType; M6 = message_filters::NullType; M7 = message_filters::NullType; M8 = message_filters::NullType; uint32_t = unsigned int][m[K’
[2.685s] [01m[K/home/josef/AMR_ws/src/AMR_project/src/OrderOptimizer_function.cpp:270:141:[m[K   required from here
[2.685s] [01m[K/opt/ros/foxy/include/message_filters/synchronizer.h:278:32:[m[K [01;31m[Kerror: [m[K‘[01m[Kclass std::shared_ptr<rclcpp::Subscription<geometry_msgs::msg::PoseStamped_<std::allocator<void> > > >[m[K’ has no member named ‘[01m[KregisterCallback[m[K’
[2.685s]   278 |     input_connections_[0] = [01;31m[Kf0.registerCallback[m[K(std::function<void(const M0Event&)>(std::bind(&Synchronizer::template cb<0>, this, std::placeholders::_1)));
[2.685s]       |                             [01;31m[K~~~^~~~~~~~~~~~~~~~[m[K
[2.692s] In file included from [01m[K/opt/ros/foxy/include/message_filters/time_synchronizer.h:41[m[K,
[2.692s]                  from [01m[K/home/josef/AMR_ws/src/AMR_project/src/OrderOptimizer_function.cpp:16[m[K:
[2.692s] [01m[K/opt/ros/foxy/include/message_filters/synchronizer.h:279:32:[m[K [01;31m[Kerror: [m[K‘[01m[Kclass std::shared_ptr<rclcpp::Subscription<custom_topic::msg::NextOrder_<std::allocator<void> > > >[m[K’ has no member named ‘[01m[KregisterCallback[m[K’
[2.692s]   279 |     input_connections_[1] = [01;31m[Kf1.registerCallback[m[K(std::function<void(const M1Event&)>(std::bind(&Synchronizer::template cb<1>, this, std::placeholders::_1)));
[2.692s]       |                             [01;31m[K~~~^~~~~~~~~~~~~~~~[m[K
[4.144s] make[2]: *** [CMakeFiles/order_optimizer.dir/build.make:63: CMakeFiles/order_optimizer.dir/src/OrderOptimizer_function.cpp.o] Error 1
[4.145s] make[1]: *** [CMakeFiles/Makefile2:109: CMakeFiles/order_optimizer.dir/all] Error 2
[4.145s] make: *** [Makefile:141: all] Error 2
[4.157s] Invoked command in '/home/josef/AMR_ws/build/AMR_project' returned '2': CMAKE_PREFIX_PATH=/home/josef/AMR_ws/install/custom_topic:/home/josef/AMR_ws/install/AMR_project:/home/josef/AMR_ws/install/cpp_pubsub:/opt/ros/foxy /usr/bin/cmake --build /home/josef/AMR_ws/build/AMR_project -- -j6 -l6
