Invoking command in '/home/josef/AMR_ws/build/AMR_project': CMAKE_PREFIX_PATH=/home/josef/AMR_ws/install/custom_topic:/home/josef/AMR_ws/install/AMR_project:/home/josef/AMR_ws/install/cpp_pubsub:/opt/ros/foxy /usr/bin/cmake --build /home/josef/AMR_ws/build/AMR_project -- -j6 -l6
Invoked command in '/home/josef/AMR_ws/build/AMR_project' returned '0': CMAKE_PREFIX_PATH=/home/josef/AMR_ws/install/custom_topic:/home/josef/AMR_ws/install/AMR_project:/home/josef/AMR_ws/install/cpp_pubsub:/opt/ros/foxy /usr/bin/cmake --build /home/josef/AMR_ws/build/AMR_project -- -j6 -l6
Invoking command in '/home/josef/AMR_ws/build/AMR_project': CMAKE_PREFIX_PATH=/home/josef/AMR_ws/install/custom_topic:/home/josef/AMR_ws/install/AMR_project:/home/josef/AMR_ws/install/cpp_pubsub:/opt/ros/foxy /usr/bin/cmake --install /home/josef/AMR_ws/build/AMR_project
Invoked command in '/home/josef/AMR_ws/build/AMR_project' returned '0': CMAKE_PREFIX_PATH=/home/josef/AMR_ws/install/custom_topic:/home/josef/AMR_ws/install/AMR_project:/home/josef/AMR_ws/install/cpp_pubsub:/opt/ros/foxy /usr/bin/cmake --install /home/josef/AMR_ws/build/AMR_project
