[0.021s] Invoking command in '/home/josef/AMR_ws/build/AMR_project': CMAKE_PREFIX_PATH=/home/josef/AMR_ws/install/custom_topic:/home/josef/AMR_ws/install/AMR_project:/home/josef/AMR_ws/install/cpp_pubsub:/opt/ros/foxy /usr/bin/cmake --build /home/josef/AMR_ws/build/AMR_project -- -j6 -l6
[0.069s] [35m[1mScanning dependencies of target talker[0m
[0.088s] [ 50%] Built target order_optimizer
[0.088s] [ 66%] Built target listener
[0.095s] [ 83%] [32mBuilding CXX object CMakeFiles/talker.dir/src/publisher_member_function.cpp.o[0m
[3.005s] [100%] [32m[1mLinking CXX executable talker[0m
[3.145s] [100%] Built target talker
[3.156s] Invoked command in '/home/josef/AMR_ws/build/AMR_project' returned '0': CMAKE_PREFIX_PATH=/home/josef/AMR_ws/install/custom_topic:/home/josef/AMR_ws/install/AMR_project:/home/josef/AMR_ws/install/cpp_pubsub:/opt/ros/foxy /usr/bin/cmake --build /home/josef/AMR_ws/build/AMR_project -- -j6 -l6
[3.205s] Invoking command in '/home/josef/AMR_ws/build/AMR_project': CMAKE_PREFIX_PATH=/home/josef/AMR_ws/install/custom_topic:/home/josef/AMR_ws/install/AMR_project:/home/josef/AMR_ws/install/cpp_pubsub:/opt/ros/foxy /usr/bin/cmake --install /home/josef/AMR_ws/build/AMR_project
[3.214s] -- Install configuration: ""
[3.215s] -- Up-to-date: /home/josef/AMR_ws/install/AMR_project/lib/AMR_project/order_optimizer
[3.215s] -- Installing: /home/josef/AMR_ws/install/AMR_project/lib/AMR_project/talker
[3.215s] -- Set runtime path of "/home/josef/AMR_ws/install/AMR_project/lib/AMR_project/talker" to ""
[3.216s] -- Up-to-date: /home/josef/AMR_ws/install/AMR_project/lib/AMR_project/listener
[3.216s] -- Up-to-date: /home/josef/AMR_ws/install/AMR_project/share/ament_index/resource_index/package_run_dependencies/AMR_project
[3.217s] -- Up-to-date: /home/josef/AMR_ws/install/AMR_project/share/ament_index/resource_index/parent_prefix_path/AMR_project
[3.217s] -- Up-to-date: /home/josef/AMR_ws/install/AMR_project/share/AMR_project/environment/ament_prefix_path.sh
[3.219s] -- Up-to-date: /home/josef/AMR_ws/install/AMR_project/share/AMR_project/environment/ament_prefix_path.dsv
[3.219s] -- Up-to-date: /home/josef/AMR_ws/install/AMR_project/share/AMR_project/environment/path.sh
[3.219s] -- Up-to-date: /home/josef/AMR_ws/install/AMR_project/share/AMR_project/environment/path.dsv
[3.219s] -- Up-to-date: /home/josef/AMR_ws/install/AMR_project/share/AMR_project/local_setup.bash
[3.219s] -- Up-to-date: /home/josef/AMR_ws/install/AMR_project/share/AMR_project/local_setup.sh
[3.219s] -- Up-to-date: /home/josef/AMR_ws/install/AMR_project/share/AMR_project/local_setup.zsh
[3.220s] -- Up-to-date: /home/josef/AMR_ws/install/AMR_project/share/AMR_project/local_setup.dsv
[3.220s] -- Installing: /home/josef/AMR_ws/install/AMR_project/share/AMR_project/package.dsv
[3.220s] -- Up-to-date: /home/josef/AMR_ws/install/AMR_project/share/ament_index/resource_index/packages/AMR_project
[3.220s] -- Up-to-date: /home/josef/AMR_ws/install/AMR_project/share/AMR_project/cmake/AMR_projectConfig.cmake
[3.220s] -- Up-to-date: /home/josef/AMR_ws/install/AMR_project/share/AMR_project/cmake/AMR_projectConfig-version.cmake
[3.221s] -- Up-to-date: /home/josef/AMR_ws/install/AMR_project/share/AMR_project/package.xml
[3.226s] Invoked command in '/home/josef/AMR_ws/build/AMR_project' returned '0': CMAKE_PREFIX_PATH=/home/josef/AMR_ws/install/custom_topic:/home/josef/AMR_ws/install/AMR_project:/home/josef/AMR_ws/install/cpp_pubsub:/opt/ros/foxy /usr/bin/cmake --install /home/josef/AMR_ws/build/AMR_project
