[35m[1mScanning dependencies of target talker[0m
[ 33%] Built target listener
[ 66%] Built target order_optimizer
[ 83%] [32mBuilding CXX object CMakeFiles/talker.dir/src/publisher_member_function.cpp.o[0m
[100%] [32m[1mLinking CXX executable talker[0m
[100%] Built target talker
-- Install configuration: ""
-- Up-to-date: /home/josef/AMR_ws/install/AMR_project/lib/AMR_project/order_optimizer
-- Installing: /home/josef/AMR_ws/install/AMR_project/lib/AMR_project/talker
-- Set runtime path of "/home/josef/AMR_ws/install/AMR_project/lib/AMR_project/talker" to ""
-- Up-to-date: /home/josef/AMR_ws/install/AMR_project/lib/AMR_project/listener
-- Up-to-date: /home/josef/AMR_ws/install/AMR_project/share/ament_index/resource_index/package_run_dependencies/AMR_project
-- Up-to-date: /home/josef/AMR_ws/install/AMR_project/share/ament_index/resource_index/parent_prefix_path/AMR_project
-- Up-to-date: /home/josef/AMR_ws/install/AMR_project/share/AMR_project/environment/ament_prefix_path.sh
-- Up-to-date: /home/josef/AMR_ws/install/AMR_project/share/AMR_project/environment/ament_prefix_path.dsv
-- Up-to-date: /home/josef/AMR_ws/install/AMR_project/share/AMR_project/environment/path.sh
-- Up-to-date: /home/josef/AMR_ws/install/AMR_project/share/AMR_project/environment/path.dsv
-- Up-to-date: /home/josef/AMR_ws/install/AMR_project/share/AMR_project/local_setup.bash
-- Up-to-date: /home/josef/AMR_ws/install/AMR_project/share/AMR_project/local_setup.sh
-- Up-to-date: /home/josef/AMR_ws/install/AMR_project/share/AMR_project/local_setup.zsh
-- Up-to-date: /home/josef/AMR_ws/install/AMR_project/share/AMR_project/local_setup.dsv
-- Installing: /home/josef/AMR_ws/install/AMR_project/share/AMR_project/package.dsv
-- Up-to-date: /home/josef/AMR_ws/install/AMR_project/share/ament_index/resource_index/packages/AMR_project
-- Up-to-date: /home/josef/AMR_ws/install/AMR_project/share/AMR_project/cmake/AMR_projectConfig.cmake
-- Up-to-date: /home/josef/AMR_ws/install/AMR_project/share/AMR_project/cmake/AMR_projectConfig-version.cmake
-- Up-to-date: /home/josef/AMR_ws/install/AMR_project/share/AMR_project/package.xml
