[0.016s] Invoking command in '/home/josef/AMR_ws/build/AMR_project': CMAKE_PREFIX_PATH=${CMAKE_PREFIX_PATH}:/opt/ros/foxy /usr/bin/cmake --build /home/josef/AMR_ws/build/AMR_project -- -j6 -l6
[0.062s] [35m[1mScanning dependencies of target order_optimizer[0m
[0.080s] [ 33%] Built target talker
[0.080s] [ 66%] Built target listener
[0.089s] [ 83%] [32mBuilding CXX object CMakeFiles/order_optimizer.dir/src/OrderOptimizer_function.cpp.o[0m
[1.236s] [01m[K/home/josef/AMR_ws/src/AMR_project/src/OrderOptimizer_function.cpp:42:49:[m[K [01;31m[Kerror: [m[K‘[01m[KPointStamped[m[K’ in namespace ‘[01m[Kgeometry_msgs::msg[m[K’ does not name a type; did you mean ‘[01m[KPoseStamped[m[K’?
[1.236s]    42 |   void topic_callback(const geometry_msgs::msg::[01;31m[KPointStamped[m[K::SharedPtr msg) const
[1.236s]       |                                                 [01;31m[K^~~~~~~~~~~~[m[K
[1.236s]       |                                                 [32m[KPoseStamped[m[K
[1.236s] [01m[K/home/josef/AMR_ws/src/AMR_project/src/OrderOptimizer_function.cpp:42:73:[m[K [01;31m[Kerror: [m[Kexpected unqualified-id before ‘[01m[Kmsg[m[K’
[1.236s]    42 |   void topic_callback(const geometry_msgs::msg::PointStamped::SharedPtr [01;31m[Kmsg[m[K) const
[1.236s]       |                                                                         [01;31m[K^~~[m[K
[1.236s] [01m[K/home/josef/AMR_ws/src/AMR_project/src/OrderOptimizer_function.cpp:42:72:[m[K [01;31m[Kerror: [m[Kexpected ‘[01m[K)[m[K’ before ‘[01m[Kmsg[m[K’
[1.236s]    42 |   void topic_callback[34m[K([m[Kconst geometry_msgs::msg::PointStamped::SharedPtr[01;31m[K [m[K[32m[Kmsg[m[K) const
[1.236s]       |                      [34m[K~[m[K                                                 [01;31m[K^[m[K[32m[K~~~[m[K
[1.237s]       |                                                                        [32m[K)[m[K
[1.237s] [01m[K/home/josef/AMR_ws/src/AMR_project/src/OrderOptimizer_function.cpp:42:63:[m[K [01;31m[Kerror: [m[Kexpected ‘[01m[K;[m[K’ at end of member declaration
[1.237s]    42 |   void topic_callback(const geometry_msgs::msg::PointStamped::[01;31m[KSharedPtr[m[K msg) const
[1.237s]       |                                                               [01;31m[K^~~~~~~~~[m[K
[1.237s]       |                                                                        [32m[K;[m[K
[1.237s] [01m[K/home/josef/AMR_ws/src/AMR_project/src/OrderOptimizer_function.cpp:42:73:[m[K [01;31m[Kerror: [m[K‘[01m[Kmsg[m[K’ does not name a type
[1.237s]    42 |   void topic_callback(const geometry_msgs::msg::PointStamped::SharedPtr [01;31m[Kmsg[m[K) const
[1.237s]       |                                                                         [01;31m[K^~~[m[K
[1.237s] [01m[K/home/josef/AMR_ws/src/AMR_project/src/OrderOptimizer_function.cpp:57:44:[m[K [01;31m[Kerror: [m[K‘[01m[KPointStamped[m[K’ is not a member of ‘[01m[Kgeometry_msgs::msg[m[K’; did you mean ‘[01m[KPoseStamped[m[K’?
[1.237s]    57 |   rclcpp::Subscription<geometry_msgs::msg::[01;31m[KPointStamped[m[K>::SharedPtr subscription_;
[1.237s]       |                                            [01;31m[K^~~~~~~~~~~~[m[K
[1.237s]       |                                            [32m[KPoseStamped[m[K
[1.238s] [01m[K/home/josef/AMR_ws/src/AMR_project/src/OrderOptimizer_function.cpp:57:44:[m[K [01;31m[Kerror: [m[K‘[01m[KPointStamped[m[K’ is not a member of ‘[01m[Kgeometry_msgs::msg[m[K’; did you mean ‘[01m[KPoseStamped[m[K’?
[1.238s]    57 |   rclcpp::Subscription<geometry_msgs::msg::[01;31m[KPointStamped[m[K>::SharedPtr subscription_;
[1.238s]       |                                            [01;31m[K^~~~~~~~~~~~[m[K
[1.238s]       |                                            [32m[KPoseStamped[m[K
[1.238s] [01m[K/home/josef/AMR_ws/src/AMR_project/src/OrderOptimizer_function.cpp:57:56:[m[K [01;31m[Kerror: [m[Ktemplate argument 1 is invalid
[1.238s]    57 |   rclcpp::Subscription<geometry_msgs::msg::PointStamped[01;31m[K>[m[K::SharedPtr subscription_;
[1.238s]       |                                                        [01;31m[K^[m[K
[1.238s] [01m[K/home/josef/AMR_ws/src/AMR_project/src/OrderOptimizer_function.cpp:57:56:[m[K [01;31m[Kerror: [m[Ktemplate argument 3 is invalid
[1.238s] [01m[K/home/josef/AMR_ws/src/AMR_project/src/OrderOptimizer_function.cpp:57:59:[m[K [01;31m[Kerror: [m[Kexpected ‘[01m[K;[m[K’ at end of member declaration
[1.238s]    57 |   rclcpp::Subscription<geometry_msgs::msg::PointStamped>::[01;31m[KSharedPtr[m[K subscription_;
[1.238s]       |                                                           [01;31m[K^~~~~~~~~[m[K
[1.238s]       |                                                                    [32m[K;[m[K
[1.239s] [01m[K/home/josef/AMR_ws/src/AMR_project/src/OrderOptimizer_function.cpp:57:69:[m[K [01;31m[Kerror: [m[K‘[01m[Ksubscription_[m[K’ does not name a type; did you mean ‘[01m[Krcl_subscription_t[m[K’?
[1.239s]    57 |   rclcpp::Subscription<geometry_msgs::msg::PointStamped>::SharedPtr [01;31m[Ksubscription_[m[K;
[1.239s]       |                                                                     [01;31m[K^~~~~~~~~~~~~[m[K
[1.239s]       |                                                                     [32m[Krcl_subscription_t[m[K
[1.247s] [01m[K/home/josef/AMR_ws/src/AMR_project/src/OrderOptimizer_function.cpp:[m[K In constructor ‘[01m[KOrder_Opt::Order_Opt()[m[K’:
[1.247s] [01m[K/home/josef/AMR_ws/src/AMR_project/src/OrderOptimizer_function.cpp:24:8:[m[K [01;31m[Kerror: [m[K‘[01m[Ksubscription_[m[K’ was not declared in this scope; did you mean ‘[01m[Krcl_subscription_t[m[K’?
[1.247s]    24 |        [01;31m[Ksubscription_[m[K = this->create_subscription<std_msgs::msg::String>(
[1.247s]       |        [01;31m[K^~~~~~~~~~~~~[m[K
[1.247s]       |        [32m[Krcl_subscription_t[m[K
[1.254s] In file included from [01m[K/opt/ros/foxy/include/rclcpp/client.hpp:32[m[K,
[1.254s]                  from [01m[K/opt/ros/foxy/include/rclcpp/callback_group.hpp:23[m[K,
[1.254s]                  from [01m[K/opt/ros/foxy/include/rclcpp/any_executable.hpp:20[m[K,
[1.254s]                  from [01m[K/opt/ros/foxy/include/rclcpp/memory_strategy.hpp:24[m[K,
[1.254s]                  from [01m[K/opt/ros/foxy/include/rclcpp/memory_strategies.hpp:18[m[K,
[1.254s]                  from [01m[K/opt/ros/foxy/include/rclcpp/executor_options.hpp:20[m[K,
[1.255s]                  from [01m[K/opt/ros/foxy/include/rclcpp/executor.hpp:33[m[K,
[1.255s]                  from [01m[K/opt/ros/foxy/include/rclcpp/executors/multi_threaded_executor.hpp:26[m[K,
[1.255s]                  from [01m[K/opt/ros/foxy/include/rclcpp/executors.hpp:21[m[K,
[1.255s]                  from [01m[K/opt/ros/foxy/include/rclcpp/rclcpp.hpp:146[m[K,
[1.255s]                  from [01m[K/home/josef/AMR_ws/src/AMR_project/src/OrderOptimizer_function.cpp:6[m[K:
[1.255s] /opt/ros/foxy/include/rclcpp/function_traits.hpp: In instantiation of ‘[01m[Kstruct rclcpp::function_traits::function_traits<std::_Bind<void (Order_Opt::*(Order_Opt*, std::_Placeholder<1>))(...)> >[m[K’:
[1.255s] [01m[K/opt/ros/foxy/include/rclcpp/subscription_traits.hpp:97:8:[m[K   required from ‘[01m[Kstruct rclcpp::subscription_traits::has_message_type<std::_Bind<void (Order_Opt::*(Order_Opt*, std::_Placeholder<1>))(...)>, std::allocator<void>, void, void, void, void>[m[K’
[1.255s] [01m[K/opt/ros/foxy/include/rclcpp/node.hpp:204:5:[m[K   required by substitution of ‘[01m[Ktemplate<class MessageT, class CallbackT, class AllocatorT, class CallbackMessageT, class SubscriptionT, class MessageMemoryStrategyT> std::shared_ptr<SubscriptionT> rclcpp::Node::create_subscription(const string&, const rclcpp::QoS&, CallbackT&&, const rclcpp::SubscriptionOptionsWithAllocator<AllocatorT>&, typename MessageMemoryStrategyT::SharedPtr) [with MessageT = std_msgs::msg::String_<std::allocator<void> >; CallbackT = std::_Bind<void (Order_Opt::*(Order_Opt*, std::_Placeholder<1>))(...)>; AllocatorT = std::allocator<void>; CallbackMessageT = <missing>; SubscriptionT = <missing>; MessageMemoryStrategyT = <missing>][m[K’
[1.255s] [01m[K/home/josef/AMR_ws/src/AMR_project/src/OrderOptimizer_function.cpp:25:67:[m[K   required from here
[1.256s] [01m[K/opt/ros/foxy/include/rclcpp/function_traits.hpp:51:9:[m[K [01;31m[Kerror: [m[Kdecltype cannot resolve address of overloaded function
[1.256s]    51 |   using [01;31m[Karguments[m[K = typename tuple_tail<
[1.256s]       |         [01;31m[K^~~~~~~~~[m[K
[1.256s] [01m[K/opt/ros/foxy/include/rclcpp/function_traits.hpp:57:9:[m[K [01;31m[Kerror: [m[Kdecltype cannot resolve address of overloaded function
[1.256s]    57 |   using [01;31m[Kargument_type[m[K = typename std::tuple_element<N, arguments>::type;
[1.256s]       |         [01;31m[K^~~~~~~~~~~~~[m[K
[1.256s] [01m[K/opt/ros/foxy/include/rclcpp/function_traits.hpp:59:9:[m[K [01;31m[Kerror: [m[Kdecltype cannot resolve address of overloaded function
[1.256s]    59 |   using [01;31m[Kreturn_type[m[K = typename function_traits<decltype( &FunctionT::operator())>::return_type;
[1.256s]       |         [01;31m[K^~~~~~~~~~~[m[K
[1.256s] [01m[K/home/josef/AMR_ws/src/AMR_project/src/OrderOptimizer_function.cpp:25:67:[m[K [01;31m[Kerror: [m[Kno matching function for call to ‘[01m[KOrder_Opt::create_subscription<std_msgs::msg::String>(const char [6], int, std::_Bind_helper<false, void (Order_Opt::*)(...), Order_Opt*, const std::_Placeholder<1>&>::type)[m[K’
[1.256s]    25 |       "topic", 10, std::bind(&Order_Opt::topic_callback, this, _1)[01;31m[K)[m[K;
[1.256s]       |                                                                   [01;31m[K^[m[K
[1.256s] In file included from [01m[K/opt/ros/foxy/include/rclcpp/executors/single_threaded_executor.hpp:28[m[K,
[1.256s]                  from [01m[K/opt/ros/foxy/include/rclcpp/executors.hpp:22[m[K,
[1.256s]                  from [01m[K/opt/ros/foxy/include/rclcpp/rclcpp.hpp:146[m[K,
[1.256s]                  from [01m[K/home/josef/AMR_ws/src/AMR_project/src/OrderOptimizer_function.cpp:6[m[K:
[1.256s] [01m[K/opt/ros/foxy/include/rclcpp/node.hpp:213:3:[m[K [01;36m[Knote: [m[Kcandidate: ‘[01m[Ktemplate<class MessageT, class CallbackT, class AllocatorT, class CallbackMessageT, class SubscriptionT, class MessageMemoryStrategyT> std::shared_ptr<SubscriptionT> rclcpp::Node::create_subscription(const string&, const rclcpp::QoS&, CallbackT&&, const rclcpp::SubscriptionOptionsWithAllocator<AllocatorT>&, typename MessageMemoryStrategyT::SharedPtr)[m[K’
[1.256s]   213 |   [01;36m[Kcreate_subscription[m[K(
[1.256s]       |   [01;36m[K^~~~~~~~~~~~~~~~~~~[m[K
[1.256s] [01m[K/opt/ros/foxy/include/rclcpp/node.hpp:213:3:[m[K [01;36m[Knote: [m[K  substitution of deduced template arguments resulted in errors seen above
[2.129s] make[2]: *** [CMakeFiles/order_optimizer.dir/build.make:63: CMakeFiles/order_optimizer.dir/src/OrderOptimizer_function.cpp.o] Error 1
[2.130s] make[1]: *** [CMakeFiles/Makefile2:109: CMakeFiles/order_optimizer.dir/all] Error 2
[2.130s] make: *** [Makefile:141: all] Error 2
[2.133s] Invoked command in '/home/josef/AMR_ws/build/AMR_project' returned '2': CMAKE_PREFIX_PATH=${CMAKE_PREFIX_PATH}:/opt/ros/foxy /usr/bin/cmake --build /home/josef/AMR_ws/build/AMR_project -- -j6 -l6
