[0.023s] Invoking command in '/home/josef/AMR_ws/build/AMR_project': CMAKE_PREFIX_PATH=/home/josef/AMR_ws/install/custom_topic:/home/josef/AMR_ws/install/AMR_project:/home/josef/AMR_ws/install/cpp_pubsub:/opt/ros/foxy /usr/bin/cmake --build /home/josef/AMR_ws/build/AMR_project -- -j6 -l6
[0.068s] [35m[1mScanning dependencies of target order_optimizer[0m
[0.085s] [ 50%] Built target talker
[0.085s] [ 66%] Built target listener
[0.096s] [ 83%] [32mBuilding CXX object CMakeFiles/order_optimizer.dir/src/OrderOptimizer_function.cpp.o[0m
[1.445s] [01m[K/home/josef/AMR_ws/src/AMR_project/src/OrderOptimizer_function.cpp:[m[K In function ‘[01m[Kint parsing_order(int, double&, double&, std::vector<std::__cxx11::basic_string<char> >&, std::string, std::string)[m[K’:
[1.445s] [01m[K/home/josef/AMR_ws/src/AMR_project/src/OrderOptimizer_function.cpp:50:33:[m[K [01;35m[Kwarning: [m[Kcomparison of integer expressions of different signedness: ‘[01m[Kstd::__cxx11::basic_string<char>::size_type[m[K’ {aka ‘[01m[Klong unsigned int[m[K’} and ‘[01m[Kint[m[K’ [[01;35m[K-Wsign-compare[m[K]
[1.445s]    50 |         if ([01;35m[Kline.find("order:") != -1[m[K && std::stoi(line.substr(8)) == order_id) {
[1.445s]       |             [01;35m[K~~~~~~~~~~~~~~~~~~~~^~~~~[m[K
[1.446s] [01m[K/home/josef/AMR_ws/src/AMR_project/src/OrderOptimizer_function.cpp:64:44:[m[K [01;35m[Kwarning: [m[Kcomparison of integer expressions of different signedness: ‘[01m[Kstd::__cxx11::basic_string<char>::size_type[m[K’ {aka ‘[01m[Klong unsigned int[m[K’} and ‘[01m[Kint[m[K’ [[01;35m[K-Wsign-compare[m[K]
[1.446s]    64 |                     if ([01;35m[Kline.find("order") != -1[m[K)
[1.446s]       |                         [01;35m[K~~~~~~~~~~~~~~~~~~~^~~~~[m[K
[1.453s] [01m[K/home/josef/AMR_ws/src/AMR_project/src/OrderOptimizer_function.cpp:[m[K In function ‘[01m[Kint parsing_product(std::vector<std::__cxx11::basic_string<char> >&, std::vector<part>&, std::string)[m[K’:
[1.453s] [01m[K/home/josef/AMR_ws/src/AMR_project/src/OrderOptimizer_function.cpp:113:23:[m[K [01;35m[Kwarning: [m[Kcomparison of integer expressions of different signedness: ‘[01m[Kint[m[K’ and ‘[01m[Kstd::vector<std::__cxx11::basic_string<char> >::size_type[m[K’ {aka ‘[01m[Klong unsigned int[m[K’} [[01;35m[K-Wsign-compare[m[K]
[1.453s]   113 |     for (int i = 0; [01;35m[Ki < products.size()[m[K; i++) {
[1.453s]       |                     [01;35m[K~~^~~~~~~~~~~~~~~~~[m[K
[1.454s] [01m[K/home/josef/AMR_ws/src/AMR_project/src/OrderOptimizer_function.cpp:129:42:[m[K [01;35m[Kwarning: [m[Kcomparison of integer expressions of different signedness: ‘[01m[Kstd::__cxx11::basic_string<char>::size_type[m[K’ {aka ‘[01m[Klong unsigned int[m[K’} and ‘[01m[Kint[m[K’ [[01;35m[K-Wsign-compare[m[K]
[1.454s]   129 |                 if ([01;35m[Kline.find("Product") != -1[m[K)
[1.454s]       |                     [01;35m[K~~~~~~~~~~~~~~~~~~~~~^~~~~[m[K
[1.456s] [01m[K/home/josef/AMR_ws/src/AMR_project/src/OrderOptimizer_function.cpp:143:41:[m[K [01;35m[Kwarning: [m[Kcomparison of integer expressions of different signedness: ‘[01m[Kstd::__cxx11::basic_string<char>::size_type[m[K’ {aka ‘[01m[Klong unsigned int[m[K’} and ‘[01m[Kint[m[K’ [[01;35m[K-Wsign-compare[m[K]
[1.456s]   143 |                     if ([01;35m[Kline.find("id") != -1[m[K)
[1.456s]       |                         [01;35m[K~~~~~~~~~~~~~~~~^~~~~[m[K
[1.462s] [01m[K/home/josef/AMR_ws/src/AMR_project/src/OrderOptimizer_function.cpp:[m[K In function ‘[01m[Kint calc_path(int, double&, double&, double&, double&, std::vector<std::__cxx11::basic_string<char> >&, std::vector<part>&, std::string, std::string)[m[K’:
[1.462s] [01m[K/home/josef/AMR_ws/src/AMR_project/src/OrderOptimizer_function.cpp:203:26:[m[K [01;35m[Kwarning: [m[Kcomparison of integer expressions of different signedness: ‘[01m[Kint[m[K’ and ‘[01m[Kstd::vector<part>::size_type[m[K’ {aka ‘[01m[Klong unsigned int[m[K’} [[01;35m[K-Wsign-compare[m[K]
[1.462s]   203 |        for (int i = 0; [01;35m[Ki < parts.size()[m[K; i++)
[1.463s]       |                        [01;35m[K~~^~~~~~~~~~~~~~[m[K
[1.463s] [01m[K/home/josef/AMR_ws/src/AMR_project/src/OrderOptimizer_function.cpp:210:26:[m[K [01;35m[Kwarning: [m[Kcomparison of integer expressions of different signedness: ‘[01m[Kint[m[K’ and ‘[01m[Kstd::vector<int>::size_type[m[K’ {aka ‘[01m[Klong unsigned int[m[K’} [[01;35m[K-Wsign-compare[m[K]
[1.463s]   210 |        for (int i = 1; [01;35m[Ki < distance.size()[m[K; i++) {
[1.463s]       |                        [01;35m[K~~^~~~~~~~~~~~~~~~~[m[K
[1.522s] [01m[K/home/josef/AMR_ws/src/AMR_project/src/OrderOptimizer_function.cpp:[m[K In member function ‘[01m[Kvoid Order_Opt::currentPosition_callback(geometry_msgs::msg::PoseStamped_<std::allocator<void> >::SharedPtr) const[m[K’:
[1.522s] [01m[K/home/josef/AMR_ws/src/AMR_project/src/OrderOptimizer_function.cpp:302:29:[m[K [01;31m[Kerror: [m[Kpassing ‘[01m[Kconst Order_Opt[m[K’ as ‘[01m[Kthis[m[K’ argument discards qualifiers [[01;31m[K-fpermissive[m[K]
[1.522s]   302 |     geometric_path_callback([01;31m[K)[m[K;
[1.522s]       |                             [01;31m[K^[m[K
[1.522s] [01m[K/home/josef/AMR_ws/src/AMR_project/src/OrderOptimizer_function.cpp:316:8:[m[K [01;36m[Knote: [m[K  in call to ‘[01m[Kvoid Order_Opt::geometric_path_callback()[m[K’
[1.522s]   316 |   void [01;36m[Kgeometric_path_callback[m[K(){
[1.522s]       |        [01;36m[K^~~~~~~~~~~~~~~~~~~~~~~[m[K
[1.524s] [01m[K/home/josef/AMR_ws/src/AMR_project/src/OrderOptimizer_function.cpp:[m[K In member function ‘[01m[Kvoid Order_Opt::nextOrder_callback(custom_topic::msg::NextOrder_<std::allocator<void> >::SharedPtr) const[m[K’:
[1.524s] [01m[K/home/josef/AMR_ws/src/AMR_project/src/OrderOptimizer_function.cpp:310:29:[m[K [01;31m[Kerror: [m[Kpassing ‘[01m[Kconst Order_Opt[m[K’ as ‘[01m[Kthis[m[K’ argument discards qualifiers [[01;31m[K-fpermissive[m[K]
[1.524s]   310 |     geometric_path_callback([01;31m[K)[m[K;
[1.524s]       |                             [01;31m[K^[m[K
[1.524s] [01m[K/home/josef/AMR_ws/src/AMR_project/src/OrderOptimizer_function.cpp:316:8:[m[K [01;36m[Knote: [m[K  in call to ‘[01m[Kvoid Order_Opt::geometric_path_callback()[m[K’
[1.524s]   316 |   void [01;36m[Kgeometric_path_callback[m[K(){
[1.524s]       |        [01;36m[K^~~~~~~~~~~~~~~~~~~~~~~[m[K
[3.843s] make[2]: *** [CMakeFiles/order_optimizer.dir/build.make:63: CMakeFiles/order_optimizer.dir/src/OrderOptimizer_function.cpp.o] Error 1
[3.844s] make[1]: *** [CMakeFiles/Makefile2:109: CMakeFiles/order_optimizer.dir/all] Error 2
[3.844s] make: *** [Makefile:141: all] Error 2
[3.846s] Invoked command in '/home/josef/AMR_ws/build/AMR_project' returned '2': CMAKE_PREFIX_PATH=/home/josef/AMR_ws/install/custom_topic:/home/josef/AMR_ws/install/AMR_project:/home/josef/AMR_ws/install/cpp_pubsub:/opt/ros/foxy /usr/bin/cmake --build /home/josef/AMR_ws/build/AMR_project -- -j6 -l6
