[0.023s] Invoking command in '/home/josef/AMR_ws/build/AMR_project': CMAKE_PREFIX_PATH=/home/josef/AMR_ws/install/custom_topic:/home/josef/AMR_ws/install/AMR_project:/home/josef/AMR_ws/install/cpp_pubsub:/opt/ros/foxy /usr/bin/cmake --build /home/josef/AMR_ws/build/AMR_project -- -j6 -l6
[0.069s] [35m[1mScanning dependencies of target order_optimizer[0m
[0.087s] [ 66%] Built target listener
[0.087s] [ 66%] Built target talker
[0.096s] [ 83%] [32mBuilding CXX object CMakeFiles/order_optimizer.dir/src/OrderOptimizer_function.cpp.o[0m
[1.394s] [01m[K/home/josef/AMR_ws/src/AMR_project/src/OrderOptimizer_function.cpp:[m[K In function ‘[01m[Kint parsing_order(int, double&, double&, std::vector<std::__cxx11::basic_string<char> >&, std::string, std::string)[m[K’:
[1.394s] [01m[K/home/josef/AMR_ws/src/AMR_project/src/OrderOptimizer_function.cpp:46:33:[m[K [01;35m[Kwarning: [m[Kcomparison of integer expressions of different signedness: ‘[01m[Kstd::__cxx11::basic_string<char>::size_type[m[K’ {aka ‘[01m[Klong unsigned int[m[K’} and ‘[01m[Kint[m[K’ [[01;35m[K-Wsign-compare[m[K]
[1.394s]    46 |         if ([01;35m[Kline.find("order:") != -1[m[K && std::stoi(line.substr(8)) == order_id) {
[1.394s]       |             [01;35m[K~~~~~~~~~~~~~~~~~~~~^~~~~[m[K
[1.395s] [01m[K/home/josef/AMR_ws/src/AMR_project/src/OrderOptimizer_function.cpp:60:44:[m[K [01;35m[Kwarning: [m[Kcomparison of integer expressions of different signedness: ‘[01m[Kstd::__cxx11::basic_string<char>::size_type[m[K’ {aka ‘[01m[Klong unsigned int[m[K’} and ‘[01m[Kint[m[K’ [[01;35m[K-Wsign-compare[m[K]
[1.395s]    60 |                     if ([01;35m[Kline.find("order") != -1[m[K)
[1.395s]       |                         [01;35m[K~~~~~~~~~~~~~~~~~~~^~~~~[m[K
[1.401s] [01m[K/home/josef/AMR_ws/src/AMR_project/src/OrderOptimizer_function.cpp:[m[K In function ‘[01m[Kint parsing_product(std::vector<std::__cxx11::basic_string<char> >&, std::vector<part>&, std::string)[m[K’:
[1.401s] [01m[K/home/josef/AMR_ws/src/AMR_project/src/OrderOptimizer_function.cpp:109:23:[m[K [01;35m[Kwarning: [m[Kcomparison of integer expressions of different signedness: ‘[01m[Kint[m[K’ and ‘[01m[Kstd::vector<std::__cxx11::basic_string<char> >::size_type[m[K’ {aka ‘[01m[Klong unsigned int[m[K’} [[01;35m[K-Wsign-compare[m[K]
[1.401s]   109 |     for (int i = 0; [01;35m[Ki < products.size()[m[K; i++) {
[1.401s]       |                     [01;35m[K~~^~~~~~~~~~~~~~~~~[m[K
[1.402s] [01m[K/home/josef/AMR_ws/src/AMR_project/src/OrderOptimizer_function.cpp:125:42:[m[K [01;35m[Kwarning: [m[Kcomparison of integer expressions of different signedness: ‘[01m[Kstd::__cxx11::basic_string<char>::size_type[m[K’ {aka ‘[01m[Klong unsigned int[m[K’} and ‘[01m[Kint[m[K’ [[01;35m[K-Wsign-compare[m[K]
[1.402s]   125 |                 if ([01;35m[Kline.find("Product") != -1[m[K)
[1.402s]       |                     [01;35m[K~~~~~~~~~~~~~~~~~~~~~^~~~~[m[K
[1.403s] [01m[K/home/josef/AMR_ws/src/AMR_project/src/OrderOptimizer_function.cpp:139:41:[m[K [01;35m[Kwarning: [m[Kcomparison of integer expressions of different signedness: ‘[01m[Kstd::__cxx11::basic_string<char>::size_type[m[K’ {aka ‘[01m[Klong unsigned int[m[K’} and ‘[01m[Kint[m[K’ [[01;35m[K-Wsign-compare[m[K]
[1.403s]   139 |                     if ([01;35m[Kline.find("id") != -1[m[K)
[1.403s]       |                         [01;35m[K~~~~~~~~~~~~~~~~^~~~~[m[K
[1.409s] [01m[K/home/josef/AMR_ws/src/AMR_project/src/OrderOptimizer_function.cpp:[m[K In function ‘[01m[Kint calc_path(int, double&, double&, double&, double&, std::vector<std::__cxx11::basic_string<char> >&, std::vector<part>&, std::string, std::string)[m[K’:
[1.409s] [01m[K/home/josef/AMR_ws/src/AMR_project/src/OrderOptimizer_function.cpp:199:26:[m[K [01;35m[Kwarning: [m[Kcomparison of integer expressions of different signedness: ‘[01m[Kint[m[K’ and ‘[01m[Kstd::vector<part>::size_type[m[K’ {aka ‘[01m[Klong unsigned int[m[K’} [[01;35m[K-Wsign-compare[m[K]
[1.409s]   199 |        for (int i = 0; [01;35m[Ki < parts.size()[m[K; i++)
[1.409s]       |                        [01;35m[K~~^~~~~~~~~~~~~~[m[K
[1.409s] [01m[K/home/josef/AMR_ws/src/AMR_project/src/OrderOptimizer_function.cpp:206:26:[m[K [01;35m[Kwarning: [m[Kcomparison of integer expressions of different signedness: ‘[01m[Kint[m[K’ and ‘[01m[Kstd::vector<int>::size_type[m[K’ {aka ‘[01m[Klong unsigned int[m[K’} [[01;35m[K-Wsign-compare[m[K]
[1.409s]   206 |        for (int i = 1; [01;35m[Ki < distance.size()[m[K; i++) {
[1.409s]       |                        [01;35m[K~~^~~~~~~~~~~~~~~~~[m[K
[6.652s] [100%] [32m[1mLinking CXX executable order_optimizer[0m
[6.925s] [100%] Built target order_optimizer
[6.937s] Invoked command in '/home/josef/AMR_ws/build/AMR_project' returned '0': CMAKE_PREFIX_PATH=/home/josef/AMR_ws/install/custom_topic:/home/josef/AMR_ws/install/AMR_project:/home/josef/AMR_ws/install/cpp_pubsub:/opt/ros/foxy /usr/bin/cmake --build /home/josef/AMR_ws/build/AMR_project -- -j6 -l6
[6.998s] Invoking command in '/home/josef/AMR_ws/build/AMR_project': CMAKE_PREFIX_PATH=/home/josef/AMR_ws/install/custom_topic:/home/josef/AMR_ws/install/AMR_project:/home/josef/AMR_ws/install/cpp_pubsub:/opt/ros/foxy /usr/bin/cmake --install /home/josef/AMR_ws/build/AMR_project
[7.007s] -- Install configuration: ""
[7.007s] -- Installing: /home/josef/AMR_ws/install/AMR_project/lib/AMR_project/order_optimizer
[7.011s] -- Set runtime path of "/home/josef/AMR_ws/install/AMR_project/lib/AMR_project/order_optimizer" to ""
[7.014s] -- Up-to-date: /home/josef/AMR_ws/install/AMR_project/lib/AMR_project/talker
[7.014s] -- Up-to-date: /home/josef/AMR_ws/install/AMR_project/lib/AMR_project/listener
[7.014s] -- Up-to-date: /home/josef/AMR_ws/install/AMR_project/share/ament_index/resource_index/package_run_dependencies/AMR_project
[7.014s] -- Up-to-date: /home/josef/AMR_ws/install/AMR_project/share/ament_index/resource_index/parent_prefix_path/AMR_project
[7.015s] -- Up-to-date: /home/josef/AMR_ws/install/AMR_project/share/AMR_project/environment/ament_prefix_path.sh
[7.015s] -- Up-to-date: /home/josef/AMR_ws/install/AMR_project/share/AMR_project/environment/ament_prefix_path.dsv
[7.015s] -- Up-to-date: /home/josef/AMR_ws/install/AMR_project/share/AMR_project/environment/path.sh
[7.015s] -- Up-to-date: /home/josef/AMR_ws/install/AMR_project/share/AMR_project/environment/path.dsv
[7.015s] -- Up-to-date: /home/josef/AMR_ws/install/AMR_project/share/AMR_project/local_setup.bash
[7.015s] -- Up-to-date: /home/josef/AMR_ws/install/AMR_project/share/AMR_project/local_setup.sh
[7.015s] -- Up-to-date: /home/josef/AMR_ws/install/AMR_project/share/AMR_project/local_setup.zsh
[7.015s] -- Up-to-date: /home/josef/AMR_ws/install/AMR_project/share/AMR_project/local_setup.dsv
[7.016s] -- Installing: /home/josef/AMR_ws/install/AMR_project/share/AMR_project/package.dsv
[7.016s] -- Up-to-date: /home/josef/AMR_ws/install/AMR_project/share/ament_index/resource_index/packages/AMR_project
[7.016s] -- Up-to-date: /home/josef/AMR_ws/install/AMR_project/share/AMR_project/cmake/AMR_projectConfig.cmake
[7.016s] -- Up-to-date: /home/josef/AMR_ws/install/AMR_project/share/AMR_project/cmake/AMR_projectConfig-version.cmake
[7.016s] -- Up-to-date: /home/josef/AMR_ws/install/AMR_project/share/AMR_project/package.xml
[7.019s] Invoked command in '/home/josef/AMR_ws/build/AMR_project' returned '0': CMAKE_PREFIX_PATH=/home/josef/AMR_ws/install/custom_topic:/home/josef/AMR_ws/install/AMR_project:/home/josef/AMR_ws/install/cpp_pubsub:/opt/ros/foxy /usr/bin/cmake --install /home/josef/AMR_ws/build/AMR_project
