[0.000000] (-) TimerEvent: {}
[0.001238] (-) JobUnselected: {'identifier': 'custom_topic'}
[0.001545] (AMR_project) JobQueued: {'identifier': 'AMR_project', 'dependencies': OrderedDict([('custom_topic', '/home/josef/AMR_ws/install/custom_topic')])}
[0.001630] (AMR_project) JobStarted: {'identifier': 'AMR_project'}
[0.014546] (AMR_project) JobProgress: {'identifier': 'AMR_project', 'progress': 'cmake'}
[0.016498] (AMR_project) JobProgress: {'identifier': 'AMR_project', 'progress': 'build'}
[0.016626] (AMR_project) Command: {'cmd': ['/usr/bin/cmake', '--build', '/home/josef/AMR_ws/build/AMR_project', '--', '-j6', '-l6'], 'cwd': '/home/josef/AMR_ws/build/AMR_project', 'env': OrderedDict([('GJS_DEBUG_TOPICS', 'JS ERROR;JS LOG'), ('LESSOPEN', '| /usr/bin/lesspipe %s'), ('USER', 'josef'), ('LC_TIME', 'de_AT.UTF-8'), ('SSH_AGENT_PID', '1383'), ('XDG_SESSION_TYPE', 'x11'), ('SHLVL', '1'), ('LD_LIBRARY_PATH', '/home/josef/AMR_ws/install/custom_topic/lib:/opt/ros/foxy/opt/yaml_cpp_vendor/lib:/opt/ros/foxy/opt/rviz_ogre_vendor/lib:/opt/ros/foxy/lib/x86_64-linux-gnu:/opt/ros/foxy/lib'), ('HOME', '/home/josef'), ('DESKTOP_SESSION', 'ubuntu'), ('ROS_PYTHON_VERSION', '3'), ('GNOME_SHELL_SESSION_MODE', 'ubuntu'), ('GTK_MODULES', 'gail:atk-bridge'), ('LC_MONETARY', 'de_AT.UTF-8'), ('MANAGERPID', '1231'), ('DBUS_SESSION_BUS_ADDRESS', 'unix:path=/run/user/1000/bus'), ('COLORTERM', 'truecolor'), ('IM_CONFIG_PHASE', '1'), ('COLCON_PREFIX_PATH', '/home/josef/AMR_ws/install'), ('ROS_DISTRO', 'foxy'), ('LOGNAME', 'josef'), ('JOURNAL_STREAM', '8:31910'), ('_', '/usr/bin/colcon'), ('ROS_VERSION', '2'), ('XDG_SESSION_CLASS', 'user'), ('USERNAME', 'josef'), ('TERM', 'xterm-256color'), ('GNOME_DESKTOP_SESSION_ID', 'this-is-deprecated'), ('ROS_LOCALHOST_ONLY', '0'), ('WINDOWPATH', '2'), ('PATH', '/opt/ros/foxy/bin:/home/josef/.local/bin:/usr/local/sbin:/usr/local/bin:/usr/sbin:/usr/bin:/sbin:/bin:/usr/games:/usr/local/games:/snap/bin'), ('SESSION_MANAGER', 'local/josef-VirtualBox:@/tmp/.ICE-unix/1445,unix/josef-VirtualBox:/tmp/.ICE-unix/1445'), ('INVOCATION_ID', 'f688c027e82648dd8408602b1bb78ff6'), ('XDG_MENU_PREFIX', 'gnome-'), ('LC_ADDRESS', 'de_AT.UTF-8'), ('GNOME_TERMINAL_SCREEN', '/org/gnome/Terminal/screen/cfca3d40_c3a3_447c_a70d_38cd786ca027'), ('XDG_RUNTIME_DIR', '/run/user/1000'), ('DISPLAY', ':0'), ('LANG', 'en_US.UTF-8'), ('XDG_CURRENT_DESKTOP', 'ubuntu:GNOME'), ('LC_TELEPHONE', 'de_AT.UTF-8'), ('XMODIFIERS', '@im=ibus'), ('XDG_SESSION_DESKTOP', 'ubuntu'), ('XAUTHORITY', '/run/user/1000/gdm/Xauthority'), ('LS_COLORS', 'rs=0:di=01;34:ln=01;36:mh=00:pi=40;33:so=01;35:do=01;35:bd=40;33;01:cd=40;33;01:or=40;31;01:mi=00:su=37;41:sg=30;43:ca=30;41:tw=30;42:ow=34;42:st=37;44:ex=01;32:*.tar=01;31:*.tgz=01;31:*.arc=01;31:*.arj=01;31:*.taz=01;31:*.lha=01;31:*.lz4=01;31:*.lzh=01;31:*.lzma=01;31:*.tlz=01;31:*.txz=01;31:*.tzo=01;31:*.t7z=01;31:*.zip=01;31:*.z=01;31:*.dz=01;31:*.gz=01;31:*.lrz=01;31:*.lz=01;31:*.lzo=01;31:*.xz=01;31:*.zst=01;31:*.tzst=01;31:*.bz2=01;31:*.bz=01;31:*.tbz=01;31:*.tbz2=01;31:*.tz=01;31:*.deb=01;31:*.rpm=01;31:*.jar=01;31:*.war=01;31:*.ear=01;31:*.sar=01;31:*.rar=01;31:*.alz=01;31:*.ace=01;31:*.zoo=01;31:*.cpio=01;31:*.7z=01;31:*.rz=01;31:*.cab=01;31:*.wim=01;31:*.swm=01;31:*.dwm=01;31:*.esd=01;31:*.jpg=01;35:*.jpeg=01;35:*.mjpg=01;35:*.mjpeg=01;35:*.gif=01;35:*.bmp=01;35:*.pbm=01;35:*.pgm=01;35:*.ppm=01;35:*.tga=01;35:*.xbm=01;35:*.xpm=01;35:*.tif=01;35:*.tiff=01;35:*.png=01;35:*.svg=01;35:*.svgz=01;35:*.mng=01;35:*.pcx=01;35:*.mov=01;35:*.mpg=01;35:*.mpeg=01;35:*.m2v=01;35:*.mkv=01;35:*.webm=01;35:*.ogm=01;35:*.mp4=01;35:*.m4v=01;35:*.mp4v=01;35:*.vob=01;35:*.qt=01;35:*.nuv=01;35:*.wmv=01;35:*.asf=01;35:*.rm=01;35:*.rmvb=01;35:*.flc=01;35:*.avi=01;35:*.fli=01;35:*.flv=01;35:*.gl=01;35:*.dl=01;35:*.xcf=01;35:*.xwd=01;35:*.yuv=01;35:*.cgm=01;35:*.emf=01;35:*.ogv=01;35:*.ogx=01;35:*.aac=00;36:*.au=00;36:*.flac=00;36:*.m4a=00;36:*.mid=00;36:*.midi=00;36:*.mka=00;36:*.mp3=00;36:*.mpc=00;36:*.ogg=00;36:*.ra=00;36:*.wav=00;36:*.oga=00;36:*.opus=00;36:*.spx=00;36:*.xspf=00;36:'), ('GNOME_TERMINAL_SERVICE', ':1.2037'), ('SSH_AUTH_SOCK', '/run/user/1000/keyring/ssh'), ('AMENT_PREFIX_PATH', '/home/josef/AMR_ws/install/AMR_project:/home/josef/AMR_ws/install/custom_topic:/home/josef/AMR_ws/install/cpp_pubsub:/opt/ros/foxy'), ('SHELL', '/bin/bash'), ('LC_NAME', 'de_AT.UTF-8'), ('QT_ACCESSIBILITY', '1'), ('GDMSESSION', 'ubuntu'), ('LESSCLOSE', '/usr/bin/lesspipe %s %s'), ('LC_MEASUREMENT', 'de_AT.UTF-8'), ('GPG_AGENT_INFO', '/run/user/1000/gnupg/S.gpg-agent:0:1'), ('GJS_DEBUG_OUTPUT', 'stderr'), ('LC_IDENTIFICATION', 'de_AT.UTF-8'), ('QT_IM_MODULE', 'ibus'), ('PWD', '/home/josef/AMR_ws/build/AMR_project'), ('LC_ALL', 'en_US.UTF-8'), ('XDG_CONFIG_DIRS', '/etc/xdg/xdg-ubuntu:/etc/xdg'), ('XDG_DATA_DIRS', '/usr/share/ubuntu:/usr/local/share/:/usr/share/:/var/lib/snapd/desktop'), ('PYTHONPATH', '/home/josef/AMR_ws/install/custom_topic/lib/python3.8/site-packages:/opt/ros/foxy/lib/python3.8/site-packages'), ('LC_NUMERIC', 'de_AT.UTF-8'), ('LC_PAPER', 'de_AT.UTF-8'), ('COLCON', '1'), ('VTE_VERSION', '6003'), ('CMAKE_PREFIX_PATH', '/home/josef/AMR_ws/install/custom_topic:/home/josef/AMR_ws/install/AMR_project:/home/josef/AMR_ws/install/cpp_pubsub:/opt/ros/foxy')]), 'shell': False}
[0.069478] (AMR_project) StdoutLine: {'line': b'\x1b[35m\x1b[1mScanning dependencies of target order_optimizer\x1b[0m\n'}
[0.086448] (AMR_project) StdoutLine: {'line': b'[ 66%] Built target talker\n'}
[0.086640] (AMR_project) StdoutLine: {'line': b'[ 66%] Built target listener\n'}
[0.094788] (AMR_project) StdoutLine: {'line': b'[ 83%] \x1b[32mBuilding CXX object CMakeFiles/order_optimizer.dir/src/OrderOptimizer_function.cpp.o\x1b[0m\n'}
[0.099097] (-) TimerEvent: {}
[0.203277] (-) TimerEvent: {}
[0.305345] (-) TimerEvent: {}
[0.406446] (-) TimerEvent: {}
[0.506914] (-) TimerEvent: {}
[0.608263] (-) TimerEvent: {}
[0.709231] (-) TimerEvent: {}
[0.809801] (-) TimerEvent: {}
[0.916813] (-) TimerEvent: {}
[1.020924] (-) TimerEvent: {}
[1.125279] (-) TimerEvent: {}
[1.251579] (-) TimerEvent: {}
[1.355878] (-) TimerEvent: {}
[1.461642] (-) TimerEvent: {}
[1.491731] (AMR_project) StderrLine: {'line': b'\x1b[01m\x1b[K/home/josef/AMR_ws/src/AMR_project/src/OrderOptimizer_function.cpp:\x1b[m\x1b[K In function \xe2\x80\x98\x1b[01m\x1b[Kint parsing_order(int, double&, double&, std::vector<std::__cxx11::basic_string<char> >&, std::string, std::string)\x1b[m\x1b[K\xe2\x80\x99:\n'}
[1.491937] (AMR_project) StderrLine: {'line': b'\x1b[01m\x1b[K/home/josef/AMR_ws/src/AMR_project/src/OrderOptimizer_function.cpp:50:33:\x1b[m\x1b[K \x1b[01;35m\x1b[Kwarning: \x1b[m\x1b[Kcomparison of integer expressions of different signedness: \xe2\x80\x98\x1b[01m\x1b[Kstd::__cxx11::basic_string<char>::size_type\x1b[m\x1b[K\xe2\x80\x99 {aka \xe2\x80\x98\x1b[01m\x1b[Klong unsigned int\x1b[m\x1b[K\xe2\x80\x99} and \xe2\x80\x98\x1b[01m\x1b[Kint\x1b[m\x1b[K\xe2\x80\x99 [\x1b[01;35m\x1b[K-Wsign-compare\x1b[m\x1b[K]\n'}
[1.492291] (AMR_project) StderrLine: {'line': b'   50 |         if (\x1b[01;35m\x1b[Kline.find("order:") != -1\x1b[m\x1b[K && std::stoi(line.substr(8)) == order_id) {\n'}
[1.492371] (AMR_project) StderrLine: {'line': b'      |             \x1b[01;35m\x1b[K~~~~~~~~~~~~~~~~~~~~^~~~~\x1b[m\x1b[K\n'}
[1.493459] (AMR_project) StderrLine: {'line': b'\x1b[01m\x1b[K/home/josef/AMR_ws/src/AMR_project/src/OrderOptimizer_function.cpp:64:44:\x1b[m\x1b[K \x1b[01;35m\x1b[Kwarning: \x1b[m\x1b[Kcomparison of integer expressions of different signedness: \xe2\x80\x98\x1b[01m\x1b[Kstd::__cxx11::basic_string<char>::size_type\x1b[m\x1b[K\xe2\x80\x99 {aka \xe2\x80\x98\x1b[01m\x1b[Klong unsigned int\x1b[m\x1b[K\xe2\x80\x99} and \xe2\x80\x98\x1b[01m\x1b[Kint\x1b[m\x1b[K\xe2\x80\x99 [\x1b[01;35m\x1b[K-Wsign-compare\x1b[m\x1b[K]\n'}
[1.493551] (AMR_project) StderrLine: {'line': b'   64 |                     if (\x1b[01;35m\x1b[Kline.find("order") != -1\x1b[m\x1b[K)\n'}
[1.493607] (AMR_project) StderrLine: {'line': b'      |                         \x1b[01;35m\x1b[K~~~~~~~~~~~~~~~~~~~^~~~~\x1b[m\x1b[K\n'}
[1.500521] (AMR_project) StderrLine: {'line': b'\x1b[01m\x1b[K/home/josef/AMR_ws/src/AMR_project/src/OrderOptimizer_function.cpp:\x1b[m\x1b[K In function \xe2\x80\x98\x1b[01m\x1b[Kint parsing_product(std::vector<std::__cxx11::basic_string<char> >&, std::vector<part>&, std::string)\x1b[m\x1b[K\xe2\x80\x99:\n'}
[1.500663] (AMR_project) StderrLine: {'line': b'\x1b[01m\x1b[K/home/josef/AMR_ws/src/AMR_project/src/OrderOptimizer_function.cpp:113:23:\x1b[m\x1b[K \x1b[01;35m\x1b[Kwarning: \x1b[m\x1b[Kcomparison of integer expressions of different signedness: \xe2\x80\x98\x1b[01m\x1b[Kint\x1b[m\x1b[K\xe2\x80\x99 and \xe2\x80\x98\x1b[01m\x1b[Kstd::vector<std::__cxx11::basic_string<char> >::size_type\x1b[m\x1b[K\xe2\x80\x99 {aka \xe2\x80\x98\x1b[01m\x1b[Klong unsigned int\x1b[m\x1b[K\xe2\x80\x99} [\x1b[01;35m\x1b[K-Wsign-compare\x1b[m\x1b[K]\n'}
[1.500727] (AMR_project) StderrLine: {'line': b'  113 |     for (int i = 0; \x1b[01;35m\x1b[Ki < products.size()\x1b[m\x1b[K; i++) {\n'}
[1.500779] (AMR_project) StderrLine: {'line': b'      |                     \x1b[01;35m\x1b[K~~^~~~~~~~~~~~~~~~~\x1b[m\x1b[K\n'}
[1.501431] (AMR_project) StderrLine: {'line': b'\x1b[01m\x1b[K/home/josef/AMR_ws/src/AMR_project/src/OrderOptimizer_function.cpp:129:42:\x1b[m\x1b[K \x1b[01;35m\x1b[Kwarning: \x1b[m\x1b[Kcomparison of integer expressions of different signedness: \xe2\x80\x98\x1b[01m\x1b[Kstd::__cxx11::basic_string<char>::size_type\x1b[m\x1b[K\xe2\x80\x99 {aka \xe2\x80\x98\x1b[01m\x1b[Klong unsigned int\x1b[m\x1b[K\xe2\x80\x99} and \xe2\x80\x98\x1b[01m\x1b[Kint\x1b[m\x1b[K\xe2\x80\x99 [\x1b[01;35m\x1b[K-Wsign-compare\x1b[m\x1b[K]\n'}
[1.501525] (AMR_project) StderrLine: {'line': b'  129 |                 if (\x1b[01;35m\x1b[Kline.find("Product") != -1\x1b[m\x1b[K)\n'}
[1.501581] (AMR_project) StderrLine: {'line': b'      |                     \x1b[01;35m\x1b[K~~~~~~~~~~~~~~~~~~~~~^~~~~\x1b[m\x1b[K\n'}
[1.503585] (AMR_project) StderrLine: {'line': b'\x1b[01m\x1b[K/home/josef/AMR_ws/src/AMR_project/src/OrderOptimizer_function.cpp:143:41:\x1b[m\x1b[K \x1b[01;35m\x1b[Kwarning: \x1b[m\x1b[Kcomparison of integer expressions of different signedness: \xe2\x80\x98\x1b[01m\x1b[Kstd::__cxx11::basic_string<char>::size_type\x1b[m\x1b[K\xe2\x80\x99 {aka \xe2\x80\x98\x1b[01m\x1b[Klong unsigned int\x1b[m\x1b[K\xe2\x80\x99} and \xe2\x80\x98\x1b[01m\x1b[Kint\x1b[m\x1b[K\xe2\x80\x99 [\x1b[01;35m\x1b[K-Wsign-compare\x1b[m\x1b[K]\n'}
[1.503702] (AMR_project) StderrLine: {'line': b'  143 |                     if (\x1b[01;35m\x1b[Kline.find("id") != -1\x1b[m\x1b[K)\n'}
[1.503759] (AMR_project) StderrLine: {'line': b'      |                         \x1b[01;35m\x1b[K~~~~~~~~~~~~~~~~^~~~~\x1b[m\x1b[K\n'}
[1.509404] (AMR_project) StderrLine: {'line': b'\x1b[01m\x1b[K/home/josef/AMR_ws/src/AMR_project/src/OrderOptimizer_function.cpp:\x1b[m\x1b[K In function \xe2\x80\x98\x1b[01m\x1b[Kint calc_path(int, double&, double&, double&, double&, std::vector<std::__cxx11::basic_string<char> >&, std::vector<part>&, std::string, std::string)\x1b[m\x1b[K\xe2\x80\x99:\n'}
[1.509574] (AMR_project) StderrLine: {'line': b'\x1b[01m\x1b[K/home/josef/AMR_ws/src/AMR_project/src/OrderOptimizer_function.cpp:203:26:\x1b[m\x1b[K \x1b[01;35m\x1b[Kwarning: \x1b[m\x1b[Kcomparison of integer expressions of different signedness: \xe2\x80\x98\x1b[01m\x1b[Kint\x1b[m\x1b[K\xe2\x80\x99 and \xe2\x80\x98\x1b[01m\x1b[Kstd::vector<part>::size_type\x1b[m\x1b[K\xe2\x80\x99 {aka \xe2\x80\x98\x1b[01m\x1b[Klong unsigned int\x1b[m\x1b[K\xe2\x80\x99} [\x1b[01;35m\x1b[K-Wsign-compare\x1b[m\x1b[K]\n'}
[1.509654] (AMR_project) StderrLine: {'line': b'  203 |        for (int i = 0; \x1b[01;35m\x1b[Ki < parts.size()\x1b[m\x1b[K; i++)\n'}
[1.509715] (AMR_project) StderrLine: {'line': b'      |                        \x1b[01;35m\x1b[K~~^~~~~~~~~~~~~~\x1b[m\x1b[K\n'}
[1.509771] (AMR_project) StderrLine: {'line': b'\x1b[01m\x1b[K/home/josef/AMR_ws/src/AMR_project/src/OrderOptimizer_function.cpp:210:26:\x1b[m\x1b[K \x1b[01;35m\x1b[Kwarning: \x1b[m\x1b[Kcomparison of integer expressions of different signedness: \xe2\x80\x98\x1b[01m\x1b[Kint\x1b[m\x1b[K\xe2\x80\x99 and \xe2\x80\x98\x1b[01m\x1b[Kstd::vector<int>::size_type\x1b[m\x1b[K\xe2\x80\x99 {aka \xe2\x80\x98\x1b[01m\x1b[Klong unsigned int\x1b[m\x1b[K\xe2\x80\x99} [\x1b[01;35m\x1b[K-Wsign-compare\x1b[m\x1b[K]\n'}
[1.509842] (AMR_project) StderrLine: {'line': b'  210 |        for (int i = 1; \x1b[01;35m\x1b[Ki < distance.size()\x1b[m\x1b[K; i++) {\n'}
[1.509897] (AMR_project) StderrLine: {'line': b'      |                        \x1b[01;35m\x1b[K~~^~~~~~~~~~~~~~~~~\x1b[m\x1b[K\n'}
[1.562612] (-) TimerEvent: {}
[1.667776] (-) TimerEvent: {}
[1.771262] (-) TimerEvent: {}
[1.885628] (-) TimerEvent: {}
[1.992142] (-) TimerEvent: {}
[2.092610] (-) TimerEvent: {}
[2.193950] (-) TimerEvent: {}
[2.294532] (-) TimerEvent: {}
[2.413631] (-) TimerEvent: {}
[2.514895] (-) TimerEvent: {}
[2.615975] (-) TimerEvent: {}
[2.717094] (-) TimerEvent: {}
[2.821563] (-) TimerEvent: {}
[2.929418] (-) TimerEvent: {}
[3.042062] (-) TimerEvent: {}
[3.142622] (-) TimerEvent: {}
[3.244710] (-) TimerEvent: {}
[3.346740] (-) TimerEvent: {}
[3.448157] (-) TimerEvent: {}
[3.551468] (-) TimerEvent: {}
[3.675108] (-) TimerEvent: {}
[3.790876] (-) TimerEvent: {}
[3.894272] (-) TimerEvent: {}
[3.997050] (-) TimerEvent: {}
[4.098731] (-) TimerEvent: {}
[4.200081] (-) TimerEvent: {}
[4.304522] (-) TimerEvent: {}
[4.405201] (-) TimerEvent: {}
[4.505863] (-) TimerEvent: {}
[4.607974] (-) TimerEvent: {}
[4.709883] (-) TimerEvent: {}
[4.813034] (-) TimerEvent: {}
[4.913841] (-) TimerEvent: {}
[5.014358] (-) TimerEvent: {}
[5.115007] (-) TimerEvent: {}
[5.217186] (-) TimerEvent: {}
[5.318245] (-) TimerEvent: {}
[5.439440] (-) TimerEvent: {}
[5.541481] (-) TimerEvent: {}
[5.642043] (-) TimerEvent: {}
[5.746495] (-) TimerEvent: {}
[5.848728] (-) TimerEvent: {}
[5.962753] (-) TimerEvent: {}
[6.067617] (-) TimerEvent: {}
[6.168947] (-) TimerEvent: {}
[6.279853] (-) TimerEvent: {}
[6.382870] (-) TimerEvent: {}
[6.489690] (-) TimerEvent: {}
[6.593628] (-) TimerEvent: {}
[6.694163] (-) TimerEvent: {}
[6.796733] (-) TimerEvent: {}
[6.798049] (AMR_project) StdoutLine: {'line': b'[100%] \x1b[32m\x1b[1mLinking CXX executable order_optimizer\x1b[0m\n'}
[6.897304] (-) TimerEvent: {}
[7.005827] (-) TimerEvent: {}
[7.076105] (AMR_project) StdoutLine: {'line': b'[100%] Built target order_optimizer\n'}
[7.101728] (AMR_project) CommandEnded: {'returncode': 0}
[7.105985] (-) TimerEvent: {}
[7.182064] (AMR_project) JobProgress: {'identifier': 'AMR_project', 'progress': 'install'}
[7.196678] (AMR_project) Command: {'cmd': ['/usr/bin/cmake', '--install', '/home/josef/AMR_ws/build/AMR_project'], 'cwd': '/home/josef/AMR_ws/build/AMR_project', 'env': OrderedDict([('GJS_DEBUG_TOPICS', 'JS ERROR;JS LOG'), ('LESSOPEN', '| /usr/bin/lesspipe %s'), ('USER', 'josef'), ('LC_TIME', 'de_AT.UTF-8'), ('SSH_AGENT_PID', '1383'), ('XDG_SESSION_TYPE', 'x11'), ('SHLVL', '1'), ('LD_LIBRARY_PATH', '/home/josef/AMR_ws/install/custom_topic/lib:/opt/ros/foxy/opt/yaml_cpp_vendor/lib:/opt/ros/foxy/opt/rviz_ogre_vendor/lib:/opt/ros/foxy/lib/x86_64-linux-gnu:/opt/ros/foxy/lib'), ('HOME', '/home/josef'), ('DESKTOP_SESSION', 'ubuntu'), ('ROS_PYTHON_VERSION', '3'), ('GNOME_SHELL_SESSION_MODE', 'ubuntu'), ('GTK_MODULES', 'gail:atk-bridge'), ('LC_MONETARY', 'de_AT.UTF-8'), ('MANAGERPID', '1231'), ('DBUS_SESSION_BUS_ADDRESS', 'unix:path=/run/user/1000/bus'), ('COLORTERM', 'truecolor'), ('IM_CONFIG_PHASE', '1'), ('COLCON_PREFIX_PATH', '/home/josef/AMR_ws/install'), ('ROS_DISTRO', 'foxy'), ('LOGNAME', 'josef'), ('JOURNAL_STREAM', '8:31910'), ('_', '/usr/bin/colcon'), ('ROS_VERSION', '2'), ('XDG_SESSION_CLASS', 'user'), ('USERNAME', 'josef'), ('TERM', 'xterm-256color'), ('GNOME_DESKTOP_SESSION_ID', 'this-is-deprecated'), ('ROS_LOCALHOST_ONLY', '0'), ('WINDOWPATH', '2'), ('PATH', '/opt/ros/foxy/bin:/home/josef/.local/bin:/usr/local/sbin:/usr/local/bin:/usr/sbin:/usr/bin:/sbin:/bin:/usr/games:/usr/local/games:/snap/bin'), ('SESSION_MANAGER', 'local/josef-VirtualBox:@/tmp/.ICE-unix/1445,unix/josef-VirtualBox:/tmp/.ICE-unix/1445'), ('INVOCATION_ID', 'f688c027e82648dd8408602b1bb78ff6'), ('XDG_MENU_PREFIX', 'gnome-'), ('LC_ADDRESS', 'de_AT.UTF-8'), ('GNOME_TERMINAL_SCREEN', '/org/gnome/Terminal/screen/cfca3d40_c3a3_447c_a70d_38cd786ca027'), ('XDG_RUNTIME_DIR', '/run/user/1000'), ('DISPLAY', ':0'), ('LANG', 'en_US.UTF-8'), ('XDG_CURRENT_DESKTOP', 'ubuntu:GNOME'), ('LC_TELEPHONE', 'de_AT.UTF-8'), ('XMODIFIERS', '@im=ibus'), ('XDG_SESSION_DESKTOP', 'ubuntu'), ('XAUTHORITY', '/run/user/1000/gdm/Xauthority'), ('LS_COLORS', 'rs=0:di=01;34:ln=01;36:mh=00:pi=40;33:so=01;35:do=01;35:bd=40;33;01:cd=40;33;01:or=40;31;01:mi=00:su=37;41:sg=30;43:ca=30;41:tw=30;42:ow=34;42:st=37;44:ex=01;32:*.tar=01;31:*.tgz=01;31:*.arc=01;31:*.arj=01;31:*.taz=01;31:*.lha=01;31:*.lz4=01;31:*.lzh=01;31:*.lzma=01;31:*.tlz=01;31:*.txz=01;31:*.tzo=01;31:*.t7z=01;31:*.zip=01;31:*.z=01;31:*.dz=01;31:*.gz=01;31:*.lrz=01;31:*.lz=01;31:*.lzo=01;31:*.xz=01;31:*.zst=01;31:*.tzst=01;31:*.bz2=01;31:*.bz=01;31:*.tbz=01;31:*.tbz2=01;31:*.tz=01;31:*.deb=01;31:*.rpm=01;31:*.jar=01;31:*.war=01;31:*.ear=01;31:*.sar=01;31:*.rar=01;31:*.alz=01;31:*.ace=01;31:*.zoo=01;31:*.cpio=01;31:*.7z=01;31:*.rz=01;31:*.cab=01;31:*.wim=01;31:*.swm=01;31:*.dwm=01;31:*.esd=01;31:*.jpg=01;35:*.jpeg=01;35:*.mjpg=01;35:*.mjpeg=01;35:*.gif=01;35:*.bmp=01;35:*.pbm=01;35:*.pgm=01;35:*.ppm=01;35:*.tga=01;35:*.xbm=01;35:*.xpm=01;35:*.tif=01;35:*.tiff=01;35:*.png=01;35:*.svg=01;35:*.svgz=01;35:*.mng=01;35:*.pcx=01;35:*.mov=01;35:*.mpg=01;35:*.mpeg=01;35:*.m2v=01;35:*.mkv=01;35:*.webm=01;35:*.ogm=01;35:*.mp4=01;35:*.m4v=01;35:*.mp4v=01;35:*.vob=01;35:*.qt=01;35:*.nuv=01;35:*.wmv=01;35:*.asf=01;35:*.rm=01;35:*.rmvb=01;35:*.flc=01;35:*.avi=01;35:*.fli=01;35:*.flv=01;35:*.gl=01;35:*.dl=01;35:*.xcf=01;35:*.xwd=01;35:*.yuv=01;35:*.cgm=01;35:*.emf=01;35:*.ogv=01;35:*.ogx=01;35:*.aac=00;36:*.au=00;36:*.flac=00;36:*.m4a=00;36:*.mid=00;36:*.midi=00;36:*.mka=00;36:*.mp3=00;36:*.mpc=00;36:*.ogg=00;36:*.ra=00;36:*.wav=00;36:*.oga=00;36:*.opus=00;36:*.spx=00;36:*.xspf=00;36:'), ('GNOME_TERMINAL_SERVICE', ':1.2037'), ('SSH_AUTH_SOCK', '/run/user/1000/keyring/ssh'), ('AMENT_PREFIX_PATH', '/home/josef/AMR_ws/install/AMR_project:/home/josef/AMR_ws/install/custom_topic:/home/josef/AMR_ws/install/cpp_pubsub:/opt/ros/foxy'), ('SHELL', '/bin/bash'), ('LC_NAME', 'de_AT.UTF-8'), ('QT_ACCESSIBILITY', '1'), ('GDMSESSION', 'ubuntu'), ('LESSCLOSE', '/usr/bin/lesspipe %s %s'), ('LC_MEASUREMENT', 'de_AT.UTF-8'), ('GPG_AGENT_INFO', '/run/user/1000/gnupg/S.gpg-agent:0:1'), ('GJS_DEBUG_OUTPUT', 'stderr'), ('LC_IDENTIFICATION', 'de_AT.UTF-8'), ('QT_IM_MODULE', 'ibus'), ('PWD', '/home/josef/AMR_ws/build/AMR_project'), ('LC_ALL', 'en_US.UTF-8'), ('XDG_CONFIG_DIRS', '/etc/xdg/xdg-ubuntu:/etc/xdg'), ('XDG_DATA_DIRS', '/usr/share/ubuntu:/usr/local/share/:/usr/share/:/var/lib/snapd/desktop'), ('PYTHONPATH', '/home/josef/AMR_ws/install/custom_topic/lib/python3.8/site-packages:/opt/ros/foxy/lib/python3.8/site-packages'), ('LC_NUMERIC', 'de_AT.UTF-8'), ('LC_PAPER', 'de_AT.UTF-8'), ('COLCON', '1'), ('VTE_VERSION', '6003'), ('CMAKE_PREFIX_PATH', '/home/josef/AMR_ws/install/custom_topic:/home/josef/AMR_ws/install/AMR_project:/home/josef/AMR_ws/install/cpp_pubsub:/opt/ros/foxy')]), 'shell': False}
[7.205287] (AMR_project) StdoutLine: {'line': b'-- Install configuration: ""\n'}
[7.205702] (AMR_project) StdoutLine: {'line': b'-- Installing: /home/josef/AMR_ws/install/AMR_project/lib/AMR_project/order_optimizer\n'}
[7.209044] (-) TimerEvent: {}
[7.211587] (AMR_project) StdoutLine: {'line': b'-- Set runtime path of "/home/josef/AMR_ws/install/AMR_project/lib/AMR_project/order_optimizer" to ""\n'}
[7.211691] (AMR_project) StdoutLine: {'line': b'-- Up-to-date: /home/josef/AMR_ws/install/AMR_project/lib/AMR_project/talker\n'}
[7.211750] (AMR_project) StdoutLine: {'line': b'-- Up-to-date: /home/josef/AMR_ws/install/AMR_project/lib/AMR_project/listener\n'}
[7.211803] (AMR_project) StdoutLine: {'line': b'-- Up-to-date: /home/josef/AMR_ws/install/AMR_project/share/ament_index/resource_index/package_run_dependencies/AMR_project\n'}
[7.211854] (AMR_project) StdoutLine: {'line': b'-- Up-to-date: /home/josef/AMR_ws/install/AMR_project/share/ament_index/resource_index/parent_prefix_path/AMR_project\n'}
[7.211903] (AMR_project) StdoutLine: {'line': b'-- Up-to-date: /home/josef/AMR_ws/install/AMR_project/share/AMR_project/environment/ament_prefix_path.sh\n'}
[7.211960] (AMR_project) StdoutLine: {'line': b'-- Up-to-date: /home/josef/AMR_ws/install/AMR_project/share/AMR_project/environment/ament_prefix_path.dsv\n'}
[7.212289] (AMR_project) StdoutLine: {'line': b'-- Up-to-date: /home/josef/AMR_ws/install/AMR_project/share/AMR_project/environment/path.sh\n'}
[7.212358] (AMR_project) StdoutLine: {'line': b'-- Up-to-date: /home/josef/AMR_ws/install/AMR_project/share/AMR_project/environment/path.dsv\n'}
[7.212412] (AMR_project) StdoutLine: {'line': b'-- Up-to-date: /home/josef/AMR_ws/install/AMR_project/share/AMR_project/local_setup.bash\n'}
[7.212462] (AMR_project) StdoutLine: {'line': b'-- Up-to-date: /home/josef/AMR_ws/install/AMR_project/share/AMR_project/local_setup.sh\n'}
[7.212508] (AMR_project) StdoutLine: {'line': b'-- Up-to-date: /home/josef/AMR_ws/install/AMR_project/share/AMR_project/local_setup.zsh\n'}
[7.212552] (AMR_project) StdoutLine: {'line': b'-- Up-to-date: /home/josef/AMR_ws/install/AMR_project/share/AMR_project/local_setup.dsv\n'}
[7.212596] (AMR_project) StdoutLine: {'line': b'-- Installing: /home/josef/AMR_ws/install/AMR_project/share/AMR_project/package.dsv\n'}
[7.212641] (AMR_project) StdoutLine: {'line': b'-- Up-to-date: /home/josef/AMR_ws/install/AMR_project/share/ament_index/resource_index/packages/AMR_project\n'}
[7.212685] (AMR_project) StdoutLine: {'line': b'-- Up-to-date: /home/josef/AMR_ws/install/AMR_project/share/AMR_project/cmake/AMR_projectConfig.cmake\n'}
[7.212728] (AMR_project) StdoutLine: {'line': b'-- Up-to-date: /home/josef/AMR_ws/install/AMR_project/share/AMR_project/cmake/AMR_projectConfig-version.cmake\n'}
[7.212772] (AMR_project) StdoutLine: {'line': b'-- Up-to-date: /home/josef/AMR_ws/install/AMR_project/share/AMR_project/package.xml\n'}
[7.215411] (AMR_project) CommandEnded: {'returncode': 0}
[7.273995] (AMR_project) JobEnded: {'identifier': 'AMR_project', 'rc': 0}
[7.274597] (-) EventReactorShutdown: {}
