[01m[K/home/josef/AMR_ws/src/AMR_project/src/OrderOptimizer_function.cpp:[m[K In function ‘[01m[Kint parsing_order(int, double&, double&, std::vector<std::__cxx11::basic_string<char> >&, std::string)[m[K’:
[01m[K/home/josef/AMR_ws/src/AMR_project/src/OrderOptimizer_function.cpp:44:33:[m[K [01;35m[Kwarning: [m[Kcomparison of integer expressions of different signedness: ‘[01m[Kstd::__cxx11::basic_string<char>::size_type[m[K’ {aka ‘[01m[Klong unsigned int[m[K’} and ‘[01m[Kint[m[K’ [[01;35m[K-Wsign-compare[m[K]
   44 |         if ([01;35m[Kline.find("order:") != -1[m[K && std::stoi(line.substr(8)) == order_id) {
      |             [01;35m[K~~~~~~~~~~~~~~~~~~~~^~~~~[m[K
[01m[K/home/josef/AMR_ws/src/AMR_project/src/OrderOptimizer_function.cpp:58:44:[m[K [01;35m[Kwarning: [m[Kcomparison of integer expressions of different signedness: ‘[01m[Kstd::__cxx11::basic_string<char>::size_type[m[K’ {aka ‘[01m[Klong unsigned int[m[K’} and ‘[01m[Kint[m[K’ [[01;35m[K-Wsign-compare[m[K]
   58 |                     if ([01;35m[Kline.find("order") != -1[m[K)
      |                         [01;35m[K~~~~~~~~~~~~~~~~~~~^~~~~[m[K
[01m[K/home/josef/AMR_ws/src/AMR_project/src/OrderOptimizer_function.cpp:[m[K In function ‘[01m[Kint parsing_product(std::vector<std::__cxx11::basic_string<char> >&, std::vector<part>&)[m[K’:
[01m[K/home/josef/AMR_ws/src/AMR_project/src/OrderOptimizer_function.cpp:106:23:[m[K [01;35m[Kwarning: [m[Kcomparison of integer expressions of different signedness: ‘[01m[Kint[m[K’ and ‘[01m[Kstd::vector<std::__cxx11::basic_string<char> >::size_type[m[K’ {aka ‘[01m[Klong unsigned int[m[K’} [[01;35m[K-Wsign-compare[m[K]
  106 |     for (int i = 0; [01;35m[Ki < products.size()[m[K; i++) {
      |                     [01;35m[K~~^~~~~~~~~~~~~~~~~[m[K
[01m[K/home/josef/AMR_ws/src/AMR_project/src/OrderOptimizer_function.cpp:120:42:[m[K [01;35m[Kwarning: [m[Kcomparison of integer expressions of different signedness: ‘[01m[Kstd::__cxx11::basic_string<char>::size_type[m[K’ {aka ‘[01m[Klong unsigned int[m[K’} and ‘[01m[Kint[m[K’ [[01;35m[K-Wsign-compare[m[K]
  120 |                 if ([01;35m[Kline.find("Product") != -1[m[K)
      |                     [01;35m[K~~~~~~~~~~~~~~~~~~~~~^~~~~[m[K
[01m[K/home/josef/AMR_ws/src/AMR_project/src/OrderOptimizer_function.cpp:134:41:[m[K [01;35m[Kwarning: [m[Kcomparison of integer expressions of different signedness: ‘[01m[Kstd::__cxx11::basic_string<char>::size_type[m[K’ {aka ‘[01m[Klong unsigned int[m[K’} and ‘[01m[Kint[m[K’ [[01;35m[K-Wsign-compare[m[K]
  134 |                     if ([01;35m[Kline.find("id") != -1[m[K)
      |                         [01;35m[K~~~~~~~~~~~~~~~~^~~~~[m[K
[01m[K/home/josef/AMR_ws/src/AMR_project/src/OrderOptimizer_function.cpp:[m[K In function ‘[01m[Kint calc_path(int, double&, double&, double&, double&, std::vector<std::__cxx11::basic_string<char> >&, std::vector<part>&, std::string)[m[K’:
[01m[K/home/josef/AMR_ws/src/AMR_project/src/OrderOptimizer_function.cpp:194:26:[m[K [01;35m[Kwarning: [m[Kcomparison of integer expressions of different signedness: ‘[01m[Kint[m[K’ and ‘[01m[Kstd::vector<part>::size_type[m[K’ {aka ‘[01m[Klong unsigned int[m[K’} [[01;35m[K-Wsign-compare[m[K]
  194 |        for (int i = 0; [01;35m[Ki < parts.size()[m[K; i++)
      |                        [01;35m[K~~^~~~~~~~~~~~~~[m[K
[01m[K/home/josef/AMR_ws/src/AMR_project/src/OrderOptimizer_function.cpp:201:26:[m[K [01;35m[Kwarning: [m[Kcomparison of integer expressions of different signedness: ‘[01m[Kint[m[K’ and ‘[01m[Kstd::vector<int>::size_type[m[K’ {aka ‘[01m[Klong unsigned int[m[K’} [[01;35m[K-Wsign-compare[m[K]
  201 |        for (int i = 1; [01;35m[Ki < distance.size()[m[K; i++) {
      |                        [01;35m[K~~^~~~~~~~~~~~~~~~~[m[K
