[0.021s] Invoking command in '/home/josef/AMR_ws/build/AMR_project': CMAKE_PREFIX_PATH=/home/josef/AMR_ws/install/custom_topic:/home/josef/AMR_ws/install/AMR_project:/home/josef/AMR_ws/install/cpp_pubsub:/opt/ros/foxy /usr/bin/cmake --build /home/josef/AMR_ws/build/AMR_project -- -j6 -l6
[0.073s] [35m[1mScanning dependencies of target talker[0m
[0.094s] [ 33%] Built target listener
[0.095s] [ 66%] Built target order_optimizer
[0.104s] [ 83%] [32mBuilding CXX object CMakeFiles/talker.dir/src/publisher_member_function.cpp.o[0m
[3.433s] [100%] [32m[1mLinking CXX executable talker[0m
[3.573s] [100%] Built target talker
[3.584s] Invoked command in '/home/josef/AMR_ws/build/AMR_project' returned '0': CMAKE_PREFIX_PATH=/home/josef/AMR_ws/install/custom_topic:/home/josef/AMR_ws/install/AMR_project:/home/josef/AMR_ws/install/cpp_pubsub:/opt/ros/foxy /usr/bin/cmake --build /home/josef/AMR_ws/build/AMR_project -- -j6 -l6
[3.633s] Invoking command in '/home/josef/AMR_ws/build/AMR_project': CMAKE_PREFIX_PATH=/home/josef/AMR_ws/install/custom_topic:/home/josef/AMR_ws/install/AMR_project:/home/josef/AMR_ws/install/cpp_pubsub:/opt/ros/foxy /usr/bin/cmake --install /home/josef/AMR_ws/build/AMR_project
[3.640s] -- Install configuration: ""
[3.641s] -- Up-to-date: /home/josef/AMR_ws/install/AMR_project/lib/AMR_project/order_optimizer
[3.641s] -- Installing: /home/josef/AMR_ws/install/AMR_project/lib/AMR_project/talker
[3.642s] -- Set runtime path of "/home/josef/AMR_ws/install/AMR_project/lib/AMR_project/talker" to ""
[3.642s] -- Up-to-date: /home/josef/AMR_ws/install/AMR_project/lib/AMR_project/listener
[3.642s] -- Up-to-date: /home/josef/AMR_ws/install/AMR_project/share/ament_index/resource_index/package_run_dependencies/AMR_project
[3.642s] -- Up-to-date: /home/josef/AMR_ws/install/AMR_project/share/ament_index/resource_index/parent_prefix_path/AMR_project
[3.643s] -- Up-to-date: /home/josef/AMR_ws/install/AMR_project/share/AMR_project/environment/ament_prefix_path.sh
[3.643s] -- Up-to-date: /home/josef/AMR_ws/install/AMR_project/share/AMR_project/environment/ament_prefix_path.dsv
[3.643s] -- Up-to-date: /home/josef/AMR_ws/install/AMR_project/share/AMR_project/environment/path.sh
[3.644s] -- Up-to-date: /home/josef/AMR_ws/install/AMR_project/share/AMR_project/environment/path.dsv
[3.644s] -- Up-to-date: /home/josef/AMR_ws/install/AMR_project/share/AMR_project/local_setup.bash
[3.645s] -- Up-to-date: /home/josef/AMR_ws/install/AMR_project/share/AMR_project/local_setup.sh
[3.645s] -- Up-to-date: /home/josef/AMR_ws/install/AMR_project/share/AMR_project/local_setup.zsh
[3.645s] -- Up-to-date: /home/josef/AMR_ws/install/AMR_project/share/AMR_project/local_setup.dsv
[3.646s] -- Installing: /home/josef/AMR_ws/install/AMR_project/share/AMR_project/package.dsv
[3.646s] -- Up-to-date: /home/josef/AMR_ws/install/AMR_project/share/ament_index/resource_index/packages/AMR_project
[3.646s] -- Up-to-date: /home/josef/AMR_ws/install/AMR_project/share/AMR_project/cmake/AMR_projectConfig.cmake
[3.646s] -- Up-to-date: /home/josef/AMR_ws/install/AMR_project/share/AMR_project/cmake/AMR_projectConfig-version.cmake
[3.646s] -- Up-to-date: /home/josef/AMR_ws/install/AMR_project/share/AMR_project/package.xml
[3.649s] Invoked command in '/home/josef/AMR_ws/build/AMR_project' returned '0': CMAKE_PREFIX_PATH=/home/josef/AMR_ws/install/custom_topic:/home/josef/AMR_ws/install/AMR_project:/home/josef/AMR_ws/install/cpp_pubsub:/opt/ros/foxy /usr/bin/cmake --install /home/josef/AMR_ws/build/AMR_project
