[35m[1mScanning dependencies of target order_optimizer[0m
[ 33%] Built target listener
[ 66%] Built target talker
[ 83%] [32mBuilding CXX object CMakeFiles/order_optimizer.dir/src/OrderOptimizer_function.cpp.o[0m
[01m[K/home/josef/AMR_ws/src/AMR_project/src/OrderOptimizer_function.cpp:[m[K In function ‘[01m[Kint parsing_order(int, double&, double&, std::vector<std::__cxx11::basic_string<char> >&, std::string, std::string)[m[K’:
[01m[K/home/josef/AMR_ws/src/AMR_project/src/OrderOptimizer_function.cpp:50:33:[m[K [01;35m[Kwarning: [m[Kcomparison of integer expressions of different signedness: ‘[01m[Kstd::__cxx11::basic_string<char>::size_type[m[K’ {aka ‘[01m[Klong unsigned int[m[K’} and ‘[01m[Kint[m[K’ [[01;35m[K-Wsign-compare[m[K]
   50 |         if ([01;35m[Kline.find("order:") != -1[m[K && std::stoi(line.substr(8)) == order_id) {
      |             [01;35m[K~~~~~~~~~~~~~~~~~~~~^~~~~[m[K
[01m[K/home/josef/AMR_ws/src/AMR_project/src/OrderOptimizer_function.cpp:64:44:[m[K [01;35m[Kwarning: [m[Kcomparison of integer expressions of different signedness: ‘[01m[Kstd::__cxx11::basic_string<char>::size_type[m[K’ {aka ‘[01m[Klong unsigned int[m[K’} and ‘[01m[Kint[m[K’ [[01;35m[K-Wsign-compare[m[K]
   64 |                     if ([01;35m[Kline.find("order") != -1[m[K)
      |                         [01;35m[K~~~~~~~~~~~~~~~~~~~^~~~~[m[K
[01m[K/home/josef/AMR_ws/src/AMR_project/src/OrderOptimizer_function.cpp:[m[K In function ‘[01m[Kint parsing_product(std::vector<std::__cxx11::basic_string<char> >&, std::vector<part>&, std::string)[m[K’:
[01m[K/home/josef/AMR_ws/src/AMR_project/src/OrderOptimizer_function.cpp:113:23:[m[K [01;35m[Kwarning: [m[Kcomparison of integer expressions of different signedness: ‘[01m[Kint[m[K’ and ‘[01m[Kstd::vector<std::__cxx11::basic_string<char> >::size_type[m[K’ {aka ‘[01m[Klong unsigned int[m[K’} [[01;35m[K-Wsign-compare[m[K]
  113 |     for (int i = 0; [01;35m[Ki < products.size()[m[K; i++) {
      |                     [01;35m[K~~^~~~~~~~~~~~~~~~~[m[K
[01m[K/home/josef/AMR_ws/src/AMR_project/src/OrderOptimizer_function.cpp:129:42:[m[K [01;35m[Kwarning: [m[Kcomparison of integer expressions of different signedness: ‘[01m[Kstd::__cxx11::basic_string<char>::size_type[m[K’ {aka ‘[01m[Klong unsigned int[m[K’} and ‘[01m[Kint[m[K’ [[01;35m[K-Wsign-compare[m[K]
  129 |                 if ([01;35m[Kline.find("Product") != -1[m[K)
      |                     [01;35m[K~~~~~~~~~~~~~~~~~~~~~^~~~~[m[K
[01m[K/home/josef/AMR_ws/src/AMR_project/src/OrderOptimizer_function.cpp:143:41:[m[K [01;35m[Kwarning: [m[Kcomparison of integer expressions of different signedness: ‘[01m[Kstd::__cxx11::basic_string<char>::size_type[m[K’ {aka ‘[01m[Klong unsigned int[m[K’} and ‘[01m[Kint[m[K’ [[01;35m[K-Wsign-compare[m[K]
  143 |                     if ([01;35m[Kline.find("id") != -1[m[K)
      |                         [01;35m[K~~~~~~~~~~~~~~~~^~~~~[m[K
[01m[K/home/josef/AMR_ws/src/AMR_project/src/OrderOptimizer_function.cpp:[m[K In function ‘[01m[Kint calc_path(int, double&, double&, double&, double&, std::vector<std::__cxx11::basic_string<char> >&, std::vector<part>&, std::string, std::string)[m[K’:
[01m[K/home/josef/AMR_ws/src/AMR_project/src/OrderOptimizer_function.cpp:203:26:[m[K [01;35m[Kwarning: [m[Kcomparison of integer expressions of different signedness: ‘[01m[Kint[m[K’ and ‘[01m[Kstd::vector<part>::size_type[m[K’ {aka ‘[01m[Klong unsigned int[m[K’} [[01;35m[K-Wsign-compare[m[K]
  203 |        for (int i = 0; [01;35m[Ki < parts.size()[m[K; i++)
      |                        [01;35m[K~~^~~~~~~~~~~~~~[m[K
[01m[K/home/josef/AMR_ws/src/AMR_project/src/OrderOptimizer_function.cpp:210:26:[m[K [01;35m[Kwarning: [m[Kcomparison of integer expressions of different signedness: ‘[01m[Kint[m[K’ and ‘[01m[Kstd::vector<int>::size_type[m[K’ {aka ‘[01m[Klong unsigned int[m[K’} [[01;35m[K-Wsign-compare[m[K]
  210 |        for (int i = 1; [01;35m[Ki < distance.size()[m[K; i++) {
      |                        [01;35m[K~~^~~~~~~~~~~~~~~~~[m[K
[100%] [32m[1mLinking CXX executable order_optimizer[0m
[100%] Built target order_optimizer
-- Install configuration: ""
-- Installing: /home/josef/AMR_ws/install/AMR_project/lib/AMR_project/order_optimizer
-- Set runtime path of "/home/josef/AMR_ws/install/AMR_project/lib/AMR_project/order_optimizer" to ""
-- Up-to-date: /home/josef/AMR_ws/install/AMR_project/lib/AMR_project/talker
-- Up-to-date: /home/josef/AMR_ws/install/AMR_project/lib/AMR_project/listener
-- Up-to-date: /home/josef/AMR_ws/install/AMR_project/share/ament_index/resource_index/package_run_dependencies/AMR_project
-- Up-to-date: /home/josef/AMR_ws/install/AMR_project/share/ament_index/resource_index/parent_prefix_path/AMR_project
-- Up-to-date: /home/josef/AMR_ws/install/AMR_project/share/AMR_project/environment/ament_prefix_path.sh
-- Up-to-date: /home/josef/AMR_ws/install/AMR_project/share/AMR_project/environment/ament_prefix_path.dsv
-- Up-to-date: /home/josef/AMR_ws/install/AMR_project/share/AMR_project/environment/path.sh
-- Up-to-date: /home/josef/AMR_ws/install/AMR_project/share/AMR_project/environment/path.dsv
-- Up-to-date: /home/josef/AMR_ws/install/AMR_project/share/AMR_project/local_setup.bash
-- Up-to-date: /home/josef/AMR_ws/install/AMR_project/share/AMR_project/local_setup.sh
-- Up-to-date: /home/josef/AMR_ws/install/AMR_project/share/AMR_project/local_setup.zsh
-- Up-to-date: /home/josef/AMR_ws/install/AMR_project/share/AMR_project/local_setup.dsv
-- Installing: /home/josef/AMR_ws/install/AMR_project/share/AMR_project/package.dsv
-- Up-to-date: /home/josef/AMR_ws/install/AMR_project/share/ament_index/resource_index/packages/AMR_project
-- Up-to-date: /home/josef/AMR_ws/install/AMR_project/share/AMR_project/cmake/AMR_projectConfig.cmake
-- Up-to-date: /home/josef/AMR_ws/install/AMR_project/share/AMR_project/cmake/AMR_projectConfig-version.cmake
-- Up-to-date: /home/josef/AMR_ws/install/AMR_project/share/AMR_project/package.xml
