[35m[1mScanning dependencies of target talker[0m
[ 66%] Built target order_optimizer
[ 66%] Built target listener
[ 83%] [32mBuilding CXX object CMakeFiles/talker.dir/src/publisher_member_function.cpp.o[0m
