[35m[1mScanning dependencies of target order_optimizer[0m
[ 66%] Built target listener
[ 66%] Built target talker
[ 83%] [32mBuilding CXX object CMakeFiles/order_optimizer.dir/src/OrderOptimizer_function.cpp.o[0m
[01m[K/home/josef/AMR_ws/src/AMR_project/src/OrderOptimizer_function.cpp:[m[K In function ‘[01m[Kint parsing_order(int, double&, double&, std::vector<std::__cxx11::basic_string<char> >&, std::string, std::string)[m[K’:
[01m[K/home/josef/AMR_ws/src/AMR_project/src/OrderOptimizer_function.cpp:51:33:[m[K [01;35m[Kwarning: [m[Kcomparison of integer expressions of different signedness: ‘[01m[Kstd::__cxx11::basic_string<char>::size_type[m[K’ {aka ‘[01m[Klong unsigned int[m[K’} and ‘[01m[Kint[m[K’ [[01;35m[K-Wsign-compare[m[K]
   51 |         if ([01;35m[Kline.find("order:") != -1[m[K && std::stoi(line.substr(8)) == order_id) {
      |             [01;35m[K~~~~~~~~~~~~~~~~~~~~^~~~~[m[K
[01m[K/home/josef/AMR_ws/src/AMR_project/src/OrderOptimizer_function.cpp:65:44:[m[K [01;35m[Kwarning: [m[Kcomparison of integer expressions of different signedness: ‘[01m[Kstd::__cxx11::basic_string<char>::size_type[m[K’ {aka ‘[01m[Klong unsigned int[m[K’} and ‘[01m[Kint[m[K’ [[01;35m[K-Wsign-compare[m[K]
   65 |                     if ([01;35m[Kline.find("order") != -1[m[K)
      |                         [01;35m[K~~~~~~~~~~~~~~~~~~~^~~~~[m[K
[01m[K/home/josef/AMR_ws/src/AMR_project/src/OrderOptimizer_function.cpp:[m[K In function ‘[01m[Kint parsing_product(std::vector<std::__cxx11::basic_string<char> >&, std::vector<part>&, std::string)[m[K’:
[01m[K/home/josef/AMR_ws/src/AMR_project/src/OrderOptimizer_function.cpp:114:23:[m[K [01;35m[Kwarning: [m[Kcomparison of integer expressions of different signedness: ‘[01m[Kint[m[K’ and ‘[01m[Kstd::vector<std::__cxx11::basic_string<char> >::size_type[m[K’ {aka ‘[01m[Klong unsigned int[m[K’} [[01;35m[K-Wsign-compare[m[K]
  114 |     for (int i = 0; [01;35m[Ki < products.size()[m[K; i++) {
      |                     [01;35m[K~~^~~~~~~~~~~~~~~~~[m[K
[01m[K/home/josef/AMR_ws/src/AMR_project/src/OrderOptimizer_function.cpp:130:42:[m[K [01;35m[Kwarning: [m[Kcomparison of integer expressions of different signedness: ‘[01m[Kstd::__cxx11::basic_string<char>::size_type[m[K’ {aka ‘[01m[Klong unsigned int[m[K’} and ‘[01m[Kint[m[K’ [[01;35m[K-Wsign-compare[m[K]
  130 |                 if ([01;35m[Kline.find("Product") != -1[m[K)
      |                     [01;35m[K~~~~~~~~~~~~~~~~~~~~~^~~~~[m[K
[01m[K/home/josef/AMR_ws/src/AMR_project/src/OrderOptimizer_function.cpp:144:41:[m[K [01;35m[Kwarning: [m[Kcomparison of integer expressions of different signedness: ‘[01m[Kstd::__cxx11::basic_string<char>::size_type[m[K’ {aka ‘[01m[Klong unsigned int[m[K’} and ‘[01m[Kint[m[K’ [[01;35m[K-Wsign-compare[m[K]
  144 |                     if ([01;35m[Kline.find("id") != -1[m[K)
      |                         [01;35m[K~~~~~~~~~~~~~~~~^~~~~[m[K
[01m[K/home/josef/AMR_ws/src/AMR_project/src/OrderOptimizer_function.cpp:[m[K In function ‘[01m[Kint calc_path(int, double&, double&, double&, double&, std::vector<std::__cxx11::basic_string<char> >&, std::vector<part>&, std::vector<part>&, std::string, std::string)[m[K’:
[01m[K/home/josef/AMR_ws/src/AMR_project/src/OrderOptimizer_function.cpp:206:26:[m[K [01;35m[Kwarning: [m[Kcomparison of integer expressions of different signedness: ‘[01m[Kint[m[K’ and ‘[01m[Kstd::vector<part>::size_type[m[K’ {aka ‘[01m[Klong unsigned int[m[K’} [[01;35m[K-Wsign-compare[m[K]
  206 |        for (int i = 0; [01;35m[Ki < parts.size()[m[K; i++)
      |                        [01;35m[K~~^~~~~~~~~~~~~~[m[K
[01m[K/home/josef/AMR_ws/src/AMR_project/src/OrderOptimizer_function.cpp:213:26:[m[K [01;35m[Kwarning: [m[Kcomparison of integer expressions of different signedness: ‘[01m[Kint[m[K’ and ‘[01m[Kstd::vector<int>::size_type[m[K’ {aka ‘[01m[Klong unsigned int[m[K’} [[01;35m[K-Wsign-compare[m[K]
  213 |        for (int i = 1; [01;35m[Ki < distance.size()[m[K; i++) {
      |                        [01;35m[K~~^~~~~~~~~~~~~~~~~[m[K
[01m[K/home/josef/AMR_ws/src/AMR_project/src/OrderOptimizer_function.cpp:[m[K In constructor ‘[01m[KOrder_Opt::Order_Opt()[m[K’:
[01m[K/home/josef/AMR_ws/src/AMR_project/src/OrderOptimizer_function.cpp:258:148:[m[K [01;31m[Kerror: [m[Kexpected ‘[01m[K;[m[K’ before ‘[01m[Ksubscription1_[m[K’
  258 |         std::cout <<"std::filesystem::current_path()" << std::filesystem::current_path() << "---------------------------------------------------\n"
      |                                                                                                                                                    [01;31m[K^[m[K
      |                                                                                                                                                    [32m[K;[m[K
......
  263 |       [32m[Ksubscription1_[m[K = this->create_subscription<geometry_msgs::msg::PoseStamped>(
      |       [32m[K~~~~~~~~~~~~~~[m[K                                                                                                                                
[01m[K/home/josef/AMR_ws/src/AMR_project/src/OrderOptimizer_function.cpp:[m[K In member function ‘[01m[Kvoid Order_Opt::timer_marker_callback()[m[K’:
[01m[K/home/josef/AMR_ws/src/AMR_project/src/OrderOptimizer_function.cpp:386:23:[m[K [01;35m[Kwarning: [m[Kcomparison of integer expressions of different signedness: ‘[01m[Kint[m[K’ and ‘[01m[Kstd::vector<part>::size_type[m[K’ {aka ‘[01m[Klong unsigned int[m[K’} [[01;35m[K-Wsign-compare[m[K]
  386 |     for (int i = 0; [01;35m[Ki < parts_marker.size()[m[K; i++){
      |                     [01;35m[K~~^~~~~~~~~~~~~~~~~~~~~[m[K
make[2]: *** [CMakeFiles/order_optimizer.dir/build.make:63: CMakeFiles/order_optimizer.dir/src/OrderOptimizer_function.cpp.o] Error 1
make[1]: *** [CMakeFiles/Makefile2:109: CMakeFiles/order_optimizer.dir/all] Error 2
make: *** [Makefile:141: all] Error 2
