[0.018s] Invoking command in '/home/josef/AMR_ws/build/AMR_project': CMAKE_PREFIX_PATH=${CMAKE_PREFIX_PATH}:/opt/ros/foxy /usr/bin/cmake --build /home/josef/AMR_ws/build/AMR_project -- -j6 -l6
[0.045s] -- Found ament_cmake: 0.9.12 (/opt/ros/foxy/share/ament_cmake/cmake)
[0.062s] -- Using PYTHON_EXECUTABLE: /usr/bin/python3
[0.203s] -- Found rclcpp: 2.4.3 (/opt/ros/foxy/share/rclcpp/cmake)
[0.230s] -- Using all available rosidl_typesupport_c: rosidl_typesupport_fastrtps_c;rosidl_typesupport_introspection_c
[0.232s] -- Found rosidl_adapter: 1.3.1 (/opt/ros/foxy/share/rosidl_adapter/cmake)
[0.326s] -- Using all available rosidl_typesupport_cpp: rosidl_typesupport_fastrtps_cpp;rosidl_typesupport_introspection_cpp
[0.366s] -- Found rmw_implementation_cmake: 1.0.4 (/opt/ros/foxy/share/rmw_implementation_cmake/cmake)
[0.368s] -- Using RMW implementation 'rmw_fastrtps_cpp' as default
[0.487s] -- Found geometry_msgs: 2.0.5 (/opt/ros/foxy/share/geometry_msgs/cmake)
[0.555s] WARNING: Package name "AMR_project" does not follow the naming conventions. It should start with a lower case letter and only contain lower case letters, digits, underscores, and dashes.
[0.565s] -- Configuring done
[0.577s] -- Generating done
[0.580s] -- Build files have been written to: /home/josef/AMR_ws/build/AMR_project
[0.605s] [35m[1mScanning dependencies of target order_optimizer[0m
[0.626s] [ 33%] Built target listener
[0.626s] [ 66%] Built target talker
[0.633s] [ 83%] [32mBuilding CXX object CMakeFiles/order_optimizer.dir/src/OrderOptimizer_function.cpp.o[0m
[1.645s] [01m[K/home/josef/AMR_ws/src/AMR_project/src/OrderOptimizer_function.cpp:42:49:[m[K [01;31m[Kerror: [m[K‘[01m[KPostStamped[m[K’ in namespace ‘[01m[Kgeometry_msgs::msg[m[K’ does not name a type; did you mean ‘[01m[KPoseStamped[m[K’?
[1.645s]    42 |   void topic_callback(const geometry_msgs::msg::[01;31m[KPostStamped[m[K::SharedPtr msg) const
[1.645s]       |                                                 [01;31m[K^~~~~~~~~~~[m[K
[1.645s]       |                                                 [32m[KPoseStamped[m[K
[1.646s] [01m[K/home/josef/AMR_ws/src/AMR_project/src/OrderOptimizer_function.cpp:42:72:[m[K [01;31m[Kerror: [m[Kexpected unqualified-id before ‘[01m[Kmsg[m[K’
[1.646s]    42 |   void topic_callback(const geometry_msgs::msg::PostStamped::SharedPtr [01;31m[Kmsg[m[K) const
[1.646s]       |                                                                        [01;31m[K^~~[m[K
[1.646s] [01m[K/home/josef/AMR_ws/src/AMR_project/src/OrderOptimizer_function.cpp:42:71:[m[K [01;31m[Kerror: [m[Kexpected ‘[01m[K)[m[K’ before ‘[01m[Kmsg[m[K’
[1.646s]    42 |   void topic_callback[34m[K([m[Kconst geometry_msgs::msg::PostStamped::SharedPtr[01;31m[K [m[K[32m[Kmsg[m[K) const
[1.646s]       |                      [34m[K~[m[K                                                [01;31m[K^[m[K[32m[K~~~[m[K
[1.646s]       |                                                                       [32m[K)[m[K
[1.646s] [01m[K/home/josef/AMR_ws/src/AMR_project/src/OrderOptimizer_function.cpp:42:62:[m[K [01;31m[Kerror: [m[Kexpected ‘[01m[K;[m[K’ at end of member declaration
[1.646s]    42 |   void topic_callback(const geometry_msgs::msg::PostStamped::[01;31m[KSharedPtr[m[K msg) const
[1.646s]       |                                                              [01;31m[K^~~~~~~~~[m[K
[1.646s]       |                                                                       [32m[K;[m[K
[1.646s] [01m[K/home/josef/AMR_ws/src/AMR_project/src/OrderOptimizer_function.cpp:42:72:[m[K [01;31m[Kerror: [m[K‘[01m[Kmsg[m[K’ does not name a type
[1.646s]    42 |   void topic_callback(const geometry_msgs::msg::PostStamped::SharedPtr [01;31m[Kmsg[m[K) const
[1.646s]       |                                                                        [01;31m[K^~~[m[K
[1.646s] [01m[K/home/josef/AMR_ws/src/AMR_project/src/OrderOptimizer_function.cpp:59:44:[m[K [01;31m[Kerror: [m[K‘[01m[KPostStamped[m[K’ is not a member of ‘[01m[Kgeometry_msgs::msg[m[K’; did you mean ‘[01m[KPoseStamped[m[K’?
[1.647s]    59 |   rclcpp::Subscription<geometry_msgs::msg::[01;31m[KPostStamped[m[K::SharedPtr>::SharedPtr subscription_;
[1.647s]       |                                            [01;31m[K^~~~~~~~~~~[m[K
[1.647s]       |                                            [32m[KPoseStamped[m[K
[1.647s] [01m[K/home/josef/AMR_ws/src/AMR_project/src/OrderOptimizer_function.cpp:59:44:[m[K [01;31m[Kerror: [m[K‘[01m[KPostStamped[m[K’ is not a member of ‘[01m[Kgeometry_msgs::msg[m[K’; did you mean ‘[01m[KPoseStamped[m[K’?
[1.647s]    59 |   rclcpp::Subscription<geometry_msgs::msg::[01;31m[KPostStamped[m[K::SharedPtr>::SharedPtr subscription_;
[1.647s]       |                                            [01;31m[K^~~~~~~~~~~[m[K
[1.647s]       |                                            [32m[KPoseStamped[m[K
[1.647s] [01m[K/home/josef/AMR_ws/src/AMR_project/src/OrderOptimizer_function.cpp:59:66:[m[K [01;31m[Kerror: [m[Ktemplate argument 1 is invalid
[1.647s]    59 |   rclcpp::Subscription<geometry_msgs::msg::PostStamped::SharedPtr[01;31m[K>[m[K::SharedPtr subscription_;
[1.647s]       |                                                                  [01;31m[K^[m[K
[1.647s] [01m[K/home/josef/AMR_ws/src/AMR_project/src/OrderOptimizer_function.cpp:59:66:[m[K [01;31m[Kerror: [m[Ktemplate argument 3 is invalid
[1.647s] [01m[K/home/josef/AMR_ws/src/AMR_project/src/OrderOptimizer_function.cpp:59:69:[m[K [01;31m[Kerror: [m[Kexpected ‘[01m[K;[m[K’ at end of member declaration
[1.647s]    59 |   rclcpp::Subscription<geometry_msgs::msg::PostStamped::SharedPtr>::[01;31m[KSharedPtr[m[K subscription_;
[1.647s]       |                                                                     [01;31m[K^~~~~~~~~[m[K
[1.647s]       |                                                                              [32m[K;[m[K
[1.648s] [01m[K/home/josef/AMR_ws/src/AMR_project/src/OrderOptimizer_function.cpp:59:79:[m[K [01;31m[Kerror: [m[K‘[01m[Ksubscription_[m[K’ does not name a type; did you mean ‘[01m[Krcl_subscription_t[m[K’?
[1.648s]    59 |   rclcpp::Subscription<geometry_msgs::msg::PostStamped::SharedPtr>::SharedPtr [01;31m[Ksubscription_[m[K;
[1.648s]       |                                                                               [01;31m[K^~~~~~~~~~~~~[m[K
[1.648s]       |                                                                               [32m[Krcl_subscription_t[m[K
[1.656s] [01m[K/home/josef/AMR_ws/src/AMR_project/src/OrderOptimizer_function.cpp:[m[K In constructor ‘[01m[KOrder_Opt::Order_Opt()[m[K’:
[1.656s] [01m[K/home/josef/AMR_ws/src/AMR_project/src/OrderOptimizer_function.cpp:24:8:[m[K [01;31m[Kerror: [m[K‘[01m[Ksubscription_[m[K’ was not declared in this scope; did you mean ‘[01m[Krcl_subscription_t[m[K’?
[1.656s]    24 |        [01;31m[Ksubscription_[m[K = this->create_subscription<geometry_msgs::msg::PostStamped>(
[1.656s]       |        [01;31m[K^~~~~~~~~~~~~[m[K
[1.656s]       |        [32m[Krcl_subscription_t[m[K
[1.656s] [01m[K/home/josef/AMR_ws/src/AMR_project/src/OrderOptimizer_function.cpp:24:70:[m[K [01;31m[Kerror: [m[K‘[01m[KPostStamped[m[K’ is not a member of ‘[01m[Kgeometry_msgs::msg[m[K’; did you mean ‘[01m[KPoseStamped[m[K’?
[1.656s]    24 |        subscription_ = this->create_subscription<geometry_msgs::msg::[01;31m[KPostStamped[m[K>(
[1.656s]       |                                                                      [01;31m[K^~~~~~~~~~~[m[K
[1.656s]       |                                                                      [32m[KPoseStamped[m[K
[1.656s] [01m[K/home/josef/AMR_ws/src/AMR_project/src/OrderOptimizer_function.cpp:24:70:[m[K [01;31m[Kerror: [m[K‘[01m[KPostStamped[m[K’ is not a member of ‘[01m[Kgeometry_msgs::msg[m[K’; did you mean ‘[01m[KPoseStamped[m[K’?
[1.656s]    24 |        subscription_ = this->create_subscription<geometry_msgs::msg::[01;31m[KPostStamped[m[K>(
[1.656s]       |                                                                      [01;31m[K^~~~~~~~~~~[m[K
[1.656s]       |                                                                      [32m[KPoseStamped[m[K
[1.662s] [01m[K/home/josef/AMR_ws/src/AMR_project/src/OrderOptimizer_function.cpp:25:67:[m[K [01;31m[Kerror: [m[Kno matching function for call to ‘[01m[KOrder_Opt::create_subscription<<expression error> >(const char [6], int, std::_Bind_helper<false, void (Order_Opt::*)(...), Order_Opt*, const std::_Placeholder<1>&>::type)[m[K’
[1.662s]    25 |       "topic", 10, std::bind(&Order_Opt::topic_callback, this, _1)[01;31m[K)[m[K;
[1.662s]       |                                                                   [01;31m[K^[m[K
[1.662s] In file included from [01m[K/opt/ros/foxy/include/rclcpp/executors/single_threaded_executor.hpp:28[m[K,
[1.662s]                  from [01m[K/opt/ros/foxy/include/rclcpp/executors.hpp:22[m[K,
[1.662s]                  from [01m[K/opt/ros/foxy/include/rclcpp/rclcpp.hpp:146[m[K,
[1.662s]                  from [01m[K/home/josef/AMR_ws/src/AMR_project/src/OrderOptimizer_function.cpp:6[m[K:
[1.662s] [01m[K/opt/ros/foxy/include/rclcpp/node.hpp:213:3:[m[K [01;36m[Knote: [m[Kcandidate: ‘[01m[Ktemplate<class MessageT, class CallbackT, class AllocatorT, class CallbackMessageT, class SubscriptionT, class MessageMemoryStrategyT> std::shared_ptr<SubscriptionT> rclcpp::Node::create_subscription(const string&, const rclcpp::QoS&, CallbackT&&, const rclcpp::SubscriptionOptionsWithAllocator<AllocatorT>&, typename MessageMemoryStrategyT::SharedPtr)[m[K’
[1.662s]   213 |   [01;36m[Kcreate_subscription[m[K(
[1.662s]       |   [01;36m[K^~~~~~~~~~~~~~~~~~~[m[K
[1.662s] [01m[K/opt/ros/foxy/include/rclcpp/node.hpp:213:3:[m[K [01;36m[Knote: [m[K  template argument deduction/substitution failed:
[1.663s] [01m[K/home/josef/AMR_ws/src/AMR_project/src/OrderOptimizer_function.cpp:25:67:[m[K [01;31m[Kerror: [m[Ktemplate argument 1 is invalid
[1.663s]    25 |       "topic", 10, std::bind(&Order_Opt::topic_callback, this, _1)[01;31m[K)[m[K;
[1.663s]       |                                                                   [01;31m[K^[m[K
[2.468s] make[2]: *** [CMakeFiles/order_optimizer.dir/build.make:63: CMakeFiles/order_optimizer.dir/src/OrderOptimizer_function.cpp.o] Error 1
[2.471s] make[1]: *** [CMakeFiles/Makefile2:109: CMakeFiles/order_optimizer.dir/all] Error 2
[2.471s] make: *** [Makefile:141: all] Error 2
[2.475s] Invoked command in '/home/josef/AMR_ws/build/AMR_project' returned '2': CMAKE_PREFIX_PATH=${CMAKE_PREFIX_PATH}:/opt/ros/foxy /usr/bin/cmake --build /home/josef/AMR_ws/build/AMR_project -- -j6 -l6
