Invoking command in '/home/josef/AMR_ws/build/custom_topic': CMAKE_PREFIX_PATH=${CMAKE_PREFIX_PATH}:/opt/ros/foxy /usr/bin/cmake /home/josef/AMR_ws/src/custom_topic -DCMAKE_INSTALL_PREFIX=/home/josef/AMR_ws/install/custom_topic
Invoked command in '/home/josef/AMR_ws/build/custom_topic' returned '0': CMAKE_PREFIX_PATH=${CMAKE_PREFIX_PATH}:/opt/ros/foxy /usr/bin/cmake /home/josef/AMR_ws/src/custom_topic -DCMAKE_INSTALL_PREFIX=/home/josef/AMR_ws/install/custom_topic
Invoking command in '/home/josef/AMR_ws/build/custom_topic': CMAKE_PREFIX_PATH=${CMAKE_PREFIX_PATH}:/opt/ros/foxy /usr/bin/cmake --build /home/josef/AMR_ws/build/custom_topic -- -j6 -l6
Invoked command in '/home/josef/AMR_ws/build/custom_topic' returned '0': CMAKE_PREFIX_PATH=${CMAKE_PREFIX_PATH}:/opt/ros/foxy /usr/bin/cmake --build /home/josef/AMR_ws/build/custom_topic -- -j6 -l6
Invoking command in '/home/josef/AMR_ws/build/custom_topic': CMAKE_PREFIX_PATH=${CMAKE_PREFIX_PATH}:/opt/ros/foxy /usr/bin/cmake --install /home/josef/AMR_ws/build/custom_topic
Invoked command in '/home/josef/AMR_ws/build/custom_topic' returned '0': CMAKE_PREFIX_PATH=${CMAKE_PREFIX_PATH}:/opt/ros/foxy /usr/bin/cmake --install /home/josef/AMR_ws/build/custom_topic
