[0.000000] (-) TimerEvent: {}
[0.000686] (-) JobUnselected: {'identifier': 'custom_topic'}
[0.001148] (AMR_project) JobQueued: {'identifier': 'AMR_project', 'dependencies': OrderedDict([('custom_topic', '/home/josef/AMR_ws/install/custom_topic')])}
[0.001181] (AMR_project) JobStarted: {'identifier': 'AMR_project'}
[0.015713] (AMR_project) JobProgress: {'identifier': 'AMR_project', 'progress': 'cmake'}
[0.018014] (AMR_project) JobProgress: {'identifier': 'AMR_project', 'progress': 'build'}
[0.018116] (AMR_project) Command: {'cmd': ['/usr/bin/cmake', '--build', '/home/josef/AMR_ws/build/AMR_project', '--', '-j6', '-l6'], 'cwd': '/home/josef/AMR_ws/build/AMR_project', 'env': OrderedDict([('GJS_DEBUG_TOPICS', 'JS ERROR;JS LOG'), ('LESSOPEN', '| /usr/bin/lesspipe %s'), ('USER', 'josef'), ('LC_TIME', 'de_AT.UTF-8'), ('SSH_AGENT_PID', '1383'), ('XDG_SESSION_TYPE', 'x11'), ('SHLVL', '1'), ('LD_LIBRARY_PATH', '/home/josef/AMR_ws/install/custom_topic/lib:/opt/ros/foxy/opt/yaml_cpp_vendor/lib:/opt/ros/foxy/opt/rviz_ogre_vendor/lib:/opt/ros/foxy/lib/x86_64-linux-gnu:/opt/ros/foxy/lib'), ('HOME', '/home/josef'), ('DESKTOP_SESSION', 'ubuntu'), ('ROS_PYTHON_VERSION', '3'), ('GNOME_SHELL_SESSION_MODE', 'ubuntu'), ('GTK_MODULES', 'gail:atk-bridge'), ('LC_MONETARY', 'de_AT.UTF-8'), ('MANAGERPID', '1231'), ('DBUS_SESSION_BUS_ADDRESS', 'unix:path=/run/user/1000/bus'), ('COLORTERM', 'truecolor'), ('IM_CONFIG_PHASE', '1'), ('COLCON_PREFIX_PATH', '/home/josef/AMR_ws/install'), ('ROS_DISTRO', 'foxy'), ('LOGNAME', 'josef'), ('JOURNAL_STREAM', '8:31910'), ('_', '/usr/bin/colcon'), ('ROS_VERSION', '2'), ('XDG_SESSION_CLASS', 'user'), ('USERNAME', 'josef'), ('TERM', 'xterm-256color'), ('GNOME_DESKTOP_SESSION_ID', 'this-is-deprecated'), ('ROS_LOCALHOST_ONLY', '0'), ('WINDOWPATH', '2'), ('PATH', '/opt/ros/foxy/bin:/home/josef/.local/bin:/usr/local/sbin:/usr/local/bin:/usr/sbin:/usr/bin:/sbin:/bin:/usr/games:/usr/local/games:/snap/bin'), ('SESSION_MANAGER', 'local/josef-VirtualBox:@/tmp/.ICE-unix/1445,unix/josef-VirtualBox:/tmp/.ICE-unix/1445'), ('INVOCATION_ID', 'f688c027e82648dd8408602b1bb78ff6'), ('XDG_MENU_PREFIX', 'gnome-'), ('LC_ADDRESS', 'de_AT.UTF-8'), ('GNOME_TERMINAL_SCREEN', '/org/gnome/Terminal/screen/473f9de4_2680_40fb_b8db_fa4f6c2ce40a'), ('XDG_RUNTIME_DIR', '/run/user/1000'), ('DISPLAY', ':0'), ('LANG', 'en_US.UTF-8'), ('XDG_CURRENT_DESKTOP', 'ubuntu:GNOME'), ('LC_TELEPHONE', 'de_AT.UTF-8'), ('XMODIFIERS', '@im=ibus'), ('XDG_SESSION_DESKTOP', 'ubuntu'), ('XAUTHORITY', '/run/user/1000/gdm/Xauthority'), ('LS_COLORS', 'rs=0:di=01;34:ln=01;36:mh=00:pi=40;33:so=01;35:do=01;35:bd=40;33;01:cd=40;33;01:or=40;31;01:mi=00:su=37;41:sg=30;43:ca=30;41:tw=30;42:ow=34;42:st=37;44:ex=01;32:*.tar=01;31:*.tgz=01;31:*.arc=01;31:*.arj=01;31:*.taz=01;31:*.lha=01;31:*.lz4=01;31:*.lzh=01;31:*.lzma=01;31:*.tlz=01;31:*.txz=01;31:*.tzo=01;31:*.t7z=01;31:*.zip=01;31:*.z=01;31:*.dz=01;31:*.gz=01;31:*.lrz=01;31:*.lz=01;31:*.lzo=01;31:*.xz=01;31:*.zst=01;31:*.tzst=01;31:*.bz2=01;31:*.bz=01;31:*.tbz=01;31:*.tbz2=01;31:*.tz=01;31:*.deb=01;31:*.rpm=01;31:*.jar=01;31:*.war=01;31:*.ear=01;31:*.sar=01;31:*.rar=01;31:*.alz=01;31:*.ace=01;31:*.zoo=01;31:*.cpio=01;31:*.7z=01;31:*.rz=01;31:*.cab=01;31:*.wim=01;31:*.swm=01;31:*.dwm=01;31:*.esd=01;31:*.jpg=01;35:*.jpeg=01;35:*.mjpg=01;35:*.mjpeg=01;35:*.gif=01;35:*.bmp=01;35:*.pbm=01;35:*.pgm=01;35:*.ppm=01;35:*.tga=01;35:*.xbm=01;35:*.xpm=01;35:*.tif=01;35:*.tiff=01;35:*.png=01;35:*.svg=01;35:*.svgz=01;35:*.mng=01;35:*.pcx=01;35:*.mov=01;35:*.mpg=01;35:*.mpeg=01;35:*.m2v=01;35:*.mkv=01;35:*.webm=01;35:*.ogm=01;35:*.mp4=01;35:*.m4v=01;35:*.mp4v=01;35:*.vob=01;35:*.qt=01;35:*.nuv=01;35:*.wmv=01;35:*.asf=01;35:*.rm=01;35:*.rmvb=01;35:*.flc=01;35:*.avi=01;35:*.fli=01;35:*.flv=01;35:*.gl=01;35:*.dl=01;35:*.xcf=01;35:*.xwd=01;35:*.yuv=01;35:*.cgm=01;35:*.emf=01;35:*.ogv=01;35:*.ogx=01;35:*.aac=00;36:*.au=00;36:*.flac=00;36:*.m4a=00;36:*.mid=00;36:*.midi=00;36:*.mka=00;36:*.mp3=00;36:*.mpc=00;36:*.ogg=00;36:*.ra=00;36:*.wav=00;36:*.oga=00;36:*.opus=00;36:*.spx=00;36:*.xspf=00;36:'), ('GNOME_TERMINAL_SERVICE', ':1.2424'), ('SSH_AUTH_SOCK', '/run/user/1000/keyring/ssh'), ('AMENT_PREFIX_PATH', '/home/josef/AMR_ws/install/AMR_project:/home/josef/AMR_ws/install/custom_topic:/home/josef/AMR_ws/install/cpp_pubsub:/opt/ros/foxy'), ('SHELL', '/bin/bash'), ('LC_NAME', 'de_AT.UTF-8'), ('QT_ACCESSIBILITY', '1'), ('GDMSESSION', 'ubuntu'), ('LESSCLOSE', '/usr/bin/lesspipe %s %s'), ('LC_MEASUREMENT', 'de_AT.UTF-8'), ('GPG_AGENT_INFO', '/run/user/1000/gnupg/S.gpg-agent:0:1'), ('GJS_DEBUG_OUTPUT', 'stderr'), ('LC_IDENTIFICATION', 'de_AT.UTF-8'), ('QT_IM_MODULE', 'ibus'), ('PWD', '/home/josef/AMR_ws/build/AMR_project'), ('LC_ALL', 'en_US.UTF-8'), ('XDG_CONFIG_DIRS', '/etc/xdg/xdg-ubuntu:/etc/xdg'), ('XDG_DATA_DIRS', '/usr/share/ubuntu:/usr/local/share/:/usr/share/:/var/lib/snapd/desktop'), ('PYTHONPATH', '/home/josef/AMR_ws/install/custom_topic/lib/python3.8/site-packages:/opt/ros/foxy/lib/python3.8/site-packages'), ('LC_NUMERIC', 'de_AT.UTF-8'), ('LC_PAPER', 'de_AT.UTF-8'), ('COLCON', '1'), ('VTE_VERSION', '6003'), ('CMAKE_PREFIX_PATH', '/home/josef/AMR_ws/install/custom_topic:/home/josef/AMR_ws/install/AMR_project:/home/josef/AMR_ws/install/cpp_pubsub:/opt/ros/foxy')]), 'shell': False}
[0.073665] (AMR_project) StdoutLine: {'line': b'\x1b[35m\x1b[1mScanning dependencies of target order_optimizer\x1b[0m\n'}
[0.092248] (AMR_project) StdoutLine: {'line': b'[ 66%] Built target listener\n'}
[0.092455] (AMR_project) StdoutLine: {'line': b'[ 66%] Built target talker\n'}
[0.097175] (-) TimerEvent: {}
[0.102324] (AMR_project) StdoutLine: {'line': b'[ 83%] \x1b[32mBuilding CXX object CMakeFiles/order_optimizer.dir/src/OrderOptimizer_function.cpp.o\x1b[0m\n'}
[0.197338] (-) TimerEvent: {}
[0.301429] (-) TimerEvent: {}
[0.402887] (-) TimerEvent: {}
[0.503922] (-) TimerEvent: {}
[0.609368] (-) TimerEvent: {}
[0.711024] (-) TimerEvent: {}
[0.818140] (-) TimerEvent: {}
[0.918694] (-) TimerEvent: {}
[1.023597] (-) TimerEvent: {}
[1.127119] (-) TimerEvent: {}
[1.227906] (-) TimerEvent: {}
[1.328730] (-) TimerEvent: {}
[1.452339] (-) TimerEvent: {}
[1.553787] (-) TimerEvent: {}
[1.557417] (AMR_project) StderrLine: {'line': b'\x1b[01m\x1b[K/home/josef/AMR_ws/src/AMR_project/src/OrderOptimizer_function.cpp:\x1b[m\x1b[K In function \xe2\x80\x98\x1b[01m\x1b[Kint parsing_order(int, double&, double&, std::vector<std::__cxx11::basic_string<char> >&, std::string, std::string)\x1b[m\x1b[K\xe2\x80\x99:\n'}
[1.557646] (AMR_project) StderrLine: {'line': b'\x1b[01m\x1b[K/home/josef/AMR_ws/src/AMR_project/src/OrderOptimizer_function.cpp:51:33:\x1b[m\x1b[K \x1b[01;35m\x1b[Kwarning: \x1b[m\x1b[Kcomparison of integer expressions of different signedness: \xe2\x80\x98\x1b[01m\x1b[Kstd::__cxx11::basic_string<char>::size_type\x1b[m\x1b[K\xe2\x80\x99 {aka \xe2\x80\x98\x1b[01m\x1b[Klong unsigned int\x1b[m\x1b[K\xe2\x80\x99} and \xe2\x80\x98\x1b[01m\x1b[Kint\x1b[m\x1b[K\xe2\x80\x99 [\x1b[01;35m\x1b[K-Wsign-compare\x1b[m\x1b[K]\n'}
[1.557746] (AMR_project) StderrLine: {'line': b'   51 |         if (\x1b[01;35m\x1b[Kline.find("order:") != -1\x1b[m\x1b[K && std::stoi(line.substr(8)) == order_id) {\n'}
[1.557819] (AMR_project) StderrLine: {'line': b'      |             \x1b[01;35m\x1b[K~~~~~~~~~~~~~~~~~~~~^~~~~\x1b[m\x1b[K\n'}
[1.558819] (AMR_project) StderrLine: {'line': b'\x1b[01m\x1b[K/home/josef/AMR_ws/src/AMR_project/src/OrderOptimizer_function.cpp:65:44:\x1b[m\x1b[K \x1b[01;35m\x1b[Kwarning: \x1b[m\x1b[Kcomparison of integer expressions of different signedness: \xe2\x80\x98\x1b[01m\x1b[Kstd::__cxx11::basic_string<char>::size_type\x1b[m\x1b[K\xe2\x80\x99 {aka \xe2\x80\x98\x1b[01m\x1b[Klong unsigned int\x1b[m\x1b[K\xe2\x80\x99} and \xe2\x80\x98\x1b[01m\x1b[Kint\x1b[m\x1b[K\xe2\x80\x99 [\x1b[01;35m\x1b[K-Wsign-compare\x1b[m\x1b[K]\n'}
[1.558935] (AMR_project) StderrLine: {'line': b'   65 |                     if (\x1b[01;35m\x1b[Kline.find("order") != -1\x1b[m\x1b[K)\n'}
[1.558997] (AMR_project) StderrLine: {'line': b'      |                         \x1b[01;35m\x1b[K~~~~~~~~~~~~~~~~~~~^~~~~\x1b[m\x1b[K\n'}
[1.565791] (AMR_project) StderrLine: {'line': b'\x1b[01m\x1b[K/home/josef/AMR_ws/src/AMR_project/src/OrderOptimizer_function.cpp:\x1b[m\x1b[K In function \xe2\x80\x98\x1b[01m\x1b[Kint parsing_product(std::vector<std::__cxx11::basic_string<char> >&, std::vector<part>&, std::string)\x1b[m\x1b[K\xe2\x80\x99:\n'}
[1.566514] (AMR_project) StderrLine: {'line': b'\x1b[01m\x1b[K/home/josef/AMR_ws/src/AMR_project/src/OrderOptimizer_function.cpp:114:23:\x1b[m\x1b[K \x1b[01;35m\x1b[Kwarning: \x1b[m\x1b[Kcomparison of integer expressions of different signedness: \xe2\x80\x98\x1b[01m\x1b[Kint\x1b[m\x1b[K\xe2\x80\x99 and \xe2\x80\x98\x1b[01m\x1b[Kstd::vector<std::__cxx11::basic_string<char> >::size_type\x1b[m\x1b[K\xe2\x80\x99 {aka \xe2\x80\x98\x1b[01m\x1b[Klong unsigned int\x1b[m\x1b[K\xe2\x80\x99} [\x1b[01;35m\x1b[K-Wsign-compare\x1b[m\x1b[K]\n'}
[1.566605] (AMR_project) StderrLine: {'line': b'  114 |     for (int i = 0; \x1b[01;35m\x1b[Ki < products.size()\x1b[m\x1b[K; i++) {\n'}
[1.566662] (AMR_project) StderrLine: {'line': b'      |                     \x1b[01;35m\x1b[K~~^~~~~~~~~~~~~~~~~\x1b[m\x1b[K\n'}
[1.567384] (AMR_project) StderrLine: {'line': b'\x1b[01m\x1b[K/home/josef/AMR_ws/src/AMR_project/src/OrderOptimizer_function.cpp:130:42:\x1b[m\x1b[K \x1b[01;35m\x1b[Kwarning: \x1b[m\x1b[Kcomparison of integer expressions of different signedness: \xe2\x80\x98\x1b[01m\x1b[Kstd::__cxx11::basic_string<char>::size_type\x1b[m\x1b[K\xe2\x80\x99 {aka \xe2\x80\x98\x1b[01m\x1b[Klong unsigned int\x1b[m\x1b[K\xe2\x80\x99} and \xe2\x80\x98\x1b[01m\x1b[Kint\x1b[m\x1b[K\xe2\x80\x99 [\x1b[01;35m\x1b[K-Wsign-compare\x1b[m\x1b[K]\n'}
[1.567492] (AMR_project) StderrLine: {'line': b'  130 |                 if (\x1b[01;35m\x1b[Kline.find("Product") != -1\x1b[m\x1b[K)\n'}
[1.567546] (AMR_project) StderrLine: {'line': b'      |                     \x1b[01;35m\x1b[K~~~~~~~~~~~~~~~~~~~~~^~~~~\x1b[m\x1b[K\n'}
[1.568277] (AMR_project) StderrLine: {'line': b'\x1b[01m\x1b[K/home/josef/AMR_ws/src/AMR_project/src/OrderOptimizer_function.cpp:144:41:\x1b[m\x1b[K \x1b[01;35m\x1b[Kwarning: \x1b[m\x1b[Kcomparison of integer expressions of different signedness: \xe2\x80\x98\x1b[01m\x1b[Kstd::__cxx11::basic_string<char>::size_type\x1b[m\x1b[K\xe2\x80\x99 {aka \xe2\x80\x98\x1b[01m\x1b[Klong unsigned int\x1b[m\x1b[K\xe2\x80\x99} and \xe2\x80\x98\x1b[01m\x1b[Kint\x1b[m\x1b[K\xe2\x80\x99 [\x1b[01;35m\x1b[K-Wsign-compare\x1b[m\x1b[K]\n'}
[1.568379] (AMR_project) StderrLine: {'line': b'  144 |                     if (\x1b[01;35m\x1b[Kline.find("id") != -1\x1b[m\x1b[K)\n'}
[1.568432] (AMR_project) StderrLine: {'line': b'      |                         \x1b[01;35m\x1b[K~~~~~~~~~~~~~~~~^~~~~\x1b[m\x1b[K\n'}
[1.575224] (AMR_project) StderrLine: {'line': b'\x1b[01m\x1b[K/home/josef/AMR_ws/src/AMR_project/src/OrderOptimizer_function.cpp:\x1b[m\x1b[K In function \xe2\x80\x98\x1b[01m\x1b[Kint calc_path(int, double&, double&, double&, double&, std::vector<std::__cxx11::basic_string<char> >&, std::vector<part>&, std::vector<part>&, std::string, std::string)\x1b[m\x1b[K\xe2\x80\x99:\n'}
[1.575537] (AMR_project) StderrLine: {'line': b'\x1b[01m\x1b[K/home/josef/AMR_ws/src/AMR_project/src/OrderOptimizer_function.cpp:206:26:\x1b[m\x1b[K \x1b[01;35m\x1b[Kwarning: \x1b[m\x1b[Kcomparison of integer expressions of different signedness: \xe2\x80\x98\x1b[01m\x1b[Kint\x1b[m\x1b[K\xe2\x80\x99 and \xe2\x80\x98\x1b[01m\x1b[Kstd::vector<part>::size_type\x1b[m\x1b[K\xe2\x80\x99 {aka \xe2\x80\x98\x1b[01m\x1b[Klong unsigned int\x1b[m\x1b[K\xe2\x80\x99} [\x1b[01;35m\x1b[K-Wsign-compare\x1b[m\x1b[K]\n'}
[1.575641] (AMR_project) StderrLine: {'line': b'  206 |        for (int i = 0; \x1b[01;35m\x1b[Ki < parts.size()\x1b[m\x1b[K; i++)\n'}
[1.575698] (AMR_project) StderrLine: {'line': b'      |                        \x1b[01;35m\x1b[K~~^~~~~~~~~~~~~~\x1b[m\x1b[K\n'}
[1.575748] (AMR_project) StderrLine: {'line': b'\x1b[01m\x1b[K/home/josef/AMR_ws/src/AMR_project/src/OrderOptimizer_function.cpp:213:26:\x1b[m\x1b[K \x1b[01;35m\x1b[Kwarning: \x1b[m\x1b[Kcomparison of integer expressions of different signedness: \xe2\x80\x98\x1b[01m\x1b[Kint\x1b[m\x1b[K\xe2\x80\x99 and \xe2\x80\x98\x1b[01m\x1b[Kstd::vector<int>::size_type\x1b[m\x1b[K\xe2\x80\x99 {aka \xe2\x80\x98\x1b[01m\x1b[Klong unsigned int\x1b[m\x1b[K\xe2\x80\x99} [\x1b[01;35m\x1b[K-Wsign-compare\x1b[m\x1b[K]\n'}
[1.575809] (AMR_project) StderrLine: {'line': b'  213 |        for (int i = 1; \x1b[01;35m\x1b[Ki < distance.size()\x1b[m\x1b[K; i++) {\n'}
[1.575856] (AMR_project) StderrLine: {'line': b'      |                        \x1b[01;35m\x1b[K~~^~~~~~~~~~~~~~~~~\x1b[m\x1b[K\n'}
[1.622355] (AMR_project) StderrLine: {'line': b'\x1b[01m\x1b[K/home/josef/AMR_ws/src/AMR_project/src/OrderOptimizer_function.cpp:\x1b[m\x1b[K In constructor \xe2\x80\x98\x1b[01m\x1b[KOrder_Opt::Order_Opt()\x1b[m\x1b[K\xe2\x80\x99:\n'}
[1.622575] (AMR_project) StderrLine: {'line': b'\x1b[01m\x1b[K/home/josef/AMR_ws/src/AMR_project/src/OrderOptimizer_function.cpp:258:148:\x1b[m\x1b[K \x1b[01;31m\x1b[Kerror: \x1b[m\x1b[Kexpected \xe2\x80\x98\x1b[01m\x1b[K;\x1b[m\x1b[K\xe2\x80\x99 before \xe2\x80\x98\x1b[01m\x1b[Ksubscription1_\x1b[m\x1b[K\xe2\x80\x99\n'}
[1.622652] (AMR_project) StderrLine: {'line': b'  258 |         std::cout <<"std::filesystem::current_path()" << std::filesystem::current_path() << "---------------------------------------------------\\n"\n'}
[1.622711] (AMR_project) StderrLine: {'line': b'      |                                                                                                                                                    \x1b[01;31m\x1b[K^\x1b[m\x1b[K\n'}
[1.622763] (AMR_project) StderrLine: {'line': b'      |                                                                                                                                                    \x1b[32m\x1b[K;\x1b[m\x1b[K\n'}
[1.622809] (AMR_project) StderrLine: {'line': b'......\n'}
[1.622855] (AMR_project) StderrLine: {'line': b'  263 |       \x1b[32m\x1b[Ksubscription1_\x1b[m\x1b[K = this->create_subscription<geometry_msgs::msg::PoseStamped>(\n'}
[1.622900] (AMR_project) StderrLine: {'line': b'      |       \x1b[32m\x1b[K~~~~~~~~~~~~~~\x1b[m\x1b[K                                                                                                                                \n'}
[1.652595] (AMR_project) StderrLine: {'line': b'\x1b[01m\x1b[K/home/josef/AMR_ws/src/AMR_project/src/OrderOptimizer_function.cpp:\x1b[m\x1b[K In member function \xe2\x80\x98\x1b[01m\x1b[Kvoid Order_Opt::timer_marker_callback()\x1b[m\x1b[K\xe2\x80\x99:\n'}
[1.652836] (AMR_project) StderrLine: {'line': b'\x1b[01m\x1b[K/home/josef/AMR_ws/src/AMR_project/src/OrderOptimizer_function.cpp:386:23:\x1b[m\x1b[K \x1b[01;35m\x1b[Kwarning: \x1b[m\x1b[Kcomparison of integer expressions of different signedness: \xe2\x80\x98\x1b[01m\x1b[Kint\x1b[m\x1b[K\xe2\x80\x99 and \xe2\x80\x98\x1b[01m\x1b[Kstd::vector<part>::size_type\x1b[m\x1b[K\xe2\x80\x99 {aka \xe2\x80\x98\x1b[01m\x1b[Klong unsigned int\x1b[m\x1b[K\xe2\x80\x99} [\x1b[01;35m\x1b[K-Wsign-compare\x1b[m\x1b[K]\n'}
[1.652912] (AMR_project) StderrLine: {'line': b'  386 |     for (int i = 0; \x1b[01;35m\x1b[Ki < parts_marker.size()\x1b[m\x1b[K; i++){\n'}
[1.652963] (AMR_project) StderrLine: {'line': b'      |                     \x1b[01;35m\x1b[K~~^~~~~~~~~~~~~~~~~~~~~\x1b[m\x1b[K\n'}
[1.654080] (-) TimerEvent: {}
[1.772785] (-) TimerEvent: {}
[1.873526] (-) TimerEvent: {}
[1.974597] (-) TimerEvent: {}
[2.078121] (-) TimerEvent: {}
[2.179753] (-) TimerEvent: {}
[2.280399] (-) TimerEvent: {}
[2.398404] (-) TimerEvent: {}
[2.500158] (-) TimerEvent: {}
[2.600920] (-) TimerEvent: {}
[2.788221] (-) TimerEvent: {}
[2.892247] (-) TimerEvent: {}
[2.993256] (-) TimerEvent: {}
[3.099050] (-) TimerEvent: {}
[3.200708] (-) TimerEvent: {}
[3.304668] (-) TimerEvent: {}
[3.331403] (AMR_project) StderrLine: {'line': b'make[2]: *** [CMakeFiles/order_optimizer.dir/build.make:63: CMakeFiles/order_optimizer.dir/src/OrderOptimizer_function.cpp.o] Error 1\n'}
[3.331757] (AMR_project) StderrLine: {'line': b'make[1]: *** [CMakeFiles/Makefile2:109: CMakeFiles/order_optimizer.dir/all] Error 2\n'}
[3.332081] (AMR_project) StderrLine: {'line': b'make: *** [Makefile:141: all] Error 2\n'}
[3.334737] (AMR_project) CommandEnded: {'returncode': 2}
[3.390762] (AMR_project) JobEnded: {'identifier': 'AMR_project', 'rc': 2}
[3.409265] (-) EventReactorShutdown: {}
