CMake Error at CMakeLists.txt:24 (add_executable):
  add_executable cannot create target "listener" because another target with
  the same name already exists.  The existing target is an executable created
  in source directory "/home/josef/AMR_ws/src/AMR_project".  See
  documentation for policy CMP0002 for more details.


