[0.019s] Invoking command in '/home/josef/AMR_ws/build/AMR_project': AMENT_PREFIX_PATH=/home/josef/AMR_ws/install/custom_topic:${AMENT_PREFIX_PATH} CMAKE_PREFIX_PATH=/home/josef/AMR_ws/install/custom_topic:/opt/ros/foxy LD_LIBRARY_PATH=/home/josef/AMR_ws/install/custom_topic/lib:${LD_LIBRARY_PATH} PYTHONPATH=/home/josef/AMR_ws/install/custom_topic/lib/python3.8/site-packages:${PYTHONPATH} /usr/bin/cmake --build /home/josef/AMR_ws/build/AMR_project -- -j6 -l6
[0.064s] [35m[1mScanning dependencies of target order_optimizer[0m
[0.083s] [ 33%] Built target talker
[0.084s] [ 66%] Built target listener
[0.092s] [ 83%] [32mBuilding CXX object CMakeFiles/order_optimizer.dir/src/OrderOptimizer_function.cpp.o[0m
[0.178s] [01m[K/home/josef/AMR_ws/src/AMR_project/src/OrderOptimizer_function.cpp:9:10:[m[K [01;31m[Kfatal error: [m[Kcustom_topic/msg/NextOrder.hpp: No such file or directory
[0.178s]     9 | #include [01;31m[K"custom_topic/msg/NextOrder.hpp"[m[K
[0.178s]       |          [01;31m[K^~~~~~~~~~~~~~~~~~~~~~~~~~~~~~~~[m[K
[0.178s] compilation terminated.
[0.180s] make[2]: *** [CMakeFiles/order_optimizer.dir/build.make:63: CMakeFiles/order_optimizer.dir/src/OrderOptimizer_function.cpp.o] Error 1
[0.180s] make[1]: *** [CMakeFiles/Makefile2:109: CMakeFiles/order_optimizer.dir/all] Error 2
[0.181s] make: *** [Makefile:141: all] Error 2
[0.185s] Invoked command in '/home/josef/AMR_ws/build/AMR_project' returned '2': AMENT_PREFIX_PATH=/home/josef/AMR_ws/install/custom_topic:${AMENT_PREFIX_PATH} CMAKE_PREFIX_PATH=/home/josef/AMR_ws/install/custom_topic:/opt/ros/foxy LD_LIBRARY_PATH=/home/josef/AMR_ws/install/custom_topic/lib:${LD_LIBRARY_PATH} PYTHONPATH=/home/josef/AMR_ws/install/custom_topic/lib/python3.8/site-packages:${PYTHONPATH} /usr/bin/cmake --build /home/josef/AMR_ws/build/AMR_project -- -j6 -l6
