[35m[1mScanning dependencies of target order_optimizer[0m
[ 33%] Built target talker
[ 66%] Built target listener
[ 83%] [32mBuilding CXX object CMakeFiles/order_optimizer.dir/src/OrderOptimizer_function.cpp.o[0m
[01m[K/home/josef/AMR_ws/src/AMR_project/src/OrderOptimizer_function.cpp:9:10:[m[K [01;31m[Kfatal error: [m[Kmsg/NextOrder.hpp: No such file or directory
    9 | #include [01;31m[K"msg/NextOrder.hpp"[m[K
      |          [01;31m[K^~~~~~~~~~~~~~~~~~~[m[K
compilation terminated.
make[2]: *** [CMakeFiles/order_optimizer.dir/build.make:63: CMakeFiles/order_optimizer.dir/src/OrderOptimizer_function.cpp.o] Error 1
make[1]: *** [CMakeFiles/Makefile2:109: CMakeFiles/order_optimizer.dir/all] Error 2
make: *** [Makefile:141: all] Error 2
