[ 12%] Built target custom_topic__rosidl_generator_c
[  9%] Built target custom_topic__cpp
[ 58%] Built target custom_topic__rosidl_typesupport_introspection_c
[ 58%] Built target custom_topic__rosidl_typesupport_introspection_cpp
[ 58%] Built target custom_topic__rosidl_typesupport_c
[ 61%] Built target custom_topic__rosidl_typesupport_fastrtps_cpp
[ 58%] Built target custom_topic__rosidl_typesupport_cpp
[ 70%] Built target custom_topic__rosidl_typesupport_fastrtps_c
[ 70%] Built target custom_topic
[ 74%] Built target custom_topic__py
[ 80%] Built target custom_topic__python
[ 93%] Built target custom_topic__rosidl_typesupport_fastrtps_c__pyext
[ 93%] Built target custom_topic__rosidl_typesupport_c__pyext
[100%] Built target custom_topic__rosidl_typesupport_introspection_c__pyext
-- Install configuration: ""
-- Up-to-date: /home/josef/AMR_ws/install/custom_topic/share/ament_index/resource_index/rosidl_interfaces/custom_topic
-- Up-to-date: /home/josef/AMR_ws/install/custom_topic/include/custom_topic
-- Up-to-date: /home/josef/AMR_ws/install/custom_topic/include/custom_topic/msg
-- Up-to-date: /home/josef/AMR_ws/install/custom_topic/include/custom_topic/msg/detail
-- Up-to-date: /home/josef/AMR_ws/install/custom_topic/include/custom_topic/msg/detail/next_order__struct.h
-- Up-to-date: /home/josef/AMR_ws/install/custom_topic/include/custom_topic/msg/detail/next_order__functions.h
-- Up-to-date: /home/josef/AMR_ws/install/custom_topic/include/custom_topic/msg/detail/next_order__functions.c
-- Up-to-date: /home/josef/AMR_ws/install/custom_topic/include/custom_topic/msg/detail/next_order__type_support.h
-- Up-to-date: /home/josef/AMR_ws/install/custom_topic/include/custom_topic/msg/rosidl_generator_c__visibility_control.h
-- Up-to-date: /home/josef/AMR_ws/install/custom_topic/include/custom_topic/msg/next_order.h
-- Up-to-date: /home/josef/AMR_ws/install/custom_topic/share/custom_topic/environment/library_path.sh
-- Up-to-date: /home/josef/AMR_ws/install/custom_topic/share/custom_topic/environment/library_path.dsv
-- Up-to-date: /home/josef/AMR_ws/install/custom_topic/lib/libcustom_topic__rosidl_generator_c.so
-- Up-to-date: /home/josef/AMR_ws/install/custom_topic/include/custom_topic
-- Up-to-date: /home/josef/AMR_ws/install/custom_topic/include/custom_topic/msg
-- Up-to-date: /home/josef/AMR_ws/install/custom_topic/include/custom_topic/msg/detail
-- Up-to-date: /home/josef/AMR_ws/install/custom_topic/include/custom_topic/msg/detail/next_order__rosidl_typesupport_fastrtps_c.h
-- Up-to-date: /home/josef/AMR_ws/install/custom_topic/include/custom_topic/msg/rosidl_typesupport_fastrtps_c__visibility_control.h
-- Up-to-date: /home/josef/AMR_ws/install/custom_topic/lib/libcustom_topic__rosidl_typesupport_fastrtps_c.so
-- Up-to-date: /home/josef/AMR_ws/install/custom_topic/include/custom_topic
-- Up-to-date: /home/josef/AMR_ws/install/custom_topic/include/custom_topic/msg
-- Up-to-date: /home/josef/AMR_ws/install/custom_topic/include/custom_topic/msg/detail
-- Up-to-date: /home/josef/AMR_ws/install/custom_topic/include/custom_topic/msg/detail/dds_fastrtps
-- Up-to-date: /home/josef/AMR_ws/install/custom_topic/include/custom_topic/msg/detail/next_order__rosidl_typesupport_fastrtps_cpp.hpp
-- Up-to-date: /home/josef/AMR_ws/install/custom_topic/include/custom_topic/msg/rosidl_typesupport_fastrtps_cpp__visibility_control.h
-- Up-to-date: /home/josef/AMR_ws/install/custom_topic/lib/libcustom_topic__rosidl_typesupport_fastrtps_cpp.so
-- Up-to-date: /home/josef/AMR_ws/install/custom_topic/include/custom_topic
-- Up-to-date: /home/josef/AMR_ws/install/custom_topic/include/custom_topic/msg
-- Up-to-date: /home/josef/AMR_ws/install/custom_topic/include/custom_topic/msg/detail
-- Up-to-date: /home/josef/AMR_ws/install/custom_topic/include/custom_topic/msg/detail/next_order__rosidl_typesupport_introspection_c.h
-- Up-to-date: /home/josef/AMR_ws/install/custom_topic/include/custom_topic/msg/detail/next_order__type_support.c
-- Up-to-date: /home/josef/AMR_ws/install/custom_topic/include/custom_topic/msg/rosidl_typesupport_introspection_c__visibility_control.h
-- Up-to-date: /home/josef/AMR_ws/install/custom_topic/lib/libcustom_topic__rosidl_typesupport_introspection_c.so
-- Up-to-date: /home/josef/AMR_ws/install/custom_topic/lib/libcustom_topic__rosidl_typesupport_c.so
-- Up-to-date: /home/josef/AMR_ws/install/custom_topic/include/custom_topic
-- Up-to-date: /home/josef/AMR_ws/install/custom_topic/include/custom_topic/msg
-- Up-to-date: /home/josef/AMR_ws/install/custom_topic/include/custom_topic/msg/detail
-- Up-to-date: /home/josef/AMR_ws/install/custom_topic/include/custom_topic/msg/detail/next_order__struct.hpp
-- Up-to-date: /home/josef/AMR_ws/install/custom_topic/include/custom_topic/msg/detail/next_order__builder.hpp
-- Up-to-date: /home/josef/AMR_ws/install/custom_topic/include/custom_topic/msg/detail/next_order__type_support.hpp
-- Up-to-date: /home/josef/AMR_ws/install/custom_topic/include/custom_topic/msg/detail/next_order__traits.hpp
-- Up-to-date: /home/josef/AMR_ws/install/custom_topic/include/custom_topic/msg/rosidl_generator_cpp__visibility_control.hpp
-- Up-to-date: /home/josef/AMR_ws/install/custom_topic/include/custom_topic/msg/next_order.hpp
-- Up-to-date: /home/josef/AMR_ws/install/custom_topic/include/custom_topic
-- Up-to-date: /home/josef/AMR_ws/install/custom_topic/include/custom_topic/msg
-- Up-to-date: /home/josef/AMR_ws/install/custom_topic/include/custom_topic/msg/detail
-- Up-to-date: /home/josef/AMR_ws/install/custom_topic/include/custom_topic/msg/detail/next_order__type_support.cpp
-- Up-to-date: /home/josef/AMR_ws/install/custom_topic/include/custom_topic/msg/detail/next_order__rosidl_typesupport_introspection_cpp.hpp
-- Up-to-date: /home/josef/AMR_ws/install/custom_topic/lib/libcustom_topic__rosidl_typesupport_introspection_cpp.so
-- Up-to-date: /home/josef/AMR_ws/install/custom_topic/lib/libcustom_topic__rosidl_typesupport_cpp.so
-- Up-to-date: /home/josef/AMR_ws/install/custom_topic/share/custom_topic/environment/pythonpath.sh
-- Up-to-date: /home/josef/AMR_ws/install/custom_topic/share/custom_topic/environment/pythonpath.dsv
-- Up-to-date: /home/josef/AMR_ws/install/custom_topic/lib/python3.8/site-packages/custom_topic/__init__.py
-- Up-to-date: /home/josef/AMR_ws/install/custom_topic/lib/python3.8/site-packages/custom_topic/msg
-- Up-to-date: /home/josef/AMR_ws/install/custom_topic/lib/python3.8/site-packages/custom_topic/msg/_next_order.py
-- Up-to-date: /home/josef/AMR_ws/install/custom_topic/lib/python3.8/site-packages/custom_topic/msg/_next_order_s.c
-- Up-to-date: /home/josef/AMR_ws/install/custom_topic/lib/python3.8/site-packages/custom_topic/msg/__init__.py
-- Up-to-date: /home/josef/AMR_ws/install/custom_topic/lib/python3.8/site-packages/custom_topic/custom_topic_s__rosidl_typesupport_fastrtps_c.cpython-38-x86_64-linux-gnu.so
-- Up-to-date: /home/josef/AMR_ws/install/custom_topic/lib/python3.8/site-packages/custom_topic/custom_topic_s__rosidl_typesupport_introspection_c.cpython-38-x86_64-linux-gnu.so
-- Up-to-date: /home/josef/AMR_ws/install/custom_topic/lib/python3.8/site-packages/custom_topic/custom_topic_s__rosidl_typesupport_c.cpython-38-x86_64-linux-gnu.so
-- Up-to-date: /home/josef/AMR_ws/install/custom_topic/lib/libcustom_topic__python.so
-- Up-to-date: /home/josef/AMR_ws/install/custom_topic/share/custom_topic/msg/NextOrder.idl
-- Up-to-date: /home/josef/AMR_ws/install/custom_topic/share/custom_topic/msg/NextOrder.msg
-- Up-to-date: /home/josef/AMR_ws/install/custom_topic/share/ament_index/resource_index/package_run_dependencies/custom_topic
-- Up-to-date: /home/josef/AMR_ws/install/custom_topic/share/ament_index/resource_index/parent_prefix_path/custom_topic
-- Up-to-date: /home/josef/AMR_ws/install/custom_topic/share/custom_topic/environment/ament_prefix_path.sh
-- Up-to-date: /home/josef/AMR_ws/install/custom_topic/share/custom_topic/environment/ament_prefix_path.dsv
-- Up-to-date: /home/josef/AMR_ws/install/custom_topic/share/custom_topic/environment/path.sh
-- Up-to-date: /home/josef/AMR_ws/install/custom_topic/share/custom_topic/environment/path.dsv
-- Up-to-date: /home/josef/AMR_ws/install/custom_topic/share/custom_topic/local_setup.bash
-- Up-to-date: /home/josef/AMR_ws/install/custom_topic/share/custom_topic/local_setup.sh
-- Up-to-date: /home/josef/AMR_ws/install/custom_topic/share/custom_topic/local_setup.zsh
-- Up-to-date: /home/josef/AMR_ws/install/custom_topic/share/custom_topic/local_setup.dsv
-- Installing: /home/josef/AMR_ws/install/custom_topic/share/custom_topic/package.dsv
-- Up-to-date: /home/josef/AMR_ws/install/custom_topic/share/ament_index/resource_index/packages/custom_topic
-- Up-to-date: /home/josef/AMR_ws/install/custom_topic/share/custom_topic/cmake/custom_topic__rosidl_generator_cExport.cmake
-- Up-to-date: /home/josef/AMR_ws/install/custom_topic/share/custom_topic/cmake/custom_topic__rosidl_generator_cExport-noconfig.cmake
-- Up-to-date: /home/josef/AMR_ws/install/custom_topic/share/custom_topic/cmake/custom_topic__rosidl_typesupport_introspection_cExport.cmake
-- Up-to-date: /home/josef/AMR_ws/install/custom_topic/share/custom_topic/cmake/custom_topic__rosidl_typesupport_introspection_cExport-noconfig.cmake
-- Up-to-date: /home/josef/AMR_ws/install/custom_topic/share/custom_topic/cmake/custom_topic__rosidl_typesupport_cExport.cmake
-- Up-to-date: /home/josef/AMR_ws/install/custom_topic/share/custom_topic/cmake/custom_topic__rosidl_typesupport_cExport-noconfig.cmake
-- Up-to-date: /home/josef/AMR_ws/install/custom_topic/share/custom_topic/cmake/custom_topic__rosidl_generator_cppExport.cmake
-- Up-to-date: /home/josef/AMR_ws/install/custom_topic/share/custom_topic/cmake/custom_topic__rosidl_typesupport_introspection_cppExport.cmake
-- Up-to-date: /home/josef/AMR_ws/install/custom_topic/share/custom_topic/cmake/custom_topic__rosidl_typesupport_introspection_cppExport-noconfig.cmake
-- Up-to-date: /home/josef/AMR_ws/install/custom_topic/share/custom_topic/cmake/custom_topic__rosidl_typesupport_cppExport.cmake
-- Up-to-date: /home/josef/AMR_ws/install/custom_topic/share/custom_topic/cmake/custom_topic__rosidl_typesupport_cppExport-noconfig.cmake
-- Up-to-date: /home/josef/AMR_ws/install/custom_topic/share/custom_topic/cmake/rosidl_cmake-extras.cmake
-- Up-to-date: /home/josef/AMR_ws/install/custom_topic/share/custom_topic/cmake/ament_cmake_export_dependencies-extras.cmake
-- Up-to-date: /home/josef/AMR_ws/install/custom_topic/share/custom_topic/cmake/ament_cmake_export_libraries-extras.cmake
-- Up-to-date: /home/josef/AMR_ws/install/custom_topic/share/custom_topic/cmake/ament_cmake_export_targets-extras.cmake
-- Up-to-date: /home/josef/AMR_ws/install/custom_topic/share/custom_topic/cmake/ament_cmake_export_include_directories-extras.cmake
-- Up-to-date: /home/josef/AMR_ws/install/custom_topic/share/custom_topic/cmake/rosidl_cmake_export_typesupport_libraries-extras.cmake
-- Up-to-date: /home/josef/AMR_ws/install/custom_topic/share/custom_topic/cmake/rosidl_cmake_export_typesupport_targets-extras.cmake
-- Up-to-date: /home/josef/AMR_ws/install/custom_topic/share/custom_topic/cmake/custom_topicConfig.cmake
-- Up-to-date: /home/josef/AMR_ws/install/custom_topic/share/custom_topic/cmake/custom_topicConfig-version.cmake
-- Up-to-date: /home/josef/AMR_ws/install/custom_topic/share/custom_topic/package.xml
