-- Found ament_cmake: 0.9.12 (/opt/ros/foxy/share/ament_cmake/cmake)
-- Using PYTHON_EXECUTABLE: /usr/bin/python3
-- Found rclcpp: 2.4.3 (/opt/ros/foxy/share/rclcpp/cmake)
-- Using all available rosidl_typesupport_c: rosidl_typesupport_fastrtps_c;rosidl_typesupport_introspection_c
-- Found rosidl_adapter: 1.3.1 (/opt/ros/foxy/share/rosidl_adapter/cmake)
-- Using all available rosidl_typesupport_cpp: rosidl_typesupport_fastrtps_cpp;rosidl_typesupport_introspection_cpp
-- Found rmw_implementation_cmake: 1.0.4 (/opt/ros/foxy/share/rmw_implementation_cmake/cmake)
-- Using RMW implementation 'rmw_fastrtps_cpp' as default
-- Found geometry_msgs: 2.0.5 (/opt/ros/foxy/share/geometry_msgs/cmake)
-- Found custom_topic: 0.0.0 (/home/josef/AMR_ws/install/custom_topic/share/custom_topic/cmake)
-- Configuring done
-- Generating done
-- Build files have been written to: /home/josef/AMR_ws/build/AMR_project
[ 66%] Built target talker
[ 66%] Built target order_optimizer
[100%] Built target listener
-- Install configuration: ""
-- Up-to-date: /home/josef/AMR_ws/install/AMR_project/lib/AMR_project/order_optimizer
-- Up-to-date: /home/josef/AMR_ws/install/AMR_project/lib/AMR_project/talker
-- Up-to-date: /home/josef/AMR_ws/install/AMR_project/lib/AMR_project/listener
-- Up-to-date: /home/josef/AMR_ws/install/AMR_project/share/ament_index/resource_index/package_run_dependencies/AMR_project
-- Up-to-date: /home/josef/AMR_ws/install/AMR_project/share/ament_index/resource_index/parent_prefix_path/AMR_project
-- Up-to-date: /home/josef/AMR_ws/install/AMR_project/share/AMR_project/environment/ament_prefix_path.sh
-- Installing: /home/josef/AMR_ws/install/AMR_project/share/AMR_project/environment/ament_prefix_path.dsv
-- Up-to-date: /home/josef/AMR_ws/install/AMR_project/share/AMR_project/environment/path.sh
-- Installing: /home/josef/AMR_ws/install/AMR_project/share/AMR_project/environment/path.dsv
-- Up-to-date: /home/josef/AMR_ws/install/AMR_project/share/AMR_project/local_setup.bash
-- Up-to-date: /home/josef/AMR_ws/install/AMR_project/share/AMR_project/local_setup.sh
-- Up-to-date: /home/josef/AMR_ws/install/AMR_project/share/AMR_project/local_setup.zsh
-- Installing: /home/josef/AMR_ws/install/AMR_project/share/AMR_project/local_setup.dsv
-- Installing: /home/josef/AMR_ws/install/AMR_project/share/AMR_project/package.dsv
-- Up-to-date: /home/josef/AMR_ws/install/AMR_project/share/ament_index/resource_index/packages/AMR_project
-- Up-to-date: /home/josef/AMR_ws/install/AMR_project/share/AMR_project/cmake/AMR_projectConfig.cmake
-- Up-to-date: /home/josef/AMR_ws/install/AMR_project/share/AMR_project/cmake/AMR_projectConfig-version.cmake
-- Up-to-date: /home/josef/AMR_ws/install/AMR_project/share/AMR_project/package.xml
