[0.019s] Invoking command in '/home/josef/AMR_ws/build/AMR_project': CMAKE_PREFIX_PATH=/home/josef/AMR_ws/install/custom_topic:/home/josef/AMR_ws/install/AMR_project:/home/josef/AMR_ws/install/cpp_pubsub:/opt/ros/foxy /usr/bin/cmake --build /home/josef/AMR_ws/build/AMR_project -- -j6 -l6
[0.068s] [35m[1mScanning dependencies of target order_optimizer[0m
[0.085s] [ 66%] Built target listener
[0.085s] [ 66%] Built target talker
[0.094s] [ 83%] [32mBuilding CXX object CMakeFiles/order_optimizer.dir/src/OrderOptimizer_function.cpp.o[0m
[1.394s] [01m[K/home/josef/AMR_ws/src/AMR_project/src/OrderOptimizer_function.cpp:[m[K In function ‘[01m[Kint parsing_order(int, double&, double&, std::vector<std::__cxx11::basic_string<char> >&, std::string)[m[K’:
[1.394s] [01m[K/home/josef/AMR_ws/src/AMR_project/src/OrderOptimizer_function.cpp:45:33:[m[K [01;35m[Kwarning: [m[Kcomparison of integer expressions of different signedness: ‘[01m[Kstd::__cxx11::basic_string<char>::size_type[m[K’ {aka ‘[01m[Klong unsigned int[m[K’} and ‘[01m[Kint[m[K’ [[01;35m[K-Wsign-compare[m[K]
[1.394s]    45 |         if ([01;35m[Kline.find("order:") != -1[m[K && std::stoi(line.substr(8)) == order_id) {
[1.394s]       |             [01;35m[K~~~~~~~~~~~~~~~~~~~~^~~~~[m[K
[1.395s] [01m[K/home/josef/AMR_ws/src/AMR_project/src/OrderOptimizer_function.cpp:59:44:[m[K [01;35m[Kwarning: [m[Kcomparison of integer expressions of different signedness: ‘[01m[Kstd::__cxx11::basic_string<char>::size_type[m[K’ {aka ‘[01m[Klong unsigned int[m[K’} and ‘[01m[Kint[m[K’ [[01;35m[K-Wsign-compare[m[K]
[1.395s]    59 |                     if ([01;35m[Kline.find("order") != -1[m[K)
[1.395s]       |                         [01;35m[K~~~~~~~~~~~~~~~~~~~^~~~~[m[K
[1.405s] [01m[K/home/josef/AMR_ws/src/AMR_project/src/OrderOptimizer_function.cpp:[m[K In function ‘[01m[Kint parsing_product(std::vector<std::__cxx11::basic_string<char> >&, std::vector<part>&)[m[K’:
[1.406s] [01m[K/home/josef/AMR_ws/src/AMR_project/src/OrderOptimizer_function.cpp:107:23:[m[K [01;35m[Kwarning: [m[Kcomparison of integer expressions of different signedness: ‘[01m[Kint[m[K’ and ‘[01m[Kstd::vector<std::__cxx11::basic_string<char> >::size_type[m[K’ {aka ‘[01m[Klong unsigned int[m[K’} [[01;35m[K-Wsign-compare[m[K]
[1.406s]   107 |     for (int i = 0; [01;35m[Ki < products.size()[m[K; i++) {
[1.406s]       |                     [01;35m[K~~^~~~~~~~~~~~~~~~~[m[K
[1.406s] [01m[K/home/josef/AMR_ws/src/AMR_project/src/OrderOptimizer_function.cpp:111:70:[m[K [01;31m[Kerror: [m[Kno match for ‘[01m[Koperator<[m[K’ (operand types are ‘[01m[Kstd::basic_ostream<char>[m[K’ and ‘[01m[Kconst char [1][m[K’)
[1.406s]   111 |         [32m[Kstd::cout<<"------------------------------------------------"[m[K[01;31m[K<[m[K[34m[K""[m[K<"\n";
[1.406s]       |         [32m[K~~~~~~~~~~~~~~~~~~~~~~~~~~~~~~~~~~~~~~~~~~~~~~~~~~~~~~~~~~~~~[m[K[01;31m[K^[m[K[34m[K~~[m[K
[1.406s]       |                  [32m[K|[m[K                                                    [34m[K|[m[K
[1.406s]       |                  [32m[Kstd::basic_ostream<char>[m[K                             [34m[Kconst char [1][m[K
[1.406s] In file included from [01m[K/usr/include/c++/9/bits/stl_algobase.h:64[m[K,
[1.406s]                  from [01m[K/usr/include/c++/9/memory:62[m[K,
[1.406s]                  from [01m[K/home/josef/AMR_ws/src/AMR_project/src/OrderOptimizer_function.cpp:4[m[K:
[1.407s] [01m[K/usr/include/c++/9/bits/stl_pair.h:454:5:[m[K [01;36m[Knote: [m[Kcandidate: ‘[01m[Ktemplate<class _T1, class _T2> constexpr bool std::operator<(const std::pair<_T1, _T2>&, const std::pair<_T1, _T2>&)[m[K’
[1.407s]   454 |     [01;36m[Koperator[m[K<(const pair<_T1, _T2>& __x, const pair<_T1, _T2>& __y)
[1.407s]       |     [01;36m[K^~~~~~~~[m[K
[1.408s] [01m[K/usr/include/c++/9/bits/stl_pair.h:454:5:[m[K [01;36m[Knote: [m[K  template argument deduction/substitution failed:
[1.409s] [01m[K/home/josef/AMR_ws/src/AMR_project/src/OrderOptimizer_function.cpp:111:71:[m[K [01;36m[Knote: [m[K  ‘[01m[Kstd::basic_ostream<char>[m[K’ is not derived from ‘[01m[Kconst std::pair<_T1, _T2>[m[K’
[1.410s]   111 |         std::cout<<"------------------------------------------------"<[01;36m[K""[m[K<"\n";
[1.410s]       |                                                                       [01;36m[K^~[m[K
[1.410s] In file included from [01m[K/usr/include/c++/9/bits/stl_algobase.h:67[m[K,
[1.410s]                  from [01m[K/usr/include/c++/9/memory:62[m[K,
[1.410s]                  from [01m[K/home/josef/AMR_ws/src/AMR_project/src/OrderOptimizer_function.cpp:4[m[K:
[1.411s] [01m[K/usr/include/c++/9/bits/stl_iterator.h:331:5:[m[K [01;36m[Knote: [m[Kcandidate: ‘[01m[Ktemplate<class _Iterator> constexpr bool std::operator<(const std::reverse_iterator<_Iterator>&, const std::reverse_iterator<_Iterator>&)[m[K’
[1.411s]   331 |     [01;36m[Koperator[m[K<(const reverse_iterator<_Iterator>& __x,
[1.411s]       |     [01;36m[K^~~~~~~~[m[K
[1.411s] [01m[K/usr/include/c++/9/bits/stl_iterator.h:331:5:[m[K [01;36m[Knote: [m[K  template argument deduction/substitution failed:
[1.411s] [01m[K/home/josef/AMR_ws/src/AMR_project/src/OrderOptimizer_function.cpp:111:71:[m[K [01;36m[Knote: [m[K  ‘[01m[Kstd::basic_ostream<char>[m[K’ is not derived from ‘[01m[Kconst std::reverse_iterator<_Iterator>[m[K’
[1.411s]   111 |         std::cout<<"------------------------------------------------"<[01;36m[K""[m[K<"\n";
[1.411s]       |                                                                       [01;36m[K^~[m[K
[1.411s] In file included from [01m[K/usr/include/c++/9/bits/stl_algobase.h:67[m[K,
[1.411s]                  from [01m[K/usr/include/c++/9/memory:62[m[K,
[1.411s]                  from [01m[K/home/josef/AMR_ws/src/AMR_project/src/OrderOptimizer_function.cpp:4[m[K:
[1.412s] [01m[K/usr/include/c++/9/bits/stl_iterator.h:369:5:[m[K [01;36m[Knote: [m[Kcandidate: ‘[01m[Ktemplate<class _IteratorL, class _IteratorR> constexpr bool std::operator<(const std::reverse_iterator<_Iterator>&, const std::reverse_iterator<_IteratorR>&)[m[K’
[1.412s]   369 |     [01;36m[Koperator[m[K<(const reverse_iterator<_IteratorL>& __x,
[1.412s]       |     [01;36m[K^~~~~~~~[m[K
[1.412s] [01m[K/usr/include/c++/9/bits/stl_iterator.h:369:5:[m[K [01;36m[Knote: [m[K  template argument deduction/substitution failed:
[1.412s] [01m[K/home/josef/AMR_ws/src/AMR_project/src/OrderOptimizer_function.cpp:111:71:[m[K [01;36m[Knote: [m[K  ‘[01m[Kstd::basic_ostream<char>[m[K’ is not derived from ‘[01m[Kconst std::reverse_iterator<_Iterator>[m[K’
[1.412s]   111 |         std::cout<<"------------------------------------------------"<[01;36m[K""[m[K<"\n";
[1.412s]       |                                                                       [01;36m[K^~[m[K
[1.412s] In file included from [01m[K/usr/include/c++/9/bits/stl_algobase.h:67[m[K,
[1.412s]                  from [01m[K/usr/include/c++/9/memory:62[m[K,
[1.412s]                  from [01m[K/home/josef/AMR_ws/src/AMR_project/src/OrderOptimizer_function.cpp:4[m[K:
[1.412s] [01m[K/usr/include/c++/9/bits/stl_iterator.h:1160:5:[m[K [01;36m[Knote: [m[Kcandidate: ‘[01m[Ktemplate<class _IteratorL, class _IteratorR> constexpr bool std::operator<(const std::move_iterator<_IteratorL>&, const std::move_iterator<_IteratorR>&)[m[K’
[1.413s]  1160 |     [01;36m[Koperator[m[K<(const move_iterator<_IteratorL>& __x,
[1.415s]       |     [01;36m[K^~~~~~~~[m[K
[1.415s] [01m[K/usr/include/c++/9/bits/stl_iterator.h:1160:5:[m[K [01;36m[Knote: [m[K  template argument deduction/substitution failed:
[1.415s] [01m[K/home/josef/AMR_ws/src/AMR_project/src/OrderOptimizer_function.cpp:111:71:[m[K [01;36m[Knote: [m[K  ‘[01m[Kstd::basic_ostream<char>[m[K’ is not derived from ‘[01m[Kconst std::move_iterator<_IteratorL>[m[K’
[1.415s]   111 |         std::cout<<"------------------------------------------------"<[01;36m[K""[m[K<"\n";
[1.416s]       |                                                                       [01;36m[K^~[m[K
[1.416s] In file included from [01m[K/usr/include/c++/9/bits/stl_algobase.h:67[m[K,
[1.416s]                  from [01m[K/usr/include/c++/9/memory:62[m[K,
[1.417s]                  from [01m[K/home/josef/AMR_ws/src/AMR_project/src/OrderOptimizer_function.cpp:4[m[K:
[1.417s] [01m[K/usr/include/c++/9/bits/stl_iterator.h:1166:5:[m[K [01;36m[Knote: [m[Kcandidate: ‘[01m[Ktemplate<class _Iterator> constexpr bool std::operator<(const std::move_iterator<_IteratorL>&, const std::move_iterator<_IteratorL>&)[m[K’
[1.417s]  1166 |     [01;36m[Koperator[m[K<(const move_iterator<_Iterator>& __x,
[1.417s]       |     [01;36m[K^~~~~~~~[m[K
[1.417s] [01m[K/usr/include/c++/9/bits/stl_iterator.h:1166:5:[m[K [01;36m[Knote: [m[K  template argument deduction/substitution failed:
[1.417s] [01m[K/home/josef/AMR_ws/src/AMR_project/src/OrderOptimizer_function.cpp:111:71:[m[K [01;36m[Knote: [m[K  ‘[01m[Kstd::basic_ostream<char>[m[K’ is not derived from ‘[01m[Kconst std::move_iterator<_IteratorL>[m[K’
[1.417s]   111 |         std::cout<<"------------------------------------------------"<[01;36m[K""[m[K<"\n";
[1.417s]       |                                                                       [01;36m[K^~[m[K
[1.417s] In file included from [01m[K/usr/include/c++/9/bits/basic_string.h:48[m[K,
[1.417s]                  from [01m[K/usr/include/c++/9/string:55[m[K,
[1.417s]                  from [01m[K/usr/include/c++/9/stdexcept:39[m[K,
[1.417s]                  from [01m[K/usr/include/c++/9/array:39[m[K,
[1.417s]                  from [01m[K/usr/include/c++/9/tuple:39[m[K,
[1.417s]                  from [01m[K/usr/include/c++/9/bits/unique_ptr.h:37[m[K,
[1.418s]                  from [01m[K/usr/include/c++/9/memory:80[m[K,
[1.418s]                  from [01m[K/home/josef/AMR_ws/src/AMR_project/src/OrderOptimizer_function.cpp:4[m[K:
[1.418s] [01m[K/usr/include/c++/9/string_view:507:5:[m[K [01;36m[Knote: [m[Kcandidate: ‘[01m[Ktemplate<class _CharT, class _Traits> constexpr bool std::operator<(std::basic_string_view<_CharT, _Traits>, std::basic_string_view<_CharT, _Traits>)[m[K’
[1.418s]   507 |     [01;36m[Koperator[m[K< (basic_string_view<_CharT, _Traits> __x,
[1.418s]       |     [01;36m[K^~~~~~~~[m[K
[1.418s] [01m[K/usr/include/c++/9/string_view:507:5:[m[K [01;36m[Knote: [m[K  template argument deduction/substitution failed:
[1.418s] [01m[K/home/josef/AMR_ws/src/AMR_project/src/OrderOptimizer_function.cpp:111:71:[m[K [01;36m[Knote: [m[K  ‘[01m[Kstd::basic_ostream<char>[m[K’ is not derived from ‘[01m[Kstd::basic_string_view<_CharT, _Traits>[m[K’
[1.418s]   111 |         std::cout<<"------------------------------------------------"<[01;36m[K""[m[K<"\n";
[1.418s]       |                                                                       [01;36m[K^~[m[K
[1.418s] In file included from [01m[K/usr/include/c++/9/bits/basic_string.h:48[m[K,
[1.418s]                  from [01m[K/usr/include/c++/9/string:55[m[K,
[1.418s]                  from [01m[K/usr/include/c++/9/stdexcept:39[m[K,
[1.418s]                  from [01m[K/usr/include/c++/9/array:39[m[K,
[1.418s]                  from [01m[K/usr/include/c++/9/tuple:39[m[K,
[1.418s]                  from [01m[K/usr/include/c++/9/bits/unique_ptr.h:37[m[K,
[1.418s]                  from [01m[K/usr/include/c++/9/memory:80[m[K,
[1.418s]                  from [01m[K/home/josef/AMR_ws/src/AMR_project/src/OrderOptimizer_function.cpp:4[m[K:
[1.418s] [01m[K/usr/include/c++/9/string_view:513:5:[m[K [01;36m[Knote: [m[Kcandidate: ‘[01m[Ktemplate<class _CharT, class _Traits> constexpr bool std::operator<(std::basic_string_view<_CharT, _Traits>, std::__detail::__idt<std::basic_string_view<_CharT, _Traits> >)[m[K’
[1.418s]   513 |     [01;36m[Koperator[m[K< (basic_string_view<_CharT, _Traits> __x,
[1.418s]       |     [01;36m[K^~~~~~~~[m[K
[1.418s] [01m[K/usr/include/c++/9/string_view:513:5:[m[K [01;36m[Knote: [m[K  template argument deduction/substitution failed:
[1.418s] [01m[K/home/josef/AMR_ws/src/AMR_project/src/OrderOptimizer_function.cpp:111:71:[m[K [01;36m[Knote: [m[K  ‘[01m[Kstd::basic_ostream<char>[m[K’ is not derived from ‘[01m[Kstd::basic_string_view<_CharT, _Traits>[m[K’
[1.418s]   111 |         std::cout<<"------------------------------------------------"<[01;36m[K""[m[K<"\n";
[1.419s]       |                                                                       [01;36m[K^~[m[K
[1.419s] In file included from [01m[K/usr/include/c++/9/bits/basic_string.h:48[m[K,
[1.419s]                  from [01m[K/usr/include/c++/9/string:55[m[K,
[1.419s]                  from [01m[K/usr/include/c++/9/stdexcept:39[m[K,
[1.419s]                  from [01m[K/usr/include/c++/9/array:39[m[K,
[1.419s]                  from [01m[K/usr/include/c++/9/tuple:39[m[K,
[1.419s]                  from [01m[K/usr/include/c++/9/bits/unique_ptr.h:37[m[K,
[1.419s]                  from [01m[K/usr/include/c++/9/memory:80[m[K,
[1.419s]                  from [01m[K/home/josef/AMR_ws/src/AMR_project/src/OrderOptimizer_function.cpp:4[m[K:
[1.419s] [01m[K/usr/include/c++/9/string_view:519:5:[m[K [01;36m[Knote: [m[Kcandidate: ‘[01m[Ktemplate<class _CharT, class _Traits> constexpr bool std::operator<(std::__detail::__idt<std::basic_string_view<_CharT, _Traits> >, std::basic_string_view<_CharT, _Traits>)[m[K’
[1.419s]   519 |     [01;36m[Koperator[m[K< (__detail::__idt<basic_string_view<_CharT, _Traits>> __x,
[1.419s]       |     [01;36m[K^~~~~~~~[m[K
[1.419s] [01m[K/usr/include/c++/9/string_view:519:5:[m[K [01;36m[Knote: [m[K  template argument deduction/substitution failed:
[1.419s] [01m[K/home/josef/AMR_ws/src/AMR_project/src/OrderOptimizer_function.cpp:111:71:[m[K [01;36m[Knote: [m[K  mismatched types ‘[01m[Kstd::basic_string_view<_CharT, _Traits>[m[K’ and ‘[01m[Kconst char*[m[K’
[1.419s]   111 |         std::cout<<"------------------------------------------------"<[01;36m[K""[m[K<"\n";
[1.419s]       |                                                                       [01;36m[K^~[m[K
[1.419s] In file included from [01m[K/usr/include/c++/9/string:55[m[K,
[1.419s]                  from [01m[K/usr/include/c++/9/stdexcept:39[m[K,
[1.419s]                  from [01m[K/usr/include/c++/9/array:39[m[K,
[1.419s]                  from [01m[K/usr/include/c++/9/tuple:39[m[K,
[1.419s]                  from [01m[K/usr/include/c++/9/bits/unique_ptr.h:37[m[K,
[1.419s]                  from [01m[K/usr/include/c++/9/memory:80[m[K,
[1.419s]                  from [01m[K/home/josef/AMR_ws/src/AMR_project/src/OrderOptimizer_function.cpp:4[m[K:
[1.420s] [01m[K/usr/include/c++/9/bits/basic_string.h:6229:5:[m[K [01;36m[Knote: [m[Kcandidate: ‘[01m[Ktemplate<class _CharT, class _Traits, class _Alloc> bool std::operator<(const std::__cxx11::basic_string<_CharT, _Traits, _Allocator>&, const std::__cxx11::basic_string<_CharT, _Traits, _Allocator>&)[m[K’
[1.420s]  6229 |     [01;36m[Koperator[m[K<(const basic_string<_CharT, _Traits, _Alloc>& __lhs,
[1.420s]       |     [01;36m[K^~~~~~~~[m[K
[1.420s] [01m[K/usr/include/c++/9/bits/basic_string.h:6229:5:[m[K [01;36m[Knote: [m[K  template argument deduction/substitution failed:
[1.420s] [01m[K/home/josef/AMR_ws/src/AMR_project/src/OrderOptimizer_function.cpp:111:71:[m[K [01;36m[Knote: [m[K  ‘[01m[Kstd::basic_ostream<char>[m[K’ is not derived from ‘[01m[Kconst std::__cxx11::basic_string<_CharT, _Traits, _Allocator>[m[K’
[1.420s]   111 |         std::cout<<"------------------------------------------------"<[01;36m[K""[m[K<"\n";
[1.420s]       |                                                                       [01;36m[K^~[m[K
[1.420s] In file included from [01m[K/usr/include/c++/9/string:55[m[K,
[1.420s]                  from [01m[K/usr/include/c++/9/stdexcept:39[m[K,
[1.420s]                  from [01m[K/usr/include/c++/9/array:39[m[K,
[1.420s]                  from [01m[K/usr/include/c++/9/tuple:39[m[K,
[1.420s]                  from [01m[K/usr/include/c++/9/bits/unique_ptr.h:37[m[K,
[1.420s]                  from [01m[K/usr/include/c++/9/memory:80[m[K,
[1.420s]                  from [01m[K/home/josef/AMR_ws/src/AMR_project/src/OrderOptimizer_function.cpp:4[m[K:
[1.420s] [01m[K/usr/include/c++/9/bits/basic_string.h:6242:5:[m[K [01;36m[Knote: [m[Kcandidate: ‘[01m[Ktemplate<class _CharT, class _Traits, class _Alloc> bool std::operator<(const std::__cxx11::basic_string<_CharT, _Traits, _Allocator>&, const _CharT*)[m[K’
[1.420s]  6242 |     [01;36m[Koperator[m[K<(const basic_string<_CharT, _Traits, _Alloc>& __lhs,
[1.420s]       |     [01;36m[K^~~~~~~~[m[K
[1.420s] [01m[K/usr/include/c++/9/bits/basic_string.h:6242:5:[m[K [01;36m[Knote: [m[K  template argument deduction/substitution failed:
[1.420s] [01m[K/home/josef/AMR_ws/src/AMR_project/src/OrderOptimizer_function.cpp:111:71:[m[K [01;36m[Knote: [m[K  ‘[01m[Kstd::basic_ostream<char>[m[K’ is not derived from ‘[01m[Kconst std::__cxx11::basic_string<_CharT, _Traits, _Allocator>[m[K’
[1.420s]   111 |         std::cout<<"------------------------------------------------"<[01;36m[K""[m[K<"\n";
[1.420s]       |                                                                       [01;36m[K^~[m[K
[1.420s] In file included from [01m[K/usr/include/c++/9/string:55[m[K,
[1.420s]                  from [01m[K/usr/include/c++/9/stdexcept:39[m[K,
[1.421s]                  from [01m[K/usr/include/c++/9/array:39[m[K,
[1.421s]                  from [01m[K/usr/include/c++/9/tuple:39[m[K,
[1.421s]                  from [01m[K/usr/include/c++/9/bits/unique_ptr.h:37[m[K,
[1.421s]                  from [01m[K/usr/include/c++/9/memory:80[m[K,
[1.421s]                  from [01m[K/home/josef/AMR_ws/src/AMR_project/src/OrderOptimizer_function.cpp:4[m[K:
[1.421s] [01m[K/usr/include/c++/9/bits/basic_string.h:6254:5:[m[K [01;36m[Knote: [m[Kcandidate: ‘[01m[Ktemplate<class _CharT, class _Traits, class _Alloc> bool std::operator<(const _CharT*, const std::__cxx11::basic_string<_CharT, _Traits, _Allocator>&)[m[K’
[1.421s]  6254 |     [01;36m[Koperator[m[K<(const _CharT* __lhs,
[1.421s]       |     [01;36m[K^~~~~~~~[m[K
[1.421s] [01m[K/usr/include/c++/9/bits/basic_string.h:6254:5:[m[K [01;36m[Knote: [m[K  template argument deduction/substitution failed:
[1.421s] [01m[K/home/josef/AMR_ws/src/AMR_project/src/OrderOptimizer_function.cpp:111:71:[m[K [01;36m[Knote: [m[K  mismatched types ‘[01m[Kconst _CharT*[m[K’ and ‘[01m[Kstd::basic_ostream<char>[m[K’
[1.421s]   111 |         std::cout<<"------------------------------------------------"<[01;36m[K""[m[K<"\n";
[1.421s]       |                                                                       [01;36m[K^~[m[K
[1.421s] In file included from [01m[K/usr/include/c++/9/tuple:39[m[K,
[1.421s]                  from [01m[K/usr/include/c++/9/bits/unique_ptr.h:37[m[K,
[1.421s]                  from [01m[K/usr/include/c++/9/memory:80[m[K,
[1.421s]                  from [01m[K/home/josef/AMR_ws/src/AMR_project/src/OrderOptimizer_function.cpp:4[m[K:
[1.421s] [01m[K/usr/include/c++/9/array:262:5:[m[K [01;36m[Knote: [m[Kcandidate: ‘[01m[Ktemplate<class _Tp, long unsigned int _Nm> bool std::operator<(const std::array<_Tp, _Nm>&, const std::array<_Tp, _Nm>&)[m[K’
[1.421s]   262 |     [01;36m[Koperator[m[K<(const array<_Tp, _Nm>& __a, const array<_Tp, _Nm>& __b)
[1.421s]       |     [01;36m[K^~~~~~~~[m[K
[1.421s] [01m[K/usr/include/c++/9/array:262:5:[m[K [01;36m[Knote: [m[K  template argument deduction/substitution failed:
[1.421s] [01m[K/home/josef/AMR_ws/src/AMR_project/src/OrderOptimizer_function.cpp:111:71:[m[K [01;36m[Knote: [m[K  ‘[01m[Kstd::basic_ostream<char>[m[K’ is not derived from ‘[01m[Kconst std::array<_Tp, _Nm>[m[K’
[1.421s]   111 |         std::cout<<"------------------------------------------------"<[01;36m[K""[m[K<"\n";
[1.421s]       |                                                                       [01;36m[K^~[m[K
[1.421s] In file included from [01m[K/usr/include/c++/9/bits/unique_ptr.h:37[m[K,
[1.422s]                  from [01m[K/usr/include/c++/9/memory:80[m[K,
[1.422s]                  from [01m[K/home/josef/AMR_ws/src/AMR_project/src/OrderOptimizer_function.cpp:4[m[K:
[1.422s] [01m[K/usr/include/c++/9/tuple:1432:5:[m[K [01;36m[Knote: [m[Kcandidate: ‘[01m[Ktemplate<class ... _TElements, class ... _UElements> constexpr bool std::operator<(const std::tuple<_Tps ...>&, const std::tuple<_Elements ...>&)[m[K’
[1.422s]  1432 |     [01;36m[Koperator[m[K<(const tuple<_TElements...>& __t,
[1.422s]       |     [01;36m[K^~~~~~~~[m[K
[1.422s] [01m[K/usr/include/c++/9/tuple:1432:5:[m[K [01;36m[Knote: [m[K  template argument deduction/substitution failed:
[1.422s] [01m[K/home/josef/AMR_ws/src/AMR_project/src/OrderOptimizer_function.cpp:111:71:[m[K [01;36m[Knote: [m[K  ‘[01m[Kstd::basic_ostream<char>[m[K’ is not derived from ‘[01m[Kconst std::tuple<_Tps ...>[m[K’
[1.422s]   111 |         std::cout<<"------------------------------------------------"<[01;36m[K""[m[K<"\n";
[1.422s]       |                                                                       [01;36m[K^~[m[K
[1.422s] In file included from [01m[K/usr/include/c++/9/memory:80[m[K,
[1.422s]                  from [01m[K/home/josef/AMR_ws/src/AMR_project/src/OrderOptimizer_function.cpp:4[m[K:
[1.422s] [01m[K/usr/include/c++/9/bits/unique_ptr.h:749:5:[m[K [01;36m[Knote: [m[Kcandidate: ‘[01m[Ktemplate<class _Tp, class _Dp, class _Up, class _Ep> bool std::operator<(const std::unique_ptr<_Tp, _Dp>&, const std::unique_ptr<_Up, _Ep>&)[m[K’
[1.422s]   749 |     [01;36m[Koperator[m[K<(const unique_ptr<_Tp, _Dp>& __x,
[1.422s]       |     [01;36m[K^~~~~~~~[m[K
[1.422s] [01m[K/usr/include/c++/9/bits/unique_ptr.h:749:5:[m[K [01;36m[Knote: [m[K  template argument deduction/substitution failed:
[1.422s] [01m[K/home/josef/AMR_ws/src/AMR_project/src/OrderOptimizer_function.cpp:111:71:[m[K [01;36m[Knote: [m[K  ‘[01m[Kstd::basic_ostream<char>[m[K’ is not derived from ‘[01m[Kconst std::unique_ptr<_Tp, _Dp>[m[K’
[1.423s]   111 |         std::cout<<"------------------------------------------------"<[01;36m[K""[m[K<"\n";
[1.423s]       |                                                                       [01;36m[K^~[m[K
[1.423s] In file included from [01m[K/usr/include/c++/9/memory:80[m[K,
[1.423s]                  from [01m[K/home/josef/AMR_ws/src/AMR_project/src/OrderOptimizer_function.cpp:4[m[K:
[1.423s] [01m[K/usr/include/c++/9/bits/unique_ptr.h:760:5:[m[K [01;36m[Knote: [m[Kcandidate: ‘[01m[Ktemplate<class _Tp, class _Dp> bool std::operator<(const std::unique_ptr<_Tp, _Dp>&, std::nullptr_t)[m[K’
[1.423s]   760 |     [01;36m[Koperator[m[K<(const unique_ptr<_Tp, _Dp>& __x, nullptr_t)
[1.423s]       |     [01;36m[K^~~~~~~~[m[K
[1.423s] [01m[K/usr/include/c++/9/bits/unique_ptr.h:760:5:[m[K [01;36m[Knote: [m[K  template argument deduction/substitution failed:
[1.423s] [01m[K/home/josef/AMR_ws/src/AMR_project/src/OrderOptimizer_function.cpp:111:71:[m[K [01;36m[Knote: [m[K  ‘[01m[Kstd::basic_ostream<char>[m[K’ is not derived from ‘[01m[Kconst std::unique_ptr<_Tp, _Dp>[m[K’
[1.423s]   111 |         std::cout<<"------------------------------------------------"<[01;36m[K""[m[K<"\n";
[1.423s]       |                                                                       [01;36m[K^~[m[K
[1.423s] In file included from [01m[K/usr/include/c++/9/memory:80[m[K,
[1.423s]                  from [01m[K/home/josef/AMR_ws/src/AMR_project/src/OrderOptimizer_function.cpp:4[m[K:
[1.423s] [01m[K/usr/include/c++/9/bits/unique_ptr.h:766:5:[m[K [01;36m[Knote: [m[Kcandidate: ‘[01m[Ktemplate<class _Tp, class _Dp> bool std::operator<(std::nullptr_t, const std::unique_ptr<_Tp, _Dp>&)[m[K’
[1.423s]   766 |     [01;36m[Koperator[m[K<(nullptr_t, const unique_ptr<_Tp, _Dp>& __x)
[1.423s]       |     [01;36m[K^~~~~~~~[m[K
[1.423s] [01m[K/usr/include/c++/9/bits/unique_ptr.h:766:5:[m[K [01;36m[Knote: [m[K  template argument deduction/substitution failed:
[1.423s] [01m[K/home/josef/AMR_ws/src/AMR_project/src/OrderOptimizer_function.cpp:111:71:[m[K [01;36m[Knote: [m[K  mismatched types ‘[01m[Kconst std::unique_ptr<_Tp, _Dp>[m[K’ and ‘[01m[Kconst char [1][m[K’
[1.423s]   111 |         std::cout<<"------------------------------------------------"<[01;36m[K""[m[K<"\n";
[1.423s]       |                                                                       [01;36m[K^~[m[K
[1.423s] In file included from [01m[K/usr/include/c++/9/bits/shared_ptr.h:52[m[K,
[1.423s]                  from [01m[K/usr/include/c++/9/memory:81[m[K,
[1.423s]                  from [01m[K/home/josef/AMR_ws/src/AMR_project/src/OrderOptimizer_function.cpp:4[m[K:
[1.424s] [01m[K/usr/include/c++/9/bits/shared_ptr_base.h:1444:5:[m[K [01;36m[Knote: [m[Kcandidate: ‘[01m[Ktemplate<class _Tp, class _Up, __gnu_cxx::_Lock_policy _Lp> bool std::operator<(const std::__shared_ptr<_Tp1, _Lp>&, const std::__shared_ptr<_Tp2, _Lp>&)[m[K’
[1.424s]  1444 |     [01;36m[Koperator[m[K<(const __shared_ptr<_Tp, _Lp>& __a,
[1.424s]       |     [01;36m[K^~~~~~~~[m[K
[1.424s] [01m[K/usr/include/c++/9/bits/shared_ptr_base.h:1444:5:[m[K [01;36m[Knote: [m[K  template argument deduction/substitution failed:
[1.424s] [01m[K/home/josef/AMR_ws/src/AMR_project/src/OrderOptimizer_function.cpp:111:71:[m[K [01;36m[Knote: [m[K  ‘[01m[Kstd::basic_ostream<char>[m[K’ is not derived from ‘[01m[Kconst std::__shared_ptr<_Tp1, _Lp>[m[K’
[1.424s]   111 |         std::cout<<"------------------------------------------------"<[01;36m[K""[m[K<"\n";
[1.424s]       |                                                                       [01;36m[K^~[m[K
[1.424s] In file included from [01m[K/usr/include/c++/9/bits/shared_ptr.h:52[m[K,
[1.425s]                  from [01m[K/usr/include/c++/9/memory:81[m[K,
[1.425s]                  from [01m[K/home/josef/AMR_ws/src/AMR_project/src/OrderOptimizer_function.cpp:4[m[K:
[1.425s] [01m[K/usr/include/c++/9/bits/shared_ptr_base.h:1455:5:[m[K [01;36m[Knote: [m[Kcandidate: ‘[01m[Ktemplate<class _Tp, __gnu_cxx::_Lock_policy _Lp> bool std::operator<(const std::__shared_ptr<_Tp, _Lp>&, std::nullptr_t)[m[K’
[1.425s]  1455 |     [01;36m[Koperator[m[K<(const __shared_ptr<_Tp, _Lp>& __a, nullptr_t) noexcept
[1.425s]       |     [01;36m[K^~~~~~~~[m[K
[1.425s] [01m[K/usr/include/c++/9/bits/shared_ptr_base.h:1455:5:[m[K [01;36m[Knote: [m[K  template argument deduction/substitution failed:
[1.425s] [01m[K/home/josef/AMR_ws/src/AMR_project/src/OrderOptimizer_function.cpp:111:71:[m[K [01;36m[Knote: [m[K  ‘[01m[Kstd::basic_ostream<char>[m[K’ is not derived from ‘[01m[Kconst std::__shared_ptr<_Tp, _Lp>[m[K’
[1.425s]   111 |         std::cout<<"------------------------------------------------"<[01;36m[K""[m[K<"\n";
[1.425s]       |                                                                       [01;36m[K^~[m[K
[1.425s] In file included from [01m[K/usr/include/c++/9/bits/shared_ptr.h:52[m[K,
[1.425s]                  from [01m[K/usr/include/c++/9/memory:81[m[K,
[1.425s]                  from [01m[K/home/josef/AMR_ws/src/AMR_project/src/OrderOptimizer_function.cpp:4[m[K:
[1.425s] [01m[K/usr/include/c++/9/bits/shared_ptr_base.h:1463:5:[m[K [01;36m[Knote: [m[Kcandidate: ‘[01m[Ktemplate<class _Tp, __gnu_cxx::_Lock_policy _Lp> bool std::operator<(std::nullptr_t, const std::__shared_ptr<_Tp, _Lp>&)[m[K’
[1.425s]  1463 |     [01;36m[Koperator[m[K<(nullptr_t, const __shared_ptr<_Tp, _Lp>& __a) noexcept
[1.425s]       |     [01;36m[K^~~~~~~~[m[K
[1.425s] [01m[K/usr/include/c++/9/bits/shared_ptr_base.h:1463:5:[m[K [01;36m[Knote: [m[K  template argument deduction/substitution failed:
[1.425s] [01m[K/home/josef/AMR_ws/src/AMR_project/src/OrderOptimizer_function.cpp:111:71:[m[K [01;36m[Knote: [m[K  mismatched types ‘[01m[Kconst std::__shared_ptr<_Tp, _Lp>[m[K’ and ‘[01m[Kconst char [1][m[K’
[1.425s]   111 |         std::cout<<"------------------------------------------------"<[01;36m[K""[m[K<"\n";
[1.425s]       |                                                                       [01;36m[K^~[m[K
[1.425s] In file included from [01m[K/usr/include/c++/9/memory:81[m[K,
[1.425s]                  from [01m[K/home/josef/AMR_ws/src/AMR_project/src/OrderOptimizer_function.cpp:4[m[K:
[1.425s] [01m[K/usr/include/c++/9/bits/shared_ptr.h:413:5:[m[K [01;36m[Knote: [m[Kcandidate: ‘[01m[Ktemplate<class _Tp, class _Up> bool std::operator<(const std::shared_ptr<_Tp>&, const std::shared_ptr<_Tp>&)[m[K’
[1.426s]   413 |     [01;36m[Koperator[m[K<(const shared_ptr<_Tp>& __a, const shared_ptr<_Up>& __b) noexcept
[1.426s]       |     [01;36m[K^~~~~~~~[m[K
[1.426s] [01m[K/usr/include/c++/9/bits/shared_ptr.h:413:5:[m[K [01;36m[Knote: [m[K  template argument deduction/substitution failed:
[1.426s] [01m[K/home/josef/AMR_ws/src/AMR_project/src/OrderOptimizer_function.cpp:111:71:[m[K [01;36m[Knote: [m[K  ‘[01m[Kstd::basic_ostream<char>[m[K’ is not derived from ‘[01m[Kconst std::shared_ptr<_Tp>[m[K’
[1.426s]   111 |         std::cout<<"------------------------------------------------"<[01;36m[K""[m[K<"\n";
[1.426s]       |                                                                       [01;36m[K^~[m[K
[1.426s] In file included from [01m[K/usr/include/c++/9/memory:81[m[K,
[1.426s]                  from [01m[K/home/josef/AMR_ws/src/AMR_project/src/OrderOptimizer_function.cpp:4[m[K:
[1.426s] [01m[K/usr/include/c++/9/bits/shared_ptr.h:423:5:[m[K [01;36m[Knote: [m[Kcandidate: ‘[01m[Ktemplate<class _Tp> bool std::operator<(const std::shared_ptr<_Tp>&, std::nullptr_t)[m[K’
[1.426s]   423 |     [01;36m[Koperator[m[K<(const shared_ptr<_Tp>& __a, nullptr_t) noexcept
[1.426s]       |     [01;36m[K^~~~~~~~[m[K
[1.426s] [01m[K/usr/include/c++/9/bits/shared_ptr.h:423:5:[m[K [01;36m[Knote: [m[K  template argument deduction/substitution failed:
[1.426s] [01m[K/home/josef/AMR_ws/src/AMR_project/src/OrderOptimizer_function.cpp:111:71:[m[K [01;36m[Knote: [m[K  ‘[01m[Kstd::basic_ostream<char>[m[K’ is not derived from ‘[01m[Kconst std::shared_ptr<_Tp>[m[K’
[1.426s]   111 |         std::cout<<"------------------------------------------------"<[01;36m[K""[m[K<"\n";
[1.426s]       |                                                                       [01;36m[K^~[m[K
[1.426s] In file included from [01m[K/usr/include/c++/9/memory:81[m[K,
[1.426s]                  from [01m[K/home/josef/AMR_ws/src/AMR_project/src/OrderOptimizer_function.cpp:4[m[K:
[1.426s] [01m[K/usr/include/c++/9/bits/shared_ptr.h:431:5:[m[K [01;36m[Knote: [m[Kcandidate: ‘[01m[Ktemplate<class _Tp> bool std::operator<(std::nullptr_t, const std::shared_ptr<_Tp>&)[m[K’
[1.426s]   431 |     [01;36m[Koperator[m[K<(nullptr_t, const shared_ptr<_Tp>& __a) noexcept
[1.426s]       |     [01;36m[K^~~~~~~~[m[K
[1.426s] [01m[K/usr/include/c++/9/bits/shared_ptr.h:431:5:[m[K [01;36m[Knote: [m[K  template argument deduction/substitution failed:
[1.426s] [01m[K/home/josef/AMR_ws/src/AMR_project/src/OrderOptimizer_function.cpp:111:71:[m[K [01;36m[Knote: [m[K  mismatched types ‘[01m[Kconst std::shared_ptr<_Tp>[m[K’ and ‘[01m[Kconst char [1][m[K’
[1.426s]   111 |         std::cout<<"------------------------------------------------"<[01;36m[K""[m[K<"\n";
[1.427s]       |                                                                       [01;36m[K^~[m[K
[1.427s] In file included from [01m[K/usr/include/c++/9/bits/ios_base.h:46[m[K,
[1.427s]                  from [01m[K/usr/include/c++/9/ios:42[m[K,
[1.427s]                  from [01m[K/usr/include/c++/9/ostream:38[m[K,
[1.427s]                  from [01m[K/usr/include/c++/9/iostream:39[m[K,
[1.427s]                  from [01m[K/home/josef/AMR_ws/src/AMR_project/src/OrderOptimizer_function.cpp:5[m[K:
[1.427s] [01m[K/usr/include/c++/9/system_error:208:3:[m[K [01;36m[Knote: [m[Kcandidate: ‘[01m[Kbool std::operator<(const std::error_code&, const std::error_code&)[m[K’
[1.427s]   208 |   [01;36m[Koperator[m[K<(const error_code& __lhs, const error_code& __rhs) noexcept
[1.427s]       |   [01;36m[K^~~~~~~~[m[K
[1.427s] [01m[K/usr/include/c++/9/system_error:208:31:[m[K [01;36m[Knote: [m[K  no known conversion for argument 1 from ‘[01m[Kstd::basic_ostream<char>[m[K’ to ‘[01m[Kconst std::error_code&[m[K’
[1.427s]   208 |   operator<([01;36m[Kconst error_code& __lhs[m[K, const error_code& __rhs) noexcept
[1.427s]       |             [01;36m[K~~~~~~~~~~~~~~~~~~^~~~~[m[K
[1.427s] [01m[K/usr/include/c++/9/system_error:282:3:[m[K [01;36m[Knote: [m[Kcandidate: ‘[01m[Kbool std::operator<(const std::error_condition&, const std::error_condition&)[m[K’
[1.427s]   282 |   [01;36m[Koperator[m[K<(const error_condition& __lhs,
[1.427s]       |   [01;36m[K^~~~~~~~[m[K
[1.427s] [01m[K/usr/include/c++/9/system_error:282:36:[m[K [01;36m[Knote: [m[K  no known conversion for argument 1 from ‘[01m[Kstd::basic_ostream<char>[m[K’ to ‘[01m[Kconst std::error_condition&[m[K’
[1.427s]   282 |   operator<([01;36m[Kconst error_condition& __lhs[m[K,
[1.427s]       |             [01;36m[K~~~~~~~~~~~~~~~~~~~~~~~^~~~~[m[K
[1.427s] In file included from [01m[K/usr/include/c++/9/vector:67[m[K,
[1.427s]                  from [01m[K/home/josef/AMR_ws/src/AMR_project/src/OrderOptimizer_function.cpp:8[m[K:
[1.427s] [01m[K/usr/include/c++/9/bits/stl_vector.h:1905:5:[m[K [01;36m[Knote: [m[Kcandidate: ‘[01m[Ktemplate<class _Tp, class _Alloc> bool std::operator<(const std::vector<_Tp, _Alloc>&, const std::vector<_Tp, _Alloc>&)[m[K’
[1.427s]  1905 |     [01;36m[Koperator[m[K<(const vector<_Tp, _Alloc>& __x, const vector<_Tp, _Alloc>& __y)
[1.427s]       |     [01;36m[K^~~~~~~~[m[K
[1.427s] [01m[K/usr/include/c++/9/bits/stl_vector.h:1905:5:[m[K [01;36m[Knote: [m[K  template argument deduction/substitution failed:
[1.428s] [01m[K/home/josef/AMR_ws/src/AMR_project/src/OrderOptimizer_function.cpp:111:71:[m[K [01;36m[Knote: [m[K  ‘[01m[Kstd::basic_ostream<char>[m[K’ is not derived from ‘[01m[Kconst std::vector<_Tp, _Alloc>[m[K’
[1.428s]   111 |         std::cout<<"------------------------------------------------"<[01;36m[K""[m[K<"\n";
[1.428s]       |                                                                       [01;36m[K^~[m[K
[1.428s] In file included from [01m[K/home/josef/AMR_ws/src/AMR_project/src/OrderOptimizer_function.cpp:10[m[K:
[1.428s] [01m[K/usr/include/c++/9/thread:290:3:[m[K [01;36m[Knote: [m[Kcandidate: ‘[01m[Kbool std::operator<(std::thread::id, std::thread::id)[m[K’
[1.428s]   290 |   [01;36m[Koperator[m[K<(thread::id __x, thread::id __y) noexcept
[1.428s]       |   [01;36m[K^~~~~~~~[m[K
[1.428s] [01m[K/usr/include/c++/9/thread:290:24:[m[K [01;36m[Knote: [m[K  no known conversion for argument 1 from ‘[01m[Kstd::basic_ostream<char>[m[K’ to ‘[01m[Kstd::thread::id[m[K’
[1.428s]   290 |   operator<([01;36m[Kthread::id __x[m[K, thread::id __y) noexcept
[1.428s]       |             [01;36m[K~~~~~~~~~~~^~~[m[K
[1.428s] In file included from [01m[K/usr/include/c++/9/bits/node_handle.h:39[m[K,
[1.428s]                  from [01m[K/usr/include/c++/9/bits/stl_tree.h:72[m[K,
[1.428s]                  from [01m[K/usr/include/c++/9/set:60[m[K,
[1.428s]                  from [01m[K/opt/ros/foxy/include/rclcpp/executors/multi_threaded_executor.hpp:21[m[K,
[1.428s]                  from [01m[K/opt/ros/foxy/include/rclcpp/executors.hpp:21[m[K,
[1.428s]                  from [01m[K/opt/ros/foxy/include/rclcpp/rclcpp.hpp:146[m[K,
[1.429s]                  from [01m[K/home/josef/AMR_ws/src/AMR_project/src/OrderOptimizer_function.cpp:12[m[K:
[1.429s] [01m[K/usr/include/c++/9/optional:1001:5:[m[K [01;36m[Knote: [m[Kcandidate: ‘[01m[Ktemplate<class _Tp, class _Up> constexpr std::__optional_relop_t<decltype ((declval<_Tp>() < declval<_Up>()))> std::operator<(const std::optional<_Tp>&, const std::optional<_Up>&)[m[K’
[1.429s]  1001 |     [01;36m[Koperator[m[K<(const optional<_Tp>& __lhs, const optional<_Up>& __rhs)
[1.429s]       |     [01;36m[K^~~~~~~~[m[K
[1.429s] [01m[K/usr/include/c++/9/optional:1001:5:[m[K [01;36m[Knote: [m[K  template argument deduction/substitution failed:
[1.429s] [01m[K/home/josef/AMR_ws/src/AMR_project/src/OrderOptimizer_function.cpp:111:71:[m[K [01;36m[Knote: [m[K  ‘[01m[Kstd::basic_ostream<char>[m[K’ is not derived from ‘[01m[Kconst std::optional<_Tp>[m[K’
[1.429s]   111 |         std::cout<<"------------------------------------------------"<[01;36m[K""[m[K<"\n";
[1.429s]       |                                                                       [01;36m[K^~[m[K
[1.429s] In file included from [01m[K/usr/include/c++/9/bits/node_handle.h:39[m[K,
[1.429s]                  from [01m[K/usr/include/c++/9/bits/stl_tree.h:72[m[K,
[1.429s]                  from [01m[K/usr/include/c++/9/set:60[m[K,
[1.429s]                  from [01m[K/opt/ros/foxy/include/rclcpp/executors/multi_threaded_executor.hpp:21[m[K,
[1.429s]                  from [01m[K/opt/ros/foxy/include/rclcpp/executors.hpp:21[m[K,
[1.429s]                  from [01m[K/opt/ros/foxy/include/rclcpp/rclcpp.hpp:146[m[K,
[1.429s]                  from [01m[K/home/josef/AMR_ws/src/AMR_project/src/OrderOptimizer_function.cpp:12[m[K:
[1.429s] [01m[K/usr/include/c++/9/optional:1054:5:[m[K [01;36m[Knote: [m[Kcandidate: ‘[01m[Ktemplate<class _Tp> constexpr bool std::operator<(const std::optional<_Tp>&, std::nullopt_t)[m[K’
[1.429s]  1054 |     [01;36m[Koperator[m[K<(const optional<_Tp>& /* __lhs */, nullopt_t) noexcept
[1.429s]       |     [01;36m[K^~~~~~~~[m[K
[1.429s] [01m[K/usr/include/c++/9/optional:1054:5:[m[K [01;36m[Knote: [m[K  template argument deduction/substitution failed:
[1.429s] [01m[K/home/josef/AMR_ws/src/AMR_project/src/OrderOptimizer_function.cpp:111:71:[m[K [01;36m[Knote: [m[K  ‘[01m[Kstd::basic_ostream<char>[m[K’ is not derived from ‘[01m[Kconst std::optional<_Tp>[m[K’
[1.429s]   111 |         std::cout<<"------------------------------------------------"<[01;36m[K""[m[K<"\n";
[1.429s]       |                                                                       [01;36m[K^~[m[K
[1.430s] In file included from [01m[K/usr/include/c++/9/bits/node_handle.h:39[m[K,
[1.430s]                  from [01m[K/usr/include/c++/9/bits/stl_tree.h:72[m[K,
[1.430s]                  from [01m[K/usr/include/c++/9/set:60[m[K,
[1.430s]                  from [01m[K/opt/ros/foxy/include/rclcpp/executors/multi_threaded_executor.hpp:21[m[K,
[1.430s]                  from [01m[K/opt/ros/foxy/include/rclcpp/executors.hpp:21[m[K,
[1.430s]                  from [01m[K/opt/ros/foxy/include/rclcpp/rclcpp.hpp:146[m[K,
[1.430s]                  from [01m[K/home/josef/AMR_ws/src/AMR_project/src/OrderOptimizer_function.cpp:12[m[K:
[1.430s] [01m[K/usr/include/c++/9/optional:1059:5:[m[K [01;36m[Knote: [m[Kcandidate: ‘[01m[Ktemplate<class _Tp> constexpr bool std::operator<(std::nullopt_t, const std::optional<_Tp>&)[m[K’
[1.430s]  1059 |     [01;36m[Koperator[m[K<(nullopt_t, const optional<_Tp>& __rhs) noexcept
[1.430s]       |     [01;36m[K^~~~~~~~[m[K
[1.430s] [01m[K/usr/include/c++/9/optional:1059:5:[m[K [01;36m[Knote: [m[K  template argument deduction/substitution failed:
[1.430s] [01m[K/home/josef/AMR_ws/src/AMR_project/src/OrderOptimizer_function.cpp:111:71:[m[K [01;36m[Knote: [m[K  mismatched types ‘[01m[Kconst std::optional<_Tp>[m[K’ and ‘[01m[Kconst char [1][m[K’
[1.430s]   111 |         std::cout<<"------------------------------------------------"<[01;36m[K""[m[K<"\n";
[1.430s]       |                                                                       [01;36m[K^~[m[K
[1.430s] In file included from [01m[K/usr/include/c++/9/bits/node_handle.h:39[m[K,
[1.430s]                  from [01m[K/usr/include/c++/9/bits/stl_tree.h:72[m[K,
[1.430s]                  from [01m[K/usr/include/c++/9/set:60[m[K,
[1.430s]                  from [01m[K/opt/ros/foxy/include/rclcpp/executors/multi_threaded_executor.hpp:21[m[K,
[1.430s]                  from [01m[K/opt/ros/foxy/include/rclcpp/executors.hpp:21[m[K,
[1.430s]                  from [01m[K/opt/ros/foxy/include/rclcpp/rclcpp.hpp:146[m[K,
[1.430s]                  from [01m[K/home/josef/AMR_ws/src/AMR_project/src/OrderOptimizer_function.cpp:12[m[K:
[1.430s] [01m[K/usr/include/c++/9/optional:1119:5:[m[K [01;36m[Knote: [m[Kcandidate: ‘[01m[Ktemplate<class _Tp, class _Up> constexpr std::__optional_relop_t<decltype ((declval<_Tp>() < declval<_Up>()))> std::operator<(const std::optional<_Tp>&, const _Up&)[m[K’
[1.430s]  1119 |     [01;36m[Koperator[m[K<(const optional<_Tp>& __lhs, const _Up& __rhs)
[1.430s]       |     [01;36m[K^~~~~~~~[m[K
[1.431s] [01m[K/usr/include/c++/9/optional:1119:5:[m[K [01;36m[Knote: [m[K  template argument deduction/substitution failed:
[1.431s] [01m[K/home/josef/AMR_ws/src/AMR_project/src/OrderOptimizer_function.cpp:111:71:[m[K [01;36m[Knote: [m[K  ‘[01m[Kstd::basic_ostream<char>[m[K’ is not derived from ‘[01m[Kconst std::optional<_Tp>[m[K’
[1.431s]   111 |         std::cout<<"------------------------------------------------"<[01;36m[K""[m[K<"\n";
[1.431s]       |                                                                       [01;36m[K^~[m[K
[1.431s] In file included from [01m[K/usr/include/c++/9/bits/node_handle.h:39[m[K,
[1.431s]                  from [01m[K/usr/include/c++/9/bits/stl_tree.h:72[m[K,
[1.431s]                  from [01m[K/usr/include/c++/9/set:60[m[K,
[1.431s]                  from [01m[K/opt/ros/foxy/include/rclcpp/executors/multi_threaded_executor.hpp:21[m[K,
[1.431s]                  from [01m[K/opt/ros/foxy/include/rclcpp/executors.hpp:21[m[K,
[1.431s]                  from [01m[K/opt/ros/foxy/include/rclcpp/rclcpp.hpp:146[m[K,
[1.431s]                  from [01m[K/home/josef/AMR_ws/src/AMR_project/src/OrderOptimizer_function.cpp:12[m[K:
[1.431s] [01m[K/usr/include/c++/9/optional:1125:5:[m[K [01;36m[Knote: [m[Kcandidate: ‘[01m[Ktemplate<class _Tp, class _Up> constexpr std::__optional_relop_t<decltype ((declval<_Up>() < declval<_Tp>()))> std::operator<(const _Up&, const std::optional<_Tp>&)[m[K’
[1.431s]  1125 |     [01;36m[Koperator[m[K<(const _Up& __lhs, const optional<_Tp>& __rhs)
[1.431s]       |     [01;36m[K^~~~~~~~[m[K
[1.431s] [01m[K/usr/include/c++/9/optional:1125:5:[m[K [01;36m[Knote: [m[K  template argument deduction/substitution failed:
[1.431s] [01m[K/home/josef/AMR_ws/src/AMR_project/src/OrderOptimizer_function.cpp:111:71:[m[K [01;36m[Knote: [m[K  mismatched types ‘[01m[Kconst std::optional<_Tp>[m[K’ and ‘[01m[Kconst char [1][m[K’
[1.431s]   111 |         std::cout<<"------------------------------------------------"<[01;36m[K""[m[K<"\n";
[1.431s]       |                                                                       [01;36m[K^~[m[K
[1.431s] In file included from [01m[K/usr/include/c++/9/set:61[m[K,
[1.431s]                  from [01m[K/opt/ros/foxy/include/rclcpp/executors/multi_threaded_executor.hpp:21[m[K,
[1.431s]                  from [01m[K/opt/ros/foxy/include/rclcpp/executors.hpp:21[m[K,
[1.431s]                  from [01m[K/opt/ros/foxy/include/rclcpp/rclcpp.hpp:146[m[K,
[1.431s]                  from [01m[K/home/josef/AMR_ws/src/AMR_project/src/OrderOptimizer_function.cpp:12[m[K:
[1.431s] [01m[K/usr/include/c++/9/bits/stl_set.h:996:5:[m[K [01;36m[Knote: [m[Kcandidate: ‘[01m[Ktemplate<class _Key, class _Compare, class _Alloc> bool std::operator<(const std::set<_Key, _Compare, _Allocator>&, const std::set<_Key, _Compare, _Allocator>&)[m[K’
[1.432s]   996 |     [01;36m[Koperator[m[K<(const set<_Key, _Compare, _Alloc>& __x,
[1.432s]       |     [01;36m[K^~~~~~~~[m[K
[1.432s] [01m[K/usr/include/c++/9/bits/stl_set.h:996:5:[m[K [01;36m[Knote: [m[K  template argument deduction/substitution failed:
[1.432s] [01m[K/home/josef/AMR_ws/src/AMR_project/src/OrderOptimizer_function.cpp:111:71:[m[K [01;36m[Knote: [m[K  ‘[01m[Kstd::basic_ostream<char>[m[K’ is not derived from ‘[01m[Kconst std::set<_Key, _Compare, _Allocator>[m[K’
[1.432s]   111 |         std::cout<<"------------------------------------------------"<[01;36m[K""[m[K<"\n";
[1.432s]       |                                                                       [01;36m[K^~[m[K
[1.432s] In file included from [01m[K/usr/include/c++/9/set:62[m[K,
[1.432s]                  from [01m[K/opt/ros/foxy/include/rclcpp/executors/multi_threaded_executor.hpp:21[m[K,
[1.432s]                  from [01m[K/opt/ros/foxy/include/rclcpp/executors.hpp:21[m[K,
[1.432s]                  from [01m[K/opt/ros/foxy/include/rclcpp/rclcpp.hpp:146[m[K,
[1.432s]                  from [01m[K/home/josef/AMR_ws/src/AMR_project/src/OrderOptimizer_function.cpp:12[m[K:
[1.432s] [01m[K/usr/include/c++/9/bits/stl_multiset.h:981:5:[m[K [01;36m[Knote: [m[Kcandidate: ‘[01m[Ktemplate<class _Key, class _Compare, class _Alloc> bool std::operator<(const std::multiset<_Key, _Compare, _Allocator>&, const std::multiset<_Key, _Compare, _Allocator>&)[m[K’
[1.432s]   981 |     [01;36m[Koperator[m[K<(const multiset<_Key, _Compare, _Alloc>& __x,
[1.432s]       |     [01;36m[K^~~~~~~~[m[K
[1.432s] [01m[K/usr/include/c++/9/bits/stl_multiset.h:981:5:[m[K [01;36m[Knote: [m[K  template argument deduction/substitution failed:
[1.432s] [01m[K/home/josef/AMR_ws/src/AMR_project/src/OrderOptimizer_function.cpp:111:71:[m[K [01;36m[Knote: [m[K  ‘[01m[Kstd::basic_ostream<char>[m[K’ is not derived from ‘[01m[Kconst std::multiset<_Key, _Compare, _Allocator>[m[K’
[1.432s]   111 |         std::cout<<"------------------------------------------------"<[01;36m[K""[m[K<"\n";
[1.432s]       |                                                                       [01;36m[K^~[m[K
[1.432s] In file included from [01m[K/usr/include/c++/9/list:63[m[K,
[1.432s]                  from [01m[K/opt/ros/foxy/include/rclcpp/executor.hpp:23[m[K,
[1.432s]                  from [01m[K/opt/ros/foxy/include/rclcpp/executors/multi_threaded_executor.hpp:26[m[K,
[1.432s]                  from [01m[K/opt/ros/foxy/include/rclcpp/executors.hpp:21[m[K,
[1.432s]                  from [01m[K/opt/ros/foxy/include/rclcpp/rclcpp.hpp:146[m[K,
[1.433s]                  from [01m[K/home/josef/AMR_ws/src/AMR_project/src/OrderOptimizer_function.cpp:12[m[K:
[1.433s] [01m[K/usr/include/c++/9/bits/stl_list.h:2025:5:[m[K [01;36m[Knote: [m[Kcandidate: ‘[01m[Ktemplate<class _Tp, class _Alloc> bool std::operator<(const std::__cxx11::list<_Tp, _Alloc>&, const std::__cxx11::list<_Tp, _Alloc>&)[m[K’
[1.433s]  2025 |     [01;36m[Koperator[m[K<(const list<_Tp, _Alloc>& __x, const list<_Tp, _Alloc>& __y)
[1.433s]       |     [01;36m[K^~~~~~~~[m[K
[1.433s] [01m[K/usr/include/c++/9/bits/stl_list.h:2025:5:[m[K [01;36m[Knote: [m[K  template argument deduction/substitution failed:
[1.433s] [01m[K/home/josef/AMR_ws/src/AMR_project/src/OrderOptimizer_function.cpp:111:71:[m[K [01;36m[Knote: [m[K  ‘[01m[Kstd::basic_ostream<char>[m[K’ is not derived from ‘[01m[Kconst std::__cxx11::list<_Tp, _Alloc>[m[K’
[1.433s]   111 |         std::cout<<"------------------------------------------------"<[01;36m[K""[m[K<"\n";
[1.433s]       |                                                                       [01;36m[K^~[m[K
[1.433s] In file included from [01m[K/usr/include/c++/9/map:61[m[K,
[1.433s]                  from [01m[K/opt/ros/foxy/include/rclcpp/client.hpp:20[m[K,
[1.433s]                  from [01m[K/opt/ros/foxy/include/rclcpp/callback_group.hpp:23[m[K,
[1.433s]                  from [01m[K/opt/ros/foxy/include/rclcpp/any_executable.hpp:20[m[K,
[1.433s]                  from [01m[K/opt/ros/foxy/include/rclcpp/memory_strategy.hpp:24[m[K,
[1.433s]                  from [01m[K/opt/ros/foxy/include/rclcpp/memory_strategies.hpp:18[m[K,
[1.433s]                  from [01m[K/opt/ros/foxy/include/rclcpp/executor_options.hpp:20[m[K,
[1.433s]                  from [01m[K/opt/ros/foxy/include/rclcpp/executor.hpp:33[m[K,
[1.433s]                  from [01m[K/opt/ros/foxy/include/rclcpp/executors/multi_threaded_executor.hpp:26[m[K,
[1.433s]                  from [01m[K/opt/ros/foxy/include/rclcpp/executors.hpp:21[m[K,
[1.433s]                  from [01m[K/opt/ros/foxy/include/rclcpp/rclcpp.hpp:146[m[K,
[1.433s]                  from [01m[K/home/josef/AMR_ws/src/AMR_project/src/OrderOptimizer_function.cpp:12[m[K:
[1.433s] [01m[K/usr/include/c++/9/bits/stl_map.h:1472:5:[m[K [01;36m[Knote: [m[Kcandidate: ‘[01m[Ktemplate<class _Key, class _Tp, class _Compare, class _Alloc> bool std::operator<(const std::map<_Key, _Tp, _Compare, _Allocator>&, const std::map<_Key, _Tp, _Compare, _Allocator>&)[m[K’
[1.433s]  1472 |     [01;36m[Koperator[m[K<(const map<_Key, _Tp, _Compare, _Alloc>& __x,
[1.433s]       |     [01;36m[K^~~~~~~~[m[K
[1.433s] [01m[K/usr/include/c++/9/bits/stl_map.h:1472:5:[m[K [01;36m[Knote: [m[K  template argument deduction/substitution failed:
[1.434s] [01m[K/home/josef/AMR_ws/src/AMR_project/src/OrderOptimizer_function.cpp:111:71:[m[K [01;36m[Knote: [m[K  ‘[01m[Kstd::basic_ostream<char>[m[K’ is not derived from ‘[01m[Kconst std::map<_Key, _Tp, _Compare, _Allocator>[m[K’
[1.434s]   111 |         std::cout<<"------------------------------------------------"<[01;36m[K""[m[K<"\n";
[1.434s]       |                                                                       [01;36m[K^~[m[K
[1.434s] In file included from [01m[K/usr/include/c++/9/map:62[m[K,
[1.434s]                  from [01m[K/opt/ros/foxy/include/rclcpp/client.hpp:20[m[K,
[1.434s]                  from [01m[K/opt/ros/foxy/include/rclcpp/callback_group.hpp:23[m[K,
[1.434s]                  from [01m[K/opt/ros/foxy/include/rclcpp/any_executable.hpp:20[m[K,
[1.434s]                  from [01m[K/opt/ros/foxy/include/rclcpp/memory_strategy.hpp:24[m[K,
[1.434s]                  from [01m[K/opt/ros/foxy/include/rclcpp/memory_strategies.hpp:18[m[K,
[1.434s]                  from [01m[K/opt/ros/foxy/include/rclcpp/executor_options.hpp:20[m[K,
[1.434s]                  from [01m[K/opt/ros/foxy/include/rclcpp/executor.hpp:33[m[K,
[1.434s]                  from [01m[K/opt/ros/foxy/include/rclcpp/executors/multi_threaded_executor.hpp:26[m[K,
[1.434s]                  from [01m[K/opt/ros/foxy/include/rclcpp/executors.hpp:21[m[K,
[1.434s]                  from [01m[K/opt/ros/foxy/include/rclcpp/rclcpp.hpp:146[m[K,
[1.434s]                  from [01m[K/home/josef/AMR_ws/src/AMR_project/src/OrderOptimizer_function.cpp:12[m[K:
[1.434s] [01m[K/usr/include/c++/9/bits/stl_multimap.h:1136:5:[m[K [01;36m[Knote: [m[Kcandidate: ‘[01m[Ktemplate<class _Key, class _Tp, class _Compare, class _Alloc> bool std::operator<(const std::multimap<_Key, _Tp, _Compare, _Allocator>&, const std::multimap<_Key, _Tp, _Compare, _Allocator>&)[m[K’
[1.434s]  1136 |     [01;36m[Koperator[m[K<(const multimap<_Key, _Tp, _Compare, _Alloc>& __x,
[1.434s]       |     [01;36m[K^~~~~~~~[m[K
[1.434s] [01m[K/usr/include/c++/9/bits/stl_multimap.h:1136:5:[m[K [01;36m[Knote: [m[K  template argument deduction/substitution failed:
[1.434s] [01m[K/home/josef/AMR_ws/src/AMR_project/src/OrderOptimizer_function.cpp:111:71:[m[K [01;36m[Knote: [m[K  ‘[01m[Kstd::basic_ostream<char>[m[K’ is not derived from ‘[01m[Kconst std::multimap<_Key, _Tp, _Compare, _Allocator>[m[K’
[1.434s]   111 |         std::cout<<"------------------------------------------------"<[01;36m[K""[m[K<"\n";
[1.434s]       |                                                                       [01;36m[K^~[m[K
[1.434s] [01m[K/home/josef/AMR_ws/src/AMR_project/src/OrderOptimizer_function.cpp:124:42:[m[K [01;35m[Kwarning: [m[Kcomparison of integer expressions of different signedness: ‘[01m[Kstd::__cxx11::basic_string<char>::size_type[m[K’ {aka ‘[01m[Klong unsigned int[m[K’} and ‘[01m[Kint[m[K’ [[01;35m[K-Wsign-compare[m[K]
[1.435s]   124 |                 if ([01;35m[Kline.find("Product") != -1[m[K)
[1.435s]       |                     [01;35m[K~~~~~~~~~~~~~~~~~~~~~^~~~~[m[K
[1.435s] [01m[K/home/josef/AMR_ws/src/AMR_project/src/OrderOptimizer_function.cpp:138:41:[m[K [01;35m[Kwarning: [m[Kcomparison of integer expressions of different signedness: ‘[01m[Kstd::__cxx11::basic_string<char>::size_type[m[K’ {aka ‘[01m[Klong unsigned int[m[K’} and ‘[01m[Kint[m[K’ [[01;35m[K-Wsign-compare[m[K]
[1.435s]   138 |                     if ([01;35m[Kline.find("id") != -1[m[K)
[1.435s]       |                         [01;35m[K~~~~~~~~~~~~~~~~^~~~~[m[K
[1.435s] [01m[K/home/josef/AMR_ws/src/AMR_project/src/OrderOptimizer_function.cpp:[m[K In function ‘[01m[Kint calc_path(int, double&, double&, double&, double&, std::vector<std::__cxx11::basic_string<char> >&, std::vector<part>&, std::string)[m[K’:
[1.435s] [01m[K/home/josef/AMR_ws/src/AMR_project/src/OrderOptimizer_function.cpp:198:26:[m[K [01;35m[Kwarning: [m[Kcomparison of integer expressions of different signedness: ‘[01m[Kint[m[K’ and ‘[01m[Kstd::vector<part>::size_type[m[K’ {aka ‘[01m[Klong unsigned int[m[K’} [[01;35m[K-Wsign-compare[m[K]
[1.435s]   198 |        for (int i = 0; [01;35m[Ki < parts.size()[m[K; i++)
[1.435s]       |                        [01;35m[K~~^~~~~~~~~~~~~~[m[K
[1.435s] [01m[K/home/josef/AMR_ws/src/AMR_project/src/OrderOptimizer_function.cpp:205:26:[m[K [01;35m[Kwarning: [m[Kcomparison of integer expressions of different signedness: ‘[01m[Kint[m[K’ and ‘[01m[Kstd::vector<int>::size_type[m[K’ {aka ‘[01m[Klong unsigned int[m[K’} [[01;35m[K-Wsign-compare[m[K]
[1.435s]   205 |        for (int i = 1; [01;35m[Ki < distance.size()[m[K; i++) {
[1.435s]       |                        [01;35m[K~~^~~~~~~~~~~~~~~~~[m[K
[3.752s] make[2]: *** [CMakeFiles/order_optimizer.dir/build.make:63: CMakeFiles/order_optimizer.dir/src/OrderOptimizer_function.cpp.o] Error 1
[3.752s] make[1]: *** [CMakeFiles/Makefile2:109: CMakeFiles/order_optimizer.dir/all] Error 2
[3.752s] make: *** [Makefile:141: all] Error 2
[3.759s] Invoked command in '/home/josef/AMR_ws/build/AMR_project' returned '2': CMAKE_PREFIX_PATH=/home/josef/AMR_ws/install/custom_topic:/home/josef/AMR_ws/install/AMR_project:/home/josef/AMR_ws/install/cpp_pubsub:/opt/ros/foxy /usr/bin/cmake --build /home/josef/AMR_ws/build/AMR_project -- -j6 -l6
